﻿# Tiled2Unity generated file. Do not modify by hand.
# Wavefront file for 'home2_mesh_0001.obj'

# Vertices (Count = 2048)
v 0 -1 0
v -1 -1 0
v -1 0 0
v 0 0 0
v -1 -1 0
v -2 -1 0
v -2 0 0
v -1 0 0
v -2 -1 0
v -3 -1 0
v -3 0 0
v -2 0 0
v -3 -1 0
v -4 -1 0
v -4 0 0
v -3 0 0
v -4 -1 0
v -5 -1 0
v -5 0 0
v -4 0 0
v -5 -1 0
v -6 -1 0
v -6 0 0
v -5 0 0
v -6 -1 0
v -7 -1 0
v -7 0 0
v -6 0 0
v -7 -1 0
v -8 -1 0
v -8 0 0
v -7 0 0
v -8 -1 0
v -9 -1 0
v -9 0 0
v -8 0 0
v -9 -1 0
v -10 -1 0
v -10 0 0
v -9 0 0
v -10 -1 0
v -11 -1 0
v -11 0 0
v -10 0 0
v -11 -1 0
v -12 -1 0
v -12 0 0
v -11 0 0
v -12 -1 0
v -13 -1 0
v -13 0 0
v -12 0 0
v -13 -1 0
v -14 -1 0
v -14 0 0
v -13 0 0
v -14 -1 0
v -15 -1 0
v -15 0 0
v -14 0 0
v -15 -1 0
v -16 -1 0
v -16 0 0
v -15 0 0
v -16 -1 0
v -17 -1 0
v -17 0 0
v -16 0 0
v -17 -1 0
v -18 -1 0
v -18 0 0
v -17 0 0
v -18 -1 0
v -19 -1 0
v -19 0 0
v -18 0 0
v -19 -1 0
v -20 -1 0
v -20 0 0
v -19 0 0
v -20 -1 0
v -21 -1 0
v -21 0 0
v -20 0 0
v -21 -1 0
v -22 -1 0
v -22 0 0
v -21 0 0
v -22 -1 0
v -23 -1 0
v -23 0 0
v -22 0 0
v -23 -1 0
v -24 -1 0
v -24 0 0
v -23 0 0
v -24 -1 0
v -25 -1 0
v -25 0 0
v -24 0 0
v -25 -1 0
v -26 -1 0
v -26 0 0
v -25 0 0
v -26 -1 0
v -27 -1 0
v -27 0 0
v -26 0 0
v -27 -1 0
v -28 -1 0
v -28 0 0
v -27 0 0
v -28 -1 0
v -29 -1 0
v -29 0 0
v -28 0 0
v -29 -1 0
v -30 -1 0
v -30 0 0
v -29 0 0
v -30 -1 0
v -31 -1 0
v -31 0 0
v -30 0 0
v -31 -1 0
v -32 -1 0
v -32 0 0
v -31 0 0
v 0 -2 0
v -1 -2 0
v -1 -1 0
v 0 -1 0
v -1 -2 0
v -2 -2 0
v -2 -1 0
v -1 -1 0
v -2 -2 0
v -3 -2 0
v -3 -1 0
v -2 -1 0
v -3 -2 0
v -4 -2 0
v -4 -1 0
v -3 -1 0
v -4 -2 0
v -5 -2 0
v -5 -1 0
v -4 -1 0
v -5 -2 0
v -6 -2 0
v -6 -1 0
v -5 -1 0
v -6 -2 0
v -7 -2 0
v -7 -1 0
v -6 -1 0
v -7 -2 0
v -8 -2 0
v -8 -1 0
v -7 -1 0
v -8 -2 0
v -9 -2 0
v -9 -1 0
v -8 -1 0
v -9 -2 0
v -10 -2 0
v -10 -1 0
v -9 -1 0
v -10 -2 0
v -11 -2 0
v -11 -1 0
v -10 -1 0
v -11 -2 0
v -12 -2 0
v -12 -1 0
v -11 -1 0
v -12 -2 0
v -13 -2 0
v -13 -1 0
v -12 -1 0
v -13 -2 0
v -14 -2 0
v -14 -1 0
v -13 -1 0
v -14 -2 0
v -15 -2 0
v -15 -1 0
v -14 -1 0
v -15 -2 0
v -16 -2 0
v -16 -1 0
v -15 -1 0
v -16 -2 0
v -17 -2 0
v -17 -1 0
v -16 -1 0
v -17 -2 0
v -18 -2 0
v -18 -1 0
v -17 -1 0
v -18 -2 0
v -19 -2 0
v -19 -1 0
v -18 -1 0
v -19 -2 0
v -20 -2 0
v -20 -1 0
v -19 -1 0
v -20 -2 0
v -21 -2 0
v -21 -1 0
v -20 -1 0
v -21 -2 0
v -22 -2 0
v -22 -1 0
v -21 -1 0
v -22 -2 0
v -23 -2 0
v -23 -1 0
v -22 -1 0
v -23 -2 0
v -24 -2 0
v -24 -1 0
v -23 -1 0
v -24 -2 0
v -25 -2 0
v -25 -1 0
v -24 -1 0
v -25 -2 0
v -26 -2 0
v -26 -1 0
v -25 -1 0
v -26 -2 0
v -27 -2 0
v -27 -1 0
v -26 -1 0
v -27 -2 0
v -28 -2 0
v -28 -1 0
v -27 -1 0
v -28 -2 0
v -29 -2 0
v -29 -1 0
v -28 -1 0
v -29 -2 0
v -30 -2 0
v -30 -1 0
v -29 -1 0
v -30 -2 0
v -31 -2 0
v -31 -1 0
v -30 -1 0
v -31 -2 0
v -32 -2 0
v -32 -1 0
v -31 -1 0
v 0 -3 0
v -1 -3 0
v -1 -2 0
v 0 -2 0
v -1 -3 0
v -2 -3 0
v -2 -2 0
v -1 -2 0
v -2 -3 0
v -3 -3 0
v -3 -2 0
v -2 -2 0
v -3 -3 0
v -4 -3 0
v -4 -2 0
v -3 -2 0
v -4 -3 0
v -5 -3 0
v -5 -2 0
v -4 -2 0
v -5 -3 0
v -6 -3 0
v -6 -2 0
v -5 -2 0
v -6 -3 0
v -7 -3 0
v -7 -2 0
v -6 -2 0
v -7 -3 0
v -8 -3 0
v -8 -2 0
v -7 -2 0
v -8 -3 0
v -9 -3 0
v -9 -2 0
v -8 -2 0
v -9 -3 0
v -10 -3 0
v -10 -2 0
v -9 -2 0
v -10 -3 0
v -11 -3 0
v -11 -2 0
v -10 -2 0
v -11 -3 0
v -12 -3 0
v -12 -2 0
v -11 -2 0
v -12 -3 0
v -13 -3 0
v -13 -2 0
v -12 -2 0
v -13 -3 0
v -14 -3 0
v -14 -2 0
v -13 -2 0
v -14 -3 0
v -15 -3 0
v -15 -2 0
v -14 -2 0
v -15 -3 0
v -16 -3 0
v -16 -2 0
v -15 -2 0
v -16 -3 0
v -17 -3 0
v -17 -2 0
v -16 -2 0
v -17 -3 0
v -18 -3 0
v -18 -2 0
v -17 -2 0
v -18 -3 0
v -19 -3 0
v -19 -2 0
v -18 -2 0
v -19 -3 0
v -20 -3 0
v -20 -2 0
v -19 -2 0
v -20 -3 0
v -21 -3 0
v -21 -2 0
v -20 -2 0
v -21 -3 0
v -22 -3 0
v -22 -2 0
v -21 -2 0
v -22 -3 0
v -23 -3 0
v -23 -2 0
v -22 -2 0
v -23 -3 0
v -24 -3 0
v -24 -2 0
v -23 -2 0
v -24 -3 0
v -25 -3 0
v -25 -2 0
v -24 -2 0
v -25 -3 0
v -26 -3 0
v -26 -2 0
v -25 -2 0
v -26 -3 0
v -27 -3 0
v -27 -2 0
v -26 -2 0
v -27 -3 0
v -28 -3 0
v -28 -2 0
v -27 -2 0
v -28 -3 0
v -29 -3 0
v -29 -2 0
v -28 -2 0
v -29 -3 0
v -30 -3 0
v -30 -2 0
v -29 -2 0
v -30 -3 0
v -31 -3 0
v -31 -2 0
v -30 -2 0
v -31 -3 0
v -32 -3 0
v -32 -2 0
v -31 -2 0
v 0 -4 0
v -1 -4 0
v -1 -3 0
v 0 -3 0
v -1 -4 0
v -2 -4 0
v -2 -3 0
v -1 -3 0
v -2 -4 0
v -3 -4 0
v -3 -3 0
v -2 -3 0
v -3 -4 0
v -4 -4 0
v -4 -3 0
v -3 -3 0
v -4 -4 0
v -5 -4 0
v -5 -3 0
v -4 -3 0
v -5 -4 0
v -6 -4 0
v -6 -3 0
v -5 -3 0
v -6 -4 0
v -7 -4 0
v -7 -3 0
v -6 -3 0
v -7 -4 0
v -8 -4 0
v -8 -3 0
v -7 -3 0
v -8 -4 0
v -9 -4 0
v -9 -3 0
v -8 -3 0
v -9 -4 0
v -10 -4 0
v -10 -3 0
v -9 -3 0
v -10 -4 0
v -11 -4 0
v -11 -3 0
v -10 -3 0
v -11 -4 0
v -12 -4 0
v -12 -3 0
v -11 -3 0
v -12 -4 0
v -13 -4 0
v -13 -3 0
v -12 -3 0
v -13 -4 0
v -14 -4 0
v -14 -3 0
v -13 -3 0
v -14 -4 0
v -15 -4 0
v -15 -3 0
v -14 -3 0
v -15 -4 0
v -16 -4 0
v -16 -3 0
v -15 -3 0
v -16 -4 0
v -17 -4 0
v -17 -3 0
v -16 -3 0
v -17 -4 0
v -18 -4 0
v -18 -3 0
v -17 -3 0
v -18 -4 0
v -19 -4 0
v -19 -3 0
v -18 -3 0
v -19 -4 0
v -20 -4 0
v -20 -3 0
v -19 -3 0
v -20 -4 0
v -21 -4 0
v -21 -3 0
v -20 -3 0
v -21 -4 0
v -22 -4 0
v -22 -3 0
v -21 -3 0
v -22 -4 0
v -23 -4 0
v -23 -3 0
v -22 -3 0
v -23 -4 0
v -24 -4 0
v -24 -3 0
v -23 -3 0
v -24 -4 0
v -25 -4 0
v -25 -3 0
v -24 -3 0
v -25 -4 0
v -26 -4 0
v -26 -3 0
v -25 -3 0
v -26 -4 0
v -27 -4 0
v -27 -3 0
v -26 -3 0
v -27 -4 0
v -28 -4 0
v -28 -3 0
v -27 -3 0
v -28 -4 0
v -29 -4 0
v -29 -3 0
v -28 -3 0
v -29 -4 0
v -30 -4 0
v -30 -3 0
v -29 -3 0
v -30 -4 0
v -31 -4 0
v -31 -3 0
v -30 -3 0
v -31 -4 0
v -32 -4 0
v -32 -3 0
v -31 -3 0
v 0 -5 0
v -1 -5 0
v -1 -4 0
v 0 -4 0
v -1 -5 0
v -2 -5 0
v -2 -4 0
v -1 -4 0
v -2 -5 0
v -3 -5 0
v -3 -4 0
v -2 -4 0
v -3 -5 0
v -4 -5 0
v -4 -4 0
v -3 -4 0
v -4 -5 0
v -5 -5 0
v -5 -4 0
v -4 -4 0
v -5 -5 0
v -6 -5 0
v -6 -4 0
v -5 -4 0
v -6 -5 0
v -7 -5 0
v -7 -4 0
v -6 -4 0
v -7 -5 0
v -8 -5 0
v -8 -4 0
v -7 -4 0
v -8 -5 0
v -9 -5 0
v -9 -4 0
v -8 -4 0
v -9 -5 0
v -10 -5 0
v -10 -4 0
v -9 -4 0
v -10 -5 0
v -11 -5 0
v -11 -4 0
v -10 -4 0
v -11 -5 0
v -12 -5 0
v -12 -4 0
v -11 -4 0
v -12 -5 0
v -13 -5 0
v -13 -4 0
v -12 -4 0
v -13 -5 0
v -14 -5 0
v -14 -4 0
v -13 -4 0
v -14 -5 0
v -15 -5 0
v -15 -4 0
v -14 -4 0
v -15 -5 0
v -16 -5 0
v -16 -4 0
v -15 -4 0
v -16 -5 0
v -17 -5 0
v -17 -4 0
v -16 -4 0
v -17 -5 0
v -18 -5 0
v -18 -4 0
v -17 -4 0
v -18 -5 0
v -19 -5 0
v -19 -4 0
v -18 -4 0
v -19 -5 0
v -20 -5 0
v -20 -4 0
v -19 -4 0
v -20 -5 0
v -21 -5 0
v -21 -4 0
v -20 -4 0
v -21 -5 0
v -22 -5 0
v -22 -4 0
v -21 -4 0
v -22 -5 0
v -23 -5 0
v -23 -4 0
v -22 -4 0
v -23 -5 0
v -24 -5 0
v -24 -4 0
v -23 -4 0
v -24 -5 0
v -25 -5 0
v -25 -4 0
v -24 -4 0
v -25 -5 0
v -26 -5 0
v -26 -4 0
v -25 -4 0
v -26 -5 0
v -27 -5 0
v -27 -4 0
v -26 -4 0
v -27 -5 0
v -28 -5 0
v -28 -4 0
v -27 -4 0
v -28 -5 0
v -29 -5 0
v -29 -4 0
v -28 -4 0
v -29 -5 0
v -30 -5 0
v -30 -4 0
v -29 -4 0
v -30 -5 0
v -31 -5 0
v -31 -4 0
v -30 -4 0
v -31 -5 0
v -32 -5 0
v -32 -4 0
v -31 -4 0
v 0 -6 0
v -1 -6 0
v -1 -5 0
v 0 -5 0
v -1 -6 0
v -2 -6 0
v -2 -5 0
v -1 -5 0
v -2 -6 0
v -3 -6 0
v -3 -5 0
v -2 -5 0
v -3 -6 0
v -4 -6 0
v -4 -5 0
v -3 -5 0
v -4 -6 0
v -5 -6 0
v -5 -5 0
v -4 -5 0
v -5 -6 0
v -6 -6 0
v -6 -5 0
v -5 -5 0
v -6 -6 0
v -7 -6 0
v -7 -5 0
v -6 -5 0
v -7 -6 0
v -8 -6 0
v -8 -5 0
v -7 -5 0
v -8 -6 0
v -9 -6 0
v -9 -5 0
v -8 -5 0
v -9 -6 0
v -10 -6 0
v -10 -5 0
v -9 -5 0
v -10 -6 0
v -11 -6 0
v -11 -5 0
v -10 -5 0
v -11 -6 0
v -12 -6 0
v -12 -5 0
v -11 -5 0
v -12 -6 0
v -13 -6 0
v -13 -5 0
v -12 -5 0
v -13 -6 0
v -14 -6 0
v -14 -5 0
v -13 -5 0
v -14 -6 0
v -15 -6 0
v -15 -5 0
v -14 -5 0
v -15 -6 0
v -16 -6 0
v -16 -5 0
v -15 -5 0
v -16 -6 0
v -17 -6 0
v -17 -5 0
v -16 -5 0
v -17 -6 0
v -18 -6 0
v -18 -5 0
v -17 -5 0
v -18 -6 0
v -19 -6 0
v -19 -5 0
v -18 -5 0
v -19 -6 0
v -20 -6 0
v -20 -5 0
v -19 -5 0
v -20 -6 0
v -21 -6 0
v -21 -5 0
v -20 -5 0
v -21 -6 0
v -22 -6 0
v -22 -5 0
v -21 -5 0
v -22 -6 0
v -23 -6 0
v -23 -5 0
v -22 -5 0
v -23 -6 0
v -24 -6 0
v -24 -5 0
v -23 -5 0
v -24 -6 0
v -25 -6 0
v -25 -5 0
v -24 -5 0
v -25 -6 0
v -26 -6 0
v -26 -5 0
v -25 -5 0
v -26 -6 0
v -27 -6 0
v -27 -5 0
v -26 -5 0
v -27 -6 0
v -28 -6 0
v -28 -5 0
v -27 -5 0
v -28 -6 0
v -29 -6 0
v -29 -5 0
v -28 -5 0
v -29 -6 0
v -30 -6 0
v -30 -5 0
v -29 -5 0
v -30 -6 0
v -31 -6 0
v -31 -5 0
v -30 -5 0
v -31 -6 0
v -32 -6 0
v -32 -5 0
v -31 -5 0
v 0 -7 0
v -1 -7 0
v -1 -6 0
v 0 -6 0
v -1 -7 0
v -2 -7 0
v -2 -6 0
v -1 -6 0
v -2 -7 0
v -3 -7 0
v -3 -6 0
v -2 -6 0
v -3 -7 0
v -4 -7 0
v -4 -6 0
v -3 -6 0
v -4 -7 0
v -5 -7 0
v -5 -6 0
v -4 -6 0
v -5 -7 0
v -6 -7 0
v -6 -6 0
v -5 -6 0
v -6 -7 0
v -7 -7 0
v -7 -6 0
v -6 -6 0
v -7 -7 0
v -8 -7 0
v -8 -6 0
v -7 -6 0
v -8 -7 0
v -9 -7 0
v -9 -6 0
v -8 -6 0
v -9 -7 0
v -10 -7 0
v -10 -6 0
v -9 -6 0
v -10 -7 0
v -11 -7 0
v -11 -6 0
v -10 -6 0
v -11 -7 0
v -12 -7 0
v -12 -6 0
v -11 -6 0
v -12 -7 0
v -13 -7 0
v -13 -6 0
v -12 -6 0
v -13 -7 0
v -14 -7 0
v -14 -6 0
v -13 -6 0
v -14 -7 0
v -15 -7 0
v -15 -6 0
v -14 -6 0
v -15 -7 0
v -16 -7 0
v -16 -6 0
v -15 -6 0
v -16 -7 0
v -17 -7 0
v -17 -6 0
v -16 -6 0
v -17 -7 0
v -18 -7 0
v -18 -6 0
v -17 -6 0
v -18 -7 0
v -19 -7 0
v -19 -6 0
v -18 -6 0
v -19 -7 0
v -20 -7 0
v -20 -6 0
v -19 -6 0
v -20 -7 0
v -21 -7 0
v -21 -6 0
v -20 -6 0
v -21 -7 0
v -22 -7 0
v -22 -6 0
v -21 -6 0
v -22 -7 0
v -23 -7 0
v -23 -6 0
v -22 -6 0
v -23 -7 0
v -24 -7 0
v -24 -6 0
v -23 -6 0
v -24 -7 0
v -25 -7 0
v -25 -6 0
v -24 -6 0
v -25 -7 0
v -26 -7 0
v -26 -6 0
v -25 -6 0
v -26 -7 0
v -27 -7 0
v -27 -6 0
v -26 -6 0
v -27 -7 0
v -28 -7 0
v -28 -6 0
v -27 -6 0
v -28 -7 0
v -29 -7 0
v -29 -6 0
v -28 -6 0
v -29 -7 0
v -30 -7 0
v -30 -6 0
v -29 -6 0
v -30 -7 0
v -31 -7 0
v -31 -6 0
v -30 -6 0
v -31 -7 0
v -32 -7 0
v -32 -6 0
v -31 -6 0
v 0 -8 0
v -1 -8 0
v -1 -7 0
v 0 -7 0
v -1 -8 0
v -2 -8 0
v -2 -7 0
v -1 -7 0
v -2 -8 0
v -3 -8 0
v -3 -7 0
v -2 -7 0
v -3 -8 0
v -4 -8 0
v -4 -7 0
v -3 -7 0
v -4 -8 0
v -5 -8 0
v -5 -7 0
v -4 -7 0
v -5 -8 0
v -6 -8 0
v -6 -7 0
v -5 -7 0
v -6 -8 0
v -7 -8 0
v -7 -7 0
v -6 -7 0
v -7 -8 0
v -8 -8 0
v -8 -7 0
v -7 -7 0
v -8 -8 0
v -9 -8 0
v -9 -7 0
v -8 -7 0
v -9 -8 0
v -10 -8 0
v -10 -7 0
v -9 -7 0
v -10 -8 0
v -11 -8 0
v -11 -7 0
v -10 -7 0
v -11 -8 0
v -12 -8 0
v -12 -7 0
v -11 -7 0
v -12 -8 0
v -13 -8 0
v -13 -7 0
v -12 -7 0
v -13 -8 0
v -14 -8 0
v -14 -7 0
v -13 -7 0
v -14 -8 0
v -15 -8 0
v -15 -7 0
v -14 -7 0
v -15 -8 0
v -16 -8 0
v -16 -7 0
v -15 -7 0
v -16 -8 0
v -17 -8 0
v -17 -7 0
v -16 -7 0
v -17 -8 0
v -18 -8 0
v -18 -7 0
v -17 -7 0
v -18 -8 0
v -19 -8 0
v -19 -7 0
v -18 -7 0
v -19 -8 0
v -20 -8 0
v -20 -7 0
v -19 -7 0
v -20 -8 0
v -21 -8 0
v -21 -7 0
v -20 -7 0
v -21 -8 0
v -22 -8 0
v -22 -7 0
v -21 -7 0
v -22 -8 0
v -23 -8 0
v -23 -7 0
v -22 -7 0
v -23 -8 0
v -24 -8 0
v -24 -7 0
v -23 -7 0
v -24 -8 0
v -25 -8 0
v -25 -7 0
v -24 -7 0
v -25 -8 0
v -26 -8 0
v -26 -7 0
v -25 -7 0
v -26 -8 0
v -27 -8 0
v -27 -7 0
v -26 -7 0
v -27 -8 0
v -28 -8 0
v -28 -7 0
v -27 -7 0
v -28 -8 0
v -29 -8 0
v -29 -7 0
v -28 -7 0
v -29 -8 0
v -30 -8 0
v -30 -7 0
v -29 -7 0
v -30 -8 0
v -31 -8 0
v -31 -7 0
v -30 -7 0
v -31 -8 0
v -32 -8 0
v -32 -7 0
v -31 -7 0
v 0 -9 0
v -1 -9 0
v -1 -8 0
v 0 -8 0
v -1 -9 0
v -2 -9 0
v -2 -8 0
v -1 -8 0
v -2 -9 0
v -3 -9 0
v -3 -8 0
v -2 -8 0
v -3 -9 0
v -4 -9 0
v -4 -8 0
v -3 -8 0
v -4 -9 0
v -5 -9 0
v -5 -8 0
v -4 -8 0
v -5 -9 0
v -6 -9 0
v -6 -8 0
v -5 -8 0
v -6 -9 0
v -7 -9 0
v -7 -8 0
v -6 -8 0
v -7 -9 0
v -8 -9 0
v -8 -8 0
v -7 -8 0
v -8 -9 0
v -9 -9 0
v -9 -8 0
v -8 -8 0
v -9 -9 0
v -10 -9 0
v -10 -8 0
v -9 -8 0
v -10 -9 0
v -11 -9 0
v -11 -8 0
v -10 -8 0
v -11 -9 0
v -12 -9 0
v -12 -8 0
v -11 -8 0
v -12 -9 0
v -13 -9 0
v -13 -8 0
v -12 -8 0
v -13 -9 0
v -14 -9 0
v -14 -8 0
v -13 -8 0
v -14 -9 0
v -15 -9 0
v -15 -8 0
v -14 -8 0
v -15 -9 0
v -16 -9 0
v -16 -8 0
v -15 -8 0
v -16 -9 0
v -17 -9 0
v -17 -8 0
v -16 -8 0
v -17 -9 0
v -18 -9 0
v -18 -8 0
v -17 -8 0
v -18 -9 0
v -19 -9 0
v -19 -8 0
v -18 -8 0
v -19 -9 0
v -20 -9 0
v -20 -8 0
v -19 -8 0
v -20 -9 0
v -21 -9 0
v -21 -8 0
v -20 -8 0
v -21 -9 0
v -22 -9 0
v -22 -8 0
v -21 -8 0
v -22 -9 0
v -23 -9 0
v -23 -8 0
v -22 -8 0
v -23 -9 0
v -24 -9 0
v -24 -8 0
v -23 -8 0
v -24 -9 0
v -25 -9 0
v -25 -8 0
v -24 -8 0
v -25 -9 0
v -26 -9 0
v -26 -8 0
v -25 -8 0
v -26 -9 0
v -27 -9 0
v -27 -8 0
v -26 -8 0
v -27 -9 0
v -28 -9 0
v -28 -8 0
v -27 -8 0
v -28 -9 0
v -29 -9 0
v -29 -8 0
v -28 -8 0
v -29 -9 0
v -30 -9 0
v -30 -8 0
v -29 -8 0
v -30 -9 0
v -31 -9 0
v -31 -8 0
v -30 -8 0
v -31 -9 0
v -32 -9 0
v -32 -8 0
v -31 -8 0
v 0 -10 0
v -1 -10 0
v -1 -9 0
v 0 -9 0
v -1 -10 0
v -2 -10 0
v -2 -9 0
v -1 -9 0
v -2 -10 0
v -3 -10 0
v -3 -9 0
v -2 -9 0
v -3 -10 0
v -4 -10 0
v -4 -9 0
v -3 -9 0
v -4 -10 0
v -5 -10 0
v -5 -9 0
v -4 -9 0
v -5 -10 0
v -6 -10 0
v -6 -9 0
v -5 -9 0
v -6 -10 0
v -7 -10 0
v -7 -9 0
v -6 -9 0
v -7 -10 0
v -8 -10 0
v -8 -9 0
v -7 -9 0
v -8 -10 0
v -9 -10 0
v -9 -9 0
v -8 -9 0
v -9 -10 0
v -10 -10 0
v -10 -9 0
v -9 -9 0
v -10 -10 0
v -11 -10 0
v -11 -9 0
v -10 -9 0
v -11 -10 0
v -12 -10 0
v -12 -9 0
v -11 -9 0
v -12 -10 0
v -13 -10 0
v -13 -9 0
v -12 -9 0
v -13 -10 0
v -14 -10 0
v -14 -9 0
v -13 -9 0
v -14 -10 0
v -15 -10 0
v -15 -9 0
v -14 -9 0
v -15 -10 0
v -16 -10 0
v -16 -9 0
v -15 -9 0
v -16 -10 0
v -17 -10 0
v -17 -9 0
v -16 -9 0
v -17 -10 0
v -18 -10 0
v -18 -9 0
v -17 -9 0
v -18 -10 0
v -19 -10 0
v -19 -9 0
v -18 -9 0
v -19 -10 0
v -20 -10 0
v -20 -9 0
v -19 -9 0
v -20 -10 0
v -21 -10 0
v -21 -9 0
v -20 -9 0
v -21 -10 0
v -22 -10 0
v -22 -9 0
v -21 -9 0
v -22 -10 0
v -23 -10 0
v -23 -9 0
v -22 -9 0
v -23 -10 0
v -24 -10 0
v -24 -9 0
v -23 -9 0
v -24 -10 0
v -25 -10 0
v -25 -9 0
v -24 -9 0
v -25 -10 0
v -26 -10 0
v -26 -9 0
v -25 -9 0
v -26 -10 0
v -27 -10 0
v -27 -9 0
v -26 -9 0
v -27 -10 0
v -28 -10 0
v -28 -9 0
v -27 -9 0
v -28 -10 0
v -29 -10 0
v -29 -9 0
v -28 -9 0
v -29 -10 0
v -30 -10 0
v -30 -9 0
v -29 -9 0
v -30 -10 0
v -31 -10 0
v -31 -9 0
v -30 -9 0
v -31 -10 0
v -32 -10 0
v -32 -9 0
v -31 -9 0
v 0 -11 0
v -1 -11 0
v -1 -10 0
v 0 -10 0
v -1 -11 0
v -2 -11 0
v -2 -10 0
v -1 -10 0
v -2 -11 0
v -3 -11 0
v -3 -10 0
v -2 -10 0
v -3 -11 0
v -4 -11 0
v -4 -10 0
v -3 -10 0
v -4 -11 0
v -5 -11 0
v -5 -10 0
v -4 -10 0
v -5 -11 0
v -6 -11 0
v -6 -10 0
v -5 -10 0
v -6 -11 0
v -7 -11 0
v -7 -10 0
v -6 -10 0
v -7 -11 0
v -8 -11 0
v -8 -10 0
v -7 -10 0
v -8 -11 0
v -9 -11 0
v -9 -10 0
v -8 -10 0
v -9 -11 0
v -10 -11 0
v -10 -10 0
v -9 -10 0
v -10 -11 0
v -11 -11 0
v -11 -10 0
v -10 -10 0
v -11 -11 0
v -12 -11 0
v -12 -10 0
v -11 -10 0
v -12 -11 0
v -13 -11 0
v -13 -10 0
v -12 -10 0
v -13 -11 0
v -14 -11 0
v -14 -10 0
v -13 -10 0
v -14 -11 0
v -15 -11 0
v -15 -10 0
v -14 -10 0
v -15 -11 0
v -16 -11 0
v -16 -10 0
v -15 -10 0
v -16 -11 0
v -17 -11 0
v -17 -10 0
v -16 -10 0
v -17 -11 0
v -18 -11 0
v -18 -10 0
v -17 -10 0
v -18 -11 0
v -19 -11 0
v -19 -10 0
v -18 -10 0
v -19 -11 0
v -20 -11 0
v -20 -10 0
v -19 -10 0
v -20 -11 0
v -21 -11 0
v -21 -10 0
v -20 -10 0
v -21 -11 0
v -22 -11 0
v -22 -10 0
v -21 -10 0
v -22 -11 0
v -23 -11 0
v -23 -10 0
v -22 -10 0
v -23 -11 0
v -24 -11 0
v -24 -10 0
v -23 -10 0
v -24 -11 0
v -25 -11 0
v -25 -10 0
v -24 -10 0
v -25 -11 0
v -26 -11 0
v -26 -10 0
v -25 -10 0
v -26 -11 0
v -27 -11 0
v -27 -10 0
v -26 -10 0
v -27 -11 0
v -28 -11 0
v -28 -10 0
v -27 -10 0
v -28 -11 0
v -29 -11 0
v -29 -10 0
v -28 -10 0
v -29 -11 0
v -30 -11 0
v -30 -10 0
v -29 -10 0
v -30 -11 0
v -31 -11 0
v -31 -10 0
v -30 -10 0
v -31 -11 0
v -32 -11 0
v -32 -10 0
v -31 -10 0
v 0 -12 0
v -1 -12 0
v -1 -11 0
v 0 -11 0
v -1 -12 0
v -2 -12 0
v -2 -11 0
v -1 -11 0
v -2 -12 0
v -3 -12 0
v -3 -11 0
v -2 -11 0
v -3 -12 0
v -4 -12 0
v -4 -11 0
v -3 -11 0
v -4 -12 0
v -5 -12 0
v -5 -11 0
v -4 -11 0
v -5 -12 0
v -6 -12 0
v -6 -11 0
v -5 -11 0
v -6 -12 0
v -7 -12 0
v -7 -11 0
v -6 -11 0
v -7 -12 0
v -8 -12 0
v -8 -11 0
v -7 -11 0
v -8 -12 0
v -9 -12 0
v -9 -11 0
v -8 -11 0
v -9 -12 0
v -10 -12 0
v -10 -11 0
v -9 -11 0
v -10 -12 0
v -11 -12 0
v -11 -11 0
v -10 -11 0
v -11 -12 0
v -12 -12 0
v -12 -11 0
v -11 -11 0
v -12 -12 0
v -13 -12 0
v -13 -11 0
v -12 -11 0
v -13 -12 0
v -14 -12 0
v -14 -11 0
v -13 -11 0
v -14 -12 0
v -15 -12 0
v -15 -11 0
v -14 -11 0
v -15 -12 0
v -16 -12 0
v -16 -11 0
v -15 -11 0
v -16 -12 0
v -17 -12 0
v -17 -11 0
v -16 -11 0
v -17 -12 0
v -18 -12 0
v -18 -11 0
v -17 -11 0
v -18 -12 0
v -19 -12 0
v -19 -11 0
v -18 -11 0
v -19 -12 0
v -20 -12 0
v -20 -11 0
v -19 -11 0
v -20 -12 0
v -21 -12 0
v -21 -11 0
v -20 -11 0
v -21 -12 0
v -22 -12 0
v -22 -11 0
v -21 -11 0
v -22 -12 0
v -23 -12 0
v -23 -11 0
v -22 -11 0
v -23 -12 0
v -24 -12 0
v -24 -11 0
v -23 -11 0
v -24 -12 0
v -25 -12 0
v -25 -11 0
v -24 -11 0
v -25 -12 0
v -26 -12 0
v -26 -11 0
v -25 -11 0
v -26 -12 0
v -27 -12 0
v -27 -11 0
v -26 -11 0
v -27 -12 0
v -28 -12 0
v -28 -11 0
v -27 -11 0
v -28 -12 0
v -29 -12 0
v -29 -11 0
v -28 -11 0
v -29 -12 0
v -30 -12 0
v -30 -11 0
v -29 -11 0
v -30 -12 0
v -31 -12 0
v -31 -11 0
v -30 -11 0
v -31 -12 0
v -32 -12 0
v -32 -11 0
v -31 -11 0
v 0 -13 0
v -1 -13 0
v -1 -12 0
v 0 -12 0
v -1 -13 0
v -2 -13 0
v -2 -12 0
v -1 -12 0
v -2 -13 0
v -3 -13 0
v -3 -12 0
v -2 -12 0
v -3 -13 0
v -4 -13 0
v -4 -12 0
v -3 -12 0
v -4 -13 0
v -5 -13 0
v -5 -12 0
v -4 -12 0
v -5 -13 0
v -6 -13 0
v -6 -12 0
v -5 -12 0
v -6 -13 0
v -7 -13 0
v -7 -12 0
v -6 -12 0
v -7 -13 0
v -8 -13 0
v -8 -12 0
v -7 -12 0
v -8 -13 0
v -9 -13 0
v -9 -12 0
v -8 -12 0
v -9 -13 0
v -10 -13 0
v -10 -12 0
v -9 -12 0
v -10 -13 0
v -11 -13 0
v -11 -12 0
v -10 -12 0
v -11 -13 0
v -12 -13 0
v -12 -12 0
v -11 -12 0
v -12 -13 0
v -13 -13 0
v -13 -12 0
v -12 -12 0
v -13 -13 0
v -14 -13 0
v -14 -12 0
v -13 -12 0
v -14 -13 0
v -15 -13 0
v -15 -12 0
v -14 -12 0
v -15 -13 0
v -16 -13 0
v -16 -12 0
v -15 -12 0
v -16 -13 0
v -17 -13 0
v -17 -12 0
v -16 -12 0
v -17 -13 0
v -18 -13 0
v -18 -12 0
v -17 -12 0
v -18 -13 0
v -19 -13 0
v -19 -12 0
v -18 -12 0
v -19 -13 0
v -20 -13 0
v -20 -12 0
v -19 -12 0
v -20 -13 0
v -21 -13 0
v -21 -12 0
v -20 -12 0
v -21 -13 0
v -22 -13 0
v -22 -12 0
v -21 -12 0
v -22 -13 0
v -23 -13 0
v -23 -12 0
v -22 -12 0
v -23 -13 0
v -24 -13 0
v -24 -12 0
v -23 -12 0
v -24 -13 0
v -25 -13 0
v -25 -12 0
v -24 -12 0
v -25 -13 0
v -26 -13 0
v -26 -12 0
v -25 -12 0
v -26 -13 0
v -27 -13 0
v -27 -12 0
v -26 -12 0
v -27 -13 0
v -28 -13 0
v -28 -12 0
v -27 -12 0
v -28 -13 0
v -29 -13 0
v -29 -12 0
v -28 -12 0
v -29 -13 0
v -30 -13 0
v -30 -12 0
v -29 -12 0
v -30 -13 0
v -31 -13 0
v -31 -12 0
v -30 -12 0
v -31 -13 0
v -32 -13 0
v -32 -12 0
v -31 -12 0
v 0 -14 0
v -1 -14 0
v -1 -13 0
v 0 -13 0
v -1 -14 0
v -2 -14 0
v -2 -13 0
v -1 -13 0
v -2 -14 0
v -3 -14 0
v -3 -13 0
v -2 -13 0
v -3 -14 0
v -4 -14 0
v -4 -13 0
v -3 -13 0
v -4 -14 0
v -5 -14 0
v -5 -13 0
v -4 -13 0
v -5 -14 0
v -6 -14 0
v -6 -13 0
v -5 -13 0
v -6 -14 0
v -7 -14 0
v -7 -13 0
v -6 -13 0
v -7 -14 0
v -8 -14 0
v -8 -13 0
v -7 -13 0
v -8 -14 0
v -9 -14 0
v -9 -13 0
v -8 -13 0
v -9 -14 0
v -10 -14 0
v -10 -13 0
v -9 -13 0
v -10 -14 0
v -11 -14 0
v -11 -13 0
v -10 -13 0
v -11 -14 0
v -12 -14 0
v -12 -13 0
v -11 -13 0
v -12 -14 0
v -13 -14 0
v -13 -13 0
v -12 -13 0
v -13 -14 0
v -14 -14 0
v -14 -13 0
v -13 -13 0
v -14 -14 0
v -15 -14 0
v -15 -13 0
v -14 -13 0
v -15 -14 0
v -16 -14 0
v -16 -13 0
v -15 -13 0
v -16 -14 0
v -17 -14 0
v -17 -13 0
v -16 -13 0
v -17 -14 0
v -18 -14 0
v -18 -13 0
v -17 -13 0
v -18 -14 0
v -19 -14 0
v -19 -13 0
v -18 -13 0
v -19 -14 0
v -20 -14 0
v -20 -13 0
v -19 -13 0
v -20 -14 0
v -21 -14 0
v -21 -13 0
v -20 -13 0
v -21 -14 0
v -22 -14 0
v -22 -13 0
v -21 -13 0
v -22 -14 0
v -23 -14 0
v -23 -13 0
v -22 -13 0
v -23 -14 0
v -24 -14 0
v -24 -13 0
v -23 -13 0
v -24 -14 0
v -25 -14 0
v -25 -13 0
v -24 -13 0
v -25 -14 0
v -26 -14 0
v -26 -13 0
v -25 -13 0
v -26 -14 0
v -27 -14 0
v -27 -13 0
v -26 -13 0
v -27 -14 0
v -28 -14 0
v -28 -13 0
v -27 -13 0
v -28 -14 0
v -29 -14 0
v -29 -13 0
v -28 -13 0
v -29 -14 0
v -30 -14 0
v -30 -13 0
v -29 -13 0
v -30 -14 0
v -31 -14 0
v -31 -13 0
v -30 -13 0
v -31 -14 0
v -32 -14 0
v -32 -13 0
v -31 -13 0
v 0 -15 0
v -1 -15 0
v -1 -14 0
v 0 -14 0
v -1 -15 0
v -2 -15 0
v -2 -14 0
v -1 -14 0
v -2 -15 0
v -3 -15 0
v -3 -14 0
v -2 -14 0
v -3 -15 0
v -4 -15 0
v -4 -14 0
v -3 -14 0
v -4 -15 0
v -5 -15 0
v -5 -14 0
v -4 -14 0
v -5 -15 0
v -6 -15 0
v -6 -14 0
v -5 -14 0
v -6 -15 0
v -7 -15 0
v -7 -14 0
v -6 -14 0
v -7 -15 0
v -8 -15 0
v -8 -14 0
v -7 -14 0
v -8 -15 0
v -9 -15 0
v -9 -14 0
v -8 -14 0
v -9 -15 0
v -10 -15 0
v -10 -14 0
v -9 -14 0
v -10 -15 0
v -11 -15 0
v -11 -14 0
v -10 -14 0
v -11 -15 0
v -12 -15 0
v -12 -14 0
v -11 -14 0
v -12 -15 0
v -13 -15 0
v -13 -14 0
v -12 -14 0
v -13 -15 0
v -14 -15 0
v -14 -14 0
v -13 -14 0
v -14 -15 0
v -15 -15 0
v -15 -14 0
v -14 -14 0
v -15 -15 0
v -16 -15 0
v -16 -14 0
v -15 -14 0
v -16 -15 0
v -17 -15 0
v -17 -14 0
v -16 -14 0
v -17 -15 0
v -18 -15 0
v -18 -14 0
v -17 -14 0
v -18 -15 0
v -19 -15 0
v -19 -14 0
v -18 -14 0
v -19 -15 0
v -20 -15 0
v -20 -14 0
v -19 -14 0
v -20 -15 0
v -21 -15 0
v -21 -14 0
v -20 -14 0
v -21 -15 0
v -22 -15 0
v -22 -14 0
v -21 -14 0
v -22 -15 0
v -23 -15 0
v -23 -14 0
v -22 -14 0
v -23 -15 0
v -24 -15 0
v -24 -14 0
v -23 -14 0
v -24 -15 0
v -25 -15 0
v -25 -14 0
v -24 -14 0
v -25 -15 0
v -26 -15 0
v -26 -14 0
v -25 -14 0
v -26 -15 0
v -27 -15 0
v -27 -14 0
v -26 -14 0
v -27 -15 0
v -28 -15 0
v -28 -14 0
v -27 -14 0
v -28 -15 0
v -29 -15 0
v -29 -14 0
v -28 -14 0
v -29 -15 0
v -30 -15 0
v -30 -14 0
v -29 -14 0
v -30 -15 0
v -31 -15 0
v -31 -14 0
v -30 -14 0
v -31 -15 0
v -32 -15 0
v -32 -14 0
v -31 -14 0
v 0 -16 0
v -1 -16 0
v -1 -15 0
v 0 -15 0
v -1 -16 0
v -2 -16 0
v -2 -15 0
v -1 -15 0
v -2 -16 0
v -3 -16 0
v -3 -15 0
v -2 -15 0
v -3 -16 0
v -4 -16 0
v -4 -15 0
v -3 -15 0
v -4 -16 0
v -5 -16 0
v -5 -15 0
v -4 -15 0
v -5 -16 0
v -6 -16 0
v -6 -15 0
v -5 -15 0
v -6 -16 0
v -7 -16 0
v -7 -15 0
v -6 -15 0
v -7 -16 0
v -8 -16 0
v -8 -15 0
v -7 -15 0
v -8 -16 0
v -9 -16 0
v -9 -15 0
v -8 -15 0
v -9 -16 0
v -10 -16 0
v -10 -15 0
v -9 -15 0
v -10 -16 0
v -11 -16 0
v -11 -15 0
v -10 -15 0
v -11 -16 0
v -12 -16 0
v -12 -15 0
v -11 -15 0
v -12 -16 0
v -13 -16 0
v -13 -15 0
v -12 -15 0
v -13 -16 0
v -14 -16 0
v -14 -15 0
v -13 -15 0
v -14 -16 0
v -15 -16 0
v -15 -15 0
v -14 -15 0
v -15 -16 0
v -16 -16 0
v -16 -15 0
v -15 -15 0
v -16 -16 0
v -17 -16 0
v -17 -15 0
v -16 -15 0
v -17 -16 0
v -18 -16 0
v -18 -15 0
v -17 -15 0
v -18 -16 0
v -19 -16 0
v -19 -15 0
v -18 -15 0
v -19 -16 0
v -20 -16 0
v -20 -15 0
v -19 -15 0
v -20 -16 0
v -21 -16 0
v -21 -15 0
v -20 -15 0
v -21 -16 0
v -22 -16 0
v -22 -15 0
v -21 -15 0
v -22 -16 0
v -23 -16 0
v -23 -15 0
v -22 -15 0
v -23 -16 0
v -24 -16 0
v -24 -15 0
v -23 -15 0
v -24 -16 0
v -25 -16 0
v -25 -15 0
v -24 -15 0
v -25 -16 0
v -26 -16 0
v -26 -15 0
v -25 -15 0
v -26 -16 0
v -27 -16 0
v -27 -15 0
v -26 -15 0
v -27 -16 0
v -28 -16 0
v -28 -15 0
v -27 -15 0
v -28 -16 0
v -29 -16 0
v -29 -15 0
v -28 -15 0
v -29 -16 0
v -30 -16 0
v -30 -15 0
v -29 -15 0
v -30 -16 0
v -31 -16 0
v -31 -15 0
v -30 -15 0
v -31 -16 0
v -32 -16 0
v -32 -15 0
v -31 -15 0

# Texture cooridinates (Count = 20)
vt 0 0.9722222
vt 0.025 0.9722222
vt 0.025 1
vt 0 1
vt 0 0.8888889
vt 0.025 0.8888889
vt 0.025 0.9166667
vt 0 0.9166667
vt 0.05 0.8888889
vt 0.05 0.9166667
vt 0.075 0.8888889
vt 0.075 0.9166667
vt 0 0.8611111
vt 0.025 0.8611111
vt 0.05 0.8611111
vt 0.075 0.8611111
vt 0 0.8333333
vt 0.025 0.8333333
vt 0.05 0.8333333
vt 0.075 0.8333333

# Normal
vn 0 0 -1

# Mesh description
g home2_mesh_0001

# Faces
f 1/1/1 2/2/1 3/3/1 4/4/1
f 5/1/1 6/2/1 7/3/1 8/4/1
f 9/1/1 10/2/1 11/3/1 12/4/1
f 13/1/1 14/2/1 15/3/1 16/4/1
f 17/1/1 18/2/1 19/3/1 20/4/1
f 21/1/1 22/2/1 23/3/1 24/4/1
f 25/1/1 26/2/1 27/3/1 28/4/1
f 29/1/1 30/2/1 31/3/1 32/4/1
f 33/1/1 34/2/1 35/3/1 36/4/1
f 37/1/1 38/2/1 39/3/1 40/4/1
f 41/1/1 42/2/1 43/3/1 44/4/1
f 45/1/1 46/2/1 47/3/1 48/4/1
f 49/1/1 50/2/1 51/3/1 52/4/1
f 53/1/1 54/2/1 55/3/1 56/4/1
f 57/1/1 58/2/1 59/3/1 60/4/1
f 61/1/1 62/2/1 63/3/1 64/4/1
f 65/1/1 66/2/1 67/3/1 68/4/1
f 69/1/1 70/2/1 71/3/1 72/4/1
f 73/1/1 74/2/1 75/3/1 76/4/1
f 77/1/1 78/2/1 79/3/1 80/4/1
f 81/1/1 82/2/1 83/3/1 84/4/1
f 85/1/1 86/2/1 87/3/1 88/4/1
f 89/1/1 90/2/1 91/3/1 92/4/1
f 93/1/1 94/2/1 95/3/1 96/4/1
f 97/1/1 98/2/1 99/3/1 100/4/1
f 101/1/1 102/2/1 103/3/1 104/4/1
f 105/1/1 106/2/1 107/3/1 108/4/1
f 109/1/1 110/2/1 111/3/1 112/4/1
f 113/1/1 114/2/1 115/3/1 116/4/1
f 117/1/1 118/2/1 119/3/1 120/4/1
f 121/1/1 122/2/1 123/3/1 124/4/1
f 125/1/1 126/2/1 127/3/1 128/4/1
f 129/1/1 130/2/1 131/3/1 132/4/1
f 133/1/1 134/2/1 135/3/1 136/4/1
f 137/1/1 138/2/1 139/3/1 140/4/1
f 141/1/1 142/2/1 143/3/1 144/4/1
f 145/1/1 146/2/1 147/3/1 148/4/1
f 149/1/1 150/2/1 151/3/1 152/4/1
f 153/1/1 154/2/1 155/3/1 156/4/1
f 157/1/1 158/2/1 159/3/1 160/4/1
f 161/1/1 162/2/1 163/3/1 164/4/1
f 165/1/1 166/2/1 167/3/1 168/4/1
f 169/1/1 170/2/1 171/3/1 172/4/1
f 173/1/1 174/2/1 175/3/1 176/4/1
f 177/1/1 178/2/1 179/3/1 180/4/1
f 181/1/1 182/2/1 183/3/1 184/4/1
f 185/1/1 186/2/1 187/3/1 188/4/1
f 189/1/1 190/2/1 191/3/1 192/4/1
f 193/1/1 194/2/1 195/3/1 196/4/1
f 197/1/1 198/2/1 199/3/1 200/4/1
f 201/1/1 202/2/1 203/3/1 204/4/1
f 205/1/1 206/2/1 207/3/1 208/4/1
f 209/1/1 210/2/1 211/3/1 212/4/1
f 213/1/1 214/2/1 215/3/1 216/4/1
f 217/1/1 218/2/1 219/3/1 220/4/1
f 221/1/1 222/2/1 223/3/1 224/4/1
f 225/1/1 226/2/1 227/3/1 228/4/1
f 229/1/1 230/2/1 231/3/1 232/4/1
f 233/1/1 234/2/1 235/3/1 236/4/1
f 237/1/1 238/2/1 239/3/1 240/4/1
f 241/1/1 242/2/1 243/3/1 244/4/1
f 245/1/1 246/2/1 247/3/1 248/4/1
f 249/1/1 250/2/1 251/3/1 252/4/1
f 253/1/1 254/2/1 255/3/1 256/4/1
f 257/1/1 258/2/1 259/3/1 260/4/1
f 261/1/1 262/2/1 263/3/1 264/4/1
f 265/1/1 266/2/1 267/3/1 268/4/1
f 269/1/1 270/2/1 271/3/1 272/4/1
f 273/5/1 274/6/1 275/7/1 276/8/1
f 277/6/1 278/9/1 279/10/1 280/7/1
f 281/6/1 282/9/1 283/10/1 284/7/1
f 285/6/1 286/9/1 287/10/1 288/7/1
f 289/6/1 290/9/1 291/10/1 292/7/1
f 293/6/1 294/9/1 295/10/1 296/7/1
f 297/6/1 298/9/1 299/10/1 300/7/1
f 301/6/1 302/9/1 303/10/1 304/7/1
f 305/6/1 306/9/1 307/10/1 308/7/1
f 309/6/1 310/9/1 311/10/1 312/7/1
f 313/6/1 314/9/1 315/10/1 316/7/1
f 317/6/1 318/9/1 319/10/1 320/7/1
f 321/6/1 322/9/1 323/10/1 324/7/1
f 325/6/1 326/9/1 327/10/1 328/7/1
f 329/6/1 330/9/1 331/10/1 332/7/1
f 333/6/1 334/9/1 335/10/1 336/7/1
f 337/6/1 338/9/1 339/10/1 340/7/1
f 341/6/1 342/9/1 343/10/1 344/7/1
f 345/6/1 346/9/1 347/10/1 348/7/1
f 349/6/1 350/9/1 351/10/1 352/7/1
f 353/6/1 354/9/1 355/10/1 356/7/1
f 357/6/1 358/9/1 359/10/1 360/7/1
f 361/6/1 362/9/1 363/10/1 364/7/1
f 365/9/1 366/11/1 367/12/1 368/10/1
f 369/1/1 370/2/1 371/3/1 372/4/1
f 373/1/1 374/2/1 375/3/1 376/4/1
f 377/1/1 378/2/1 379/3/1 380/4/1
f 381/1/1 382/2/1 383/3/1 384/4/1
f 385/1/1 386/2/1 387/3/1 388/4/1
f 389/1/1 390/2/1 391/3/1 392/4/1
f 393/1/1 394/2/1 395/3/1 396/4/1
f 397/1/1 398/2/1 399/3/1 400/4/1
f 401/13/1 402/14/1 403/6/1 404/5/1
f 405/14/1 406/15/1 407/9/1 408/6/1
f 409/14/1 410/15/1 411/9/1 412/6/1
f 413/14/1 414/15/1 415/9/1 416/6/1
f 417/14/1 418/15/1 419/9/1 420/6/1
f 421/14/1 422/15/1 423/9/1 424/6/1
f 425/14/1 426/15/1 427/9/1 428/6/1
f 429/14/1 430/15/1 431/9/1 432/6/1
f 433/14/1 434/15/1 435/9/1 436/6/1
f 437/14/1 438/15/1 439/9/1 440/6/1
f 441/14/1 442/15/1 443/9/1 444/6/1
f 445/14/1 446/15/1 447/9/1 448/6/1
f 449/14/1 450/15/1 451/9/1 452/6/1
f 453/14/1 454/15/1 455/9/1 456/6/1
f 457/14/1 458/15/1 459/9/1 460/6/1
f 461/14/1 462/15/1 463/9/1 464/6/1
f 465/14/1 466/15/1 467/9/1 468/6/1
f 469/14/1 470/15/1 471/9/1 472/6/1
f 473/14/1 474/15/1 475/9/1 476/6/1
f 477/14/1 478/15/1 479/9/1 480/6/1
f 481/14/1 482/15/1 483/9/1 484/6/1
f 485/14/1 486/15/1 487/9/1 488/6/1
f 489/14/1 490/15/1 491/9/1 492/6/1
f 493/15/1 494/16/1 495/11/1 496/9/1
f 497/1/1 498/2/1 499/3/1 500/4/1
f 501/1/1 502/2/1 503/3/1 504/4/1
f 505/1/1 506/2/1 507/3/1 508/4/1
f 509/1/1 510/2/1 511/3/1 512/4/1
f 513/1/1 514/2/1 515/3/1 516/4/1
f 517/1/1 518/2/1 519/3/1 520/4/1
f 521/1/1 522/2/1 523/3/1 524/4/1
f 525/1/1 526/2/1 527/3/1 528/4/1
f 529/13/1 530/14/1 531/6/1 532/5/1
f 533/14/1 534/15/1 535/9/1 536/6/1
f 537/14/1 538/15/1 539/9/1 540/6/1
f 541/14/1 542/15/1 543/9/1 544/6/1
f 545/14/1 546/15/1 547/9/1 548/6/1
f 549/14/1 550/15/1 551/9/1 552/6/1
f 553/14/1 554/15/1 555/9/1 556/6/1
f 557/14/1 558/15/1 559/9/1 560/6/1
f 561/14/1 562/15/1 563/9/1 564/6/1
f 565/14/1 566/15/1 567/9/1 568/6/1
f 569/14/1 570/15/1 571/9/1 572/6/1
f 573/14/1 574/15/1 575/9/1 576/6/1
f 577/14/1 578/15/1 579/9/1 580/6/1
f 581/14/1 582/15/1 583/9/1 584/6/1
f 585/14/1 586/15/1 587/9/1 588/6/1
f 589/14/1 590/15/1 591/9/1 592/6/1
f 593/14/1 594/15/1 595/9/1 596/6/1
f 597/14/1 598/15/1 599/9/1 600/6/1
f 601/14/1 602/15/1 603/9/1 604/6/1
f 605/14/1 606/15/1 607/9/1 608/6/1
f 609/14/1 610/15/1 611/9/1 612/6/1
f 613/14/1 614/15/1 615/9/1 616/6/1
f 617/14/1 618/15/1 619/9/1 620/6/1
f 621/15/1 622/16/1 623/11/1 624/9/1
f 625/1/1 626/2/1 627/3/1 628/4/1
f 629/1/1 630/2/1 631/3/1 632/4/1
f 633/1/1 634/2/1 635/3/1 636/4/1
f 637/1/1 638/2/1 639/3/1 640/4/1
f 641/1/1 642/2/1 643/3/1 644/4/1
f 645/1/1 646/2/1 647/3/1 648/4/1
f 649/1/1 650/2/1 651/3/1 652/4/1
f 653/1/1 654/2/1 655/3/1 656/4/1
f 657/13/1 658/14/1 659/6/1 660/5/1
f 661/14/1 662/15/1 663/9/1 664/6/1
f 665/14/1 666/15/1 667/9/1 668/6/1
f 669/14/1 670/15/1 671/9/1 672/6/1
f 673/14/1 674/15/1 675/9/1 676/6/1
f 677/14/1 678/15/1 679/9/1 680/6/1
f 681/14/1 682/15/1 683/9/1 684/6/1
f 685/14/1 686/15/1 687/9/1 688/6/1
f 689/14/1 690/15/1 691/9/1 692/6/1
f 693/14/1 694/15/1 695/9/1 696/6/1
f 697/14/1 698/15/1 699/9/1 700/6/1
f 701/14/1 702/15/1 703/9/1 704/6/1
f 705/14/1 706/15/1 707/9/1 708/6/1
f 709/14/1 710/15/1 711/9/1 712/6/1
f 713/14/1 714/15/1 715/9/1 716/6/1
f 717/14/1 718/15/1 719/9/1 720/6/1
f 721/14/1 722/15/1 723/9/1 724/6/1
f 725/14/1 726/15/1 727/9/1 728/6/1
f 729/14/1 730/15/1 731/9/1 732/6/1
f 733/14/1 734/15/1 735/9/1 736/6/1
f 737/14/1 738/15/1 739/9/1 740/6/1
f 741/14/1 742/15/1 743/9/1 744/6/1
f 745/14/1 746/15/1 747/9/1 748/6/1
f 749/15/1 750/16/1 751/11/1 752/9/1
f 753/1/1 754/2/1 755/3/1 756/4/1
f 757/1/1 758/2/1 759/3/1 760/4/1
f 761/1/1 762/2/1 763/3/1 764/4/1
f 765/1/1 766/2/1 767/3/1 768/4/1
f 769/1/1 770/2/1 771/3/1 772/4/1
f 773/1/1 774/2/1 775/3/1 776/4/1
f 777/1/1 778/2/1 779/3/1 780/4/1
f 781/1/1 782/2/1 783/3/1 784/4/1
f 785/13/1 786/14/1 787/6/1 788/5/1
f 789/14/1 790/15/1 791/9/1 792/6/1
f 793/14/1 794/15/1 795/9/1 796/6/1
f 797/14/1 798/15/1 799/9/1 800/6/1
f 801/14/1 802/15/1 803/9/1 804/6/1
f 805/14/1 806/15/1 807/9/1 808/6/1
f 809/14/1 810/15/1 811/9/1 812/6/1
f 813/14/1 814/15/1 815/9/1 816/6/1
f 817/14/1 818/15/1 819/9/1 820/6/1
f 821/14/1 822/15/1 823/9/1 824/6/1
f 825/14/1 826/15/1 827/9/1 828/6/1
f 829/14/1 830/15/1 831/9/1 832/6/1
f 833/14/1 834/15/1 835/9/1 836/6/1
f 837/14/1 838/15/1 839/9/1 840/6/1
f 841/14/1 842/15/1 843/9/1 844/6/1
f 845/14/1 846/15/1 847/9/1 848/6/1
f 849/14/1 850/15/1 851/9/1 852/6/1
f 853/14/1 854/15/1 855/9/1 856/6/1
f 857/14/1 858/15/1 859/9/1 860/6/1
f 861/14/1 862/15/1 863/9/1 864/6/1
f 865/14/1 866/15/1 867/9/1 868/6/1
f 869/14/1 870/15/1 871/9/1 872/6/1
f 873/14/1 874/15/1 875/9/1 876/6/1
f 877/15/1 878/16/1 879/11/1 880/9/1
f 881/1/1 882/2/1 883/3/1 884/4/1
f 885/1/1 886/2/1 887/3/1 888/4/1
f 889/1/1 890/2/1 891/3/1 892/4/1
f 893/1/1 894/2/1 895/3/1 896/4/1
f 897/1/1 898/2/1 899/3/1 900/4/1
f 901/1/1 902/2/1 903/3/1 904/4/1
f 905/1/1 906/2/1 907/3/1 908/4/1
f 909/1/1 910/2/1 911/3/1 912/4/1
f 913/13/1 914/14/1 915/6/1 916/5/1
f 917/14/1 918/15/1 919/9/1 920/6/1
f 921/14/1 922/15/1 923/9/1 924/6/1
f 925/14/1 926/15/1 927/9/1 928/6/1
f 929/14/1 930/15/1 931/9/1 932/6/1
f 933/14/1 934/15/1 935/9/1 936/6/1
f 937/14/1 938/15/1 939/9/1 940/6/1
f 941/14/1 942/15/1 943/9/1 944/6/1
f 945/14/1 946/15/1 947/9/1 948/6/1
f 949/14/1 950/15/1 951/9/1 952/6/1
f 953/14/1 954/15/1 955/9/1 956/6/1
f 957/14/1 958/15/1 959/9/1 960/6/1
f 961/14/1 962/15/1 963/9/1 964/6/1
f 965/14/1 966/15/1 967/9/1 968/6/1
f 969/14/1 970/15/1 971/9/1 972/6/1
f 973/14/1 974/15/1 975/9/1 976/6/1
f 977/14/1 978/15/1 979/9/1 980/6/1
f 981/14/1 982/15/1 983/9/1 984/6/1
f 985/14/1 986/15/1 987/9/1 988/6/1
f 989/14/1 990/15/1 991/9/1 992/6/1
f 993/14/1 994/15/1 995/9/1 996/6/1
f 997/14/1 998/15/1 999/9/1 1000/6/1
f 1001/14/1 1002/15/1 1003/9/1 1004/6/1
f 1005/15/1 1006/16/1 1007/11/1 1008/9/1
f 1009/1/1 1010/2/1 1011/3/1 1012/4/1
f 1013/1/1 1014/2/1 1015/3/1 1016/4/1
f 1017/1/1 1018/2/1 1019/3/1 1020/4/1
f 1021/1/1 1022/2/1 1023/3/1 1024/4/1
f 1025/1/1 1026/2/1 1027/3/1 1028/4/1
f 1029/1/1 1030/2/1 1031/3/1 1032/4/1
f 1033/1/1 1034/2/1 1035/3/1 1036/4/1
f 1037/1/1 1038/2/1 1039/3/1 1040/4/1
f 1041/13/1 1042/14/1 1043/6/1 1044/5/1
f 1045/14/1 1046/15/1 1047/9/1 1048/6/1
f 1049/14/1 1050/15/1 1051/9/1 1052/6/1
f 1053/14/1 1054/15/1 1055/9/1 1056/6/1
f 1057/14/1 1058/15/1 1059/9/1 1060/6/1
f 1061/14/1 1062/15/1 1063/9/1 1064/6/1
f 1065/14/1 1066/15/1 1067/9/1 1068/6/1
f 1069/14/1 1070/15/1 1071/9/1 1072/6/1
f 1073/14/1 1074/15/1 1075/9/1 1076/6/1
f 1077/14/1 1078/15/1 1079/9/1 1080/6/1
f 1081/14/1 1082/15/1 1083/9/1 1084/6/1
f 1085/14/1 1086/15/1 1087/9/1 1088/6/1
f 1089/14/1 1090/15/1 1091/9/1 1092/6/1
f 1093/14/1 1094/15/1 1095/9/1 1096/6/1
f 1097/14/1 1098/15/1 1099/9/1 1100/6/1
f 1101/14/1 1102/15/1 1103/9/1 1104/6/1
f 1105/14/1 1106/15/1 1107/9/1 1108/6/1
f 1109/14/1 1110/15/1 1111/9/1 1112/6/1
f 1113/14/1 1114/15/1 1115/9/1 1116/6/1
f 1117/14/1 1118/15/1 1119/9/1 1120/6/1
f 1121/14/1 1122/15/1 1123/9/1 1124/6/1
f 1125/14/1 1126/15/1 1127/9/1 1128/6/1
f 1129/14/1 1130/15/1 1131/9/1 1132/6/1
f 1133/15/1 1134/16/1 1135/11/1 1136/9/1
f 1137/1/1 1138/2/1 1139/3/1 1140/4/1
f 1141/1/1 1142/2/1 1143/3/1 1144/4/1
f 1145/1/1 1146/2/1 1147/3/1 1148/4/1
f 1149/1/1 1150/2/1 1151/3/1 1152/4/1
f 1153/1/1 1154/2/1 1155/3/1 1156/4/1
f 1157/1/1 1158/2/1 1159/3/1 1160/4/1
f 1161/1/1 1162/2/1 1163/3/1 1164/4/1
f 1165/1/1 1166/2/1 1167/3/1 1168/4/1
f 1169/13/1 1170/14/1 1171/6/1 1172/5/1
f 1173/14/1 1174/15/1 1175/9/1 1176/6/1
f 1177/14/1 1178/15/1 1179/9/1 1180/6/1
f 1181/14/1 1182/15/1 1183/9/1 1184/6/1
f 1185/14/1 1186/15/1 1187/9/1 1188/6/1
f 1189/14/1 1190/15/1 1191/9/1 1192/6/1
f 1193/14/1 1194/15/1 1195/9/1 1196/6/1
f 1197/14/1 1198/15/1 1199/9/1 1200/6/1
f 1201/14/1 1202/15/1 1203/9/1 1204/6/1
f 1205/14/1 1206/15/1 1207/9/1 1208/6/1
f 1209/14/1 1210/15/1 1211/9/1 1212/6/1
f 1213/14/1 1214/15/1 1215/9/1 1216/6/1
f 1217/14/1 1218/15/1 1219/9/1 1220/6/1
f 1221/14/1 1222/15/1 1223/9/1 1224/6/1
f 1225/14/1 1226/15/1 1227/9/1 1228/6/1
f 1229/14/1 1230/15/1 1231/9/1 1232/6/1
f 1233/14/1 1234/15/1 1235/9/1 1236/6/1
f 1237/14/1 1238/15/1 1239/9/1 1240/6/1
f 1241/14/1 1242/15/1 1243/9/1 1244/6/1
f 1245/14/1 1246/15/1 1247/9/1 1248/6/1
f 1249/14/1 1250/15/1 1251/9/1 1252/6/1
f 1253/14/1 1254/15/1 1255/9/1 1256/6/1
f 1257/14/1 1258/15/1 1259/9/1 1260/6/1
f 1261/15/1 1262/16/1 1263/11/1 1264/9/1
f 1265/1/1 1266/2/1 1267/3/1 1268/4/1
f 1269/1/1 1270/2/1 1271/3/1 1272/4/1
f 1273/1/1 1274/2/1 1275/3/1 1276/4/1
f 1277/1/1 1278/2/1 1279/3/1 1280/4/1
f 1281/1/1 1282/2/1 1283/3/1 1284/4/1
f 1285/1/1 1286/2/1 1287/3/1 1288/4/1
f 1289/1/1 1290/2/1 1291/3/1 1292/4/1
f 1293/1/1 1294/2/1 1295/3/1 1296/4/1
f 1297/13/1 1298/14/1 1299/6/1 1300/5/1
f 1301/14/1 1302/15/1 1303/9/1 1304/6/1
f 1305/14/1 1306/15/1 1307/9/1 1308/6/1
f 1309/14/1 1310/15/1 1311/9/1 1312/6/1
f 1313/14/1 1314/15/1 1315/9/1 1316/6/1
f 1317/14/1 1318/15/1 1319/9/1 1320/6/1
f 1321/14/1 1322/15/1 1323/9/1 1324/6/1
f 1325/14/1 1326/15/1 1327/9/1 1328/6/1
f 1329/14/1 1330/15/1 1331/9/1 1332/6/1
f 1333/14/1 1334/15/1 1335/9/1 1336/6/1
f 1337/14/1 1338/15/1 1339/9/1 1340/6/1
f 1341/14/1 1342/15/1 1343/9/1 1344/6/1
f 1345/14/1 1346/15/1 1347/9/1 1348/6/1
f 1349/14/1 1350/15/1 1351/9/1 1352/6/1
f 1353/14/1 1354/15/1 1355/9/1 1356/6/1
f 1357/14/1 1358/15/1 1359/9/1 1360/6/1
f 1361/14/1 1362/15/1 1363/9/1 1364/6/1
f 1365/14/1 1366/15/1 1367/9/1 1368/6/1
f 1369/14/1 1370/15/1 1371/9/1 1372/6/1
f 1373/14/1 1374/15/1 1375/9/1 1376/6/1
f 1377/14/1 1378/15/1 1379/9/1 1380/6/1
f 1381/14/1 1382/15/1 1383/9/1 1384/6/1
f 1385/14/1 1386/15/1 1387/9/1 1388/6/1
f 1389/15/1 1390/16/1 1391/11/1 1392/9/1
f 1393/1/1 1394/2/1 1395/3/1 1396/4/1
f 1397/1/1 1398/2/1 1399/3/1 1400/4/1
f 1401/1/1 1402/2/1 1403/3/1 1404/4/1
f 1405/1/1 1406/2/1 1407/3/1 1408/4/1
f 1409/1/1 1410/2/1 1411/3/1 1412/4/1
f 1413/1/1 1414/2/1 1415/3/1 1416/4/1
f 1417/1/1 1418/2/1 1419/3/1 1420/4/1
f 1421/1/1 1422/2/1 1423/3/1 1424/4/1
f 1425/13/1 1426/14/1 1427/6/1 1428/5/1
f 1429/14/1 1430/15/1 1431/9/1 1432/6/1
f 1433/14/1 1434/15/1 1435/9/1 1436/6/1
f 1437/14/1 1438/15/1 1439/9/1 1440/6/1
f 1441/14/1 1442/15/1 1443/9/1 1444/6/1
f 1445/14/1 1446/15/1 1447/9/1 1448/6/1
f 1449/14/1 1450/15/1 1451/9/1 1452/6/1
f 1453/14/1 1454/15/1 1455/9/1 1456/6/1
f 1457/14/1 1458/15/1 1459/9/1 1460/6/1
f 1461/14/1 1462/15/1 1463/9/1 1464/6/1
f 1465/14/1 1466/15/1 1467/9/1 1468/6/1
f 1469/14/1 1470/15/1 1471/9/1 1472/6/1
f 1473/14/1 1474/15/1 1475/9/1 1476/6/1
f 1477/14/1 1478/15/1 1479/9/1 1480/6/1
f 1481/14/1 1482/15/1 1483/9/1 1484/6/1
f 1485/14/1 1486/15/1 1487/9/1 1488/6/1
f 1489/14/1 1490/15/1 1491/9/1 1492/6/1
f 1493/14/1 1494/15/1 1495/9/1 1496/6/1
f 1497/14/1 1498/15/1 1499/9/1 1500/6/1
f 1501/14/1 1502/15/1 1503/9/1 1504/6/1
f 1505/14/1 1506/15/1 1507/9/1 1508/6/1
f 1509/14/1 1510/15/1 1511/9/1 1512/6/1
f 1513/14/1 1514/15/1 1515/9/1 1516/6/1
f 1517/15/1 1518/16/1 1519/11/1 1520/9/1
f 1521/1/1 1522/2/1 1523/3/1 1524/4/1
f 1525/1/1 1526/2/1 1527/3/1 1528/4/1
f 1529/1/1 1530/2/1 1531/3/1 1532/4/1
f 1533/1/1 1534/2/1 1535/3/1 1536/4/1
f 1537/1/1 1538/2/1 1539/3/1 1540/4/1
f 1541/1/1 1542/2/1 1543/3/1 1544/4/1
f 1545/1/1 1546/2/1 1547/3/1 1548/4/1
f 1549/1/1 1550/2/1 1551/3/1 1552/4/1
f 1553/13/1 1554/14/1 1555/6/1 1556/5/1
f 1557/14/1 1558/15/1 1559/9/1 1560/6/1
f 1561/14/1 1562/15/1 1563/9/1 1564/6/1
f 1565/14/1 1566/15/1 1567/9/1 1568/6/1
f 1569/14/1 1570/15/1 1571/9/1 1572/6/1
f 1573/14/1 1574/15/1 1575/9/1 1576/6/1
f 1577/14/1 1578/15/1 1579/9/1 1580/6/1
f 1581/14/1 1582/15/1 1583/9/1 1584/6/1
f 1585/14/1 1586/15/1 1587/9/1 1588/6/1
f 1589/14/1 1590/15/1 1591/9/1 1592/6/1
f 1593/14/1 1594/15/1 1595/9/1 1596/6/1
f 1597/14/1 1598/15/1 1599/9/1 1600/6/1
f 1601/14/1 1602/15/1 1603/9/1 1604/6/1
f 1605/14/1 1606/15/1 1607/9/1 1608/6/1
f 1609/14/1 1610/15/1 1611/9/1 1612/6/1
f 1613/14/1 1614/15/1 1615/9/1 1616/6/1
f 1617/14/1 1618/15/1 1619/9/1 1620/6/1
f 1621/14/1 1622/15/1 1623/9/1 1624/6/1
f 1625/14/1 1626/15/1 1627/9/1 1628/6/1
f 1629/14/1 1630/15/1 1631/9/1 1632/6/1
f 1633/14/1 1634/15/1 1635/9/1 1636/6/1
f 1637/14/1 1638/15/1 1639/9/1 1640/6/1
f 1641/14/1 1642/15/1 1643/9/1 1644/6/1
f 1645/15/1 1646/16/1 1647/11/1 1648/9/1
f 1649/1/1 1650/2/1 1651/3/1 1652/4/1
f 1653/1/1 1654/2/1 1655/3/1 1656/4/1
f 1657/1/1 1658/2/1 1659/3/1 1660/4/1
f 1661/1/1 1662/2/1 1663/3/1 1664/4/1
f 1665/1/1 1666/2/1 1667/3/1 1668/4/1
f 1669/1/1 1670/2/1 1671/3/1 1672/4/1
f 1673/1/1 1674/2/1 1675/3/1 1676/4/1
f 1677/1/1 1678/2/1 1679/3/1 1680/4/1
f 1681/17/1 1682/18/1 1683/14/1 1684/13/1
f 1685/18/1 1686/19/1 1687/15/1 1688/14/1
f 1689/18/1 1690/19/1 1691/15/1 1692/14/1
f 1693/18/1 1694/19/1 1695/15/1 1696/14/1
f 1697/18/1 1698/19/1 1699/15/1 1700/14/1
f 1701/18/1 1702/19/1 1703/15/1 1704/14/1
f 1705/18/1 1706/19/1 1707/15/1 1708/14/1
f 1709/18/1 1710/19/1 1711/15/1 1712/14/1
f 1713/18/1 1714/19/1 1715/15/1 1716/14/1
f 1717/18/1 1718/19/1 1719/15/1 1720/14/1
f 1721/18/1 1722/19/1 1723/15/1 1724/14/1
f 1725/18/1 1726/19/1 1727/15/1 1728/14/1
f 1729/18/1 1730/19/1 1731/15/1 1732/14/1
f 1733/18/1 1734/19/1 1735/15/1 1736/14/1
f 1737/18/1 1738/19/1 1739/15/1 1740/14/1
f 1741/18/1 1742/19/1 1743/15/1 1744/14/1
f 1745/18/1 1746/19/1 1747/15/1 1748/14/1
f 1749/18/1 1750/19/1 1751/15/1 1752/14/1
f 1753/18/1 1754/19/1 1755/15/1 1756/14/1
f 1757/18/1 1758/19/1 1759/15/1 1760/14/1
f 1761/18/1 1762/19/1 1763/15/1 1764/14/1
f 1765/18/1 1766/19/1 1767/15/1 1768/14/1
f 1769/18/1 1770/19/1 1771/15/1 1772/14/1
f 1773/19/1 1774/20/1 1775/16/1 1776/15/1
f 1777/1/1 1778/2/1 1779/3/1 1780/4/1
f 1781/1/1 1782/2/1 1783/3/1 1784/4/1
f 1785/1/1 1786/2/1 1787/3/1 1788/4/1
f 1789/1/1 1790/2/1 1791/3/1 1792/4/1
f 1793/1/1 1794/2/1 1795/3/1 1796/4/1
f 1797/1/1 1798/2/1 1799/3/1 1800/4/1
f 1801/1/1 1802/2/1 1803/3/1 1804/4/1
f 1805/1/1 1806/2/1 1807/3/1 1808/4/1
f 1809/1/1 1810/2/1 1811/3/1 1812/4/1
f 1813/1/1 1814/2/1 1815/3/1 1816/4/1
f 1817/1/1 1818/2/1 1819/3/1 1820/4/1
f 1821/1/1 1822/2/1 1823/3/1 1824/4/1
f 1825/1/1 1826/2/1 1827/3/1 1828/4/1
f 1829/1/1 1830/2/1 1831/3/1 1832/4/1
f 1833/1/1 1834/2/1 1835/3/1 1836/4/1
f 1837/1/1 1838/2/1 1839/3/1 1840/4/1
f 1841/1/1 1842/2/1 1843/3/1 1844/4/1
f 1845/1/1 1846/2/1 1847/3/1 1848/4/1
f 1849/1/1 1850/2/1 1851/3/1 1852/4/1
f 1853/1/1 1854/2/1 1855/3/1 1856/4/1
f 1857/1/1 1858/2/1 1859/3/1 1860/4/1
f 1861/1/1 1862/2/1 1863/3/1 1864/4/1
f 1865/1/1 1866/2/1 1867/3/1 1868/4/1
f 1869/1/1 1870/2/1 1871/3/1 1872/4/1
f 1873/1/1 1874/2/1 1875/3/1 1876/4/1
f 1877/1/1 1878/2/1 1879/3/1 1880/4/1
f 1881/1/1 1882/2/1 1883/3/1 1884/4/1
f 1885/1/1 1886/2/1 1887/3/1 1888/4/1
f 1889/1/1 1890/2/1 1891/3/1 1892/4/1
f 1893/1/1 1894/2/1 1895/3/1 1896/4/1
f 1897/1/1 1898/2/1 1899/3/1 1900/4/1
f 1901/1/1 1902/2/1 1903/3/1 1904/4/1
f 1905/1/1 1906/2/1 1907/3/1 1908/4/1
f 1909/1/1 1910/2/1 1911/3/1 1912/4/1
f 1913/1/1 1914/2/1 1915/3/1 1916/4/1
f 1917/1/1 1918/2/1 1919/3/1 1920/4/1
f 1921/1/1 1922/2/1 1923/3/1 1924/4/1
f 1925/1/1 1926/2/1 1927/3/1 1928/4/1
f 1929/1/1 1930/2/1 1931/3/1 1932/4/1
f 1933/1/1 1934/2/1 1935/3/1 1936/4/1
f 1937/1/1 1938/2/1 1939/3/1 1940/4/1
f 1941/1/1 1942/2/1 1943/3/1 1944/4/1
f 1945/1/1 1946/2/1 1947/3/1 1948/4/1
f 1949/1/1 1950/2/1 1951/3/1 1952/4/1
f 1953/1/1 1954/2/1 1955/3/1 1956/4/1
f 1957/1/1 1958/2/1 1959/3/1 1960/4/1
f 1961/1/1 1962/2/1 1963/3/1 1964/4/1
f 1965/1/1 1966/2/1 1967/3/1 1968/4/1
f 1969/1/1 1970/2/1 1971/3/1 1972/4/1
f 1973/1/1 1974/2/1 1975/3/1 1976/4/1
f 1977/1/1 1978/2/1 1979/3/1 1980/4/1
f 1981/1/1 1982/2/1 1983/3/1 1984/4/1
f 1985/1/1 1986/2/1 1987/3/1 1988/4/1
f 1989/1/1 1990/2/1 1991/3/1 1992/4/1
f 1993/1/1 1994/2/1 1995/3/1 1996/4/1
f 1997/1/1 1998/2/1 1999/3/1 2000/4/1
f 2001/1/1 2002/2/1 2003/3/1 2004/4/1
f 2005/1/1 2006/2/1 2007/3/1 2008/4/1
f 2009/1/1 2010/2/1 2011/3/1 2012/4/1
f 2013/1/1 2014/2/1 2015/3/1 2016/4/1
f 2017/1/1 2018/2/1 2019/3/1 2020/4/1
f 2021/1/1 2022/2/1 2023/3/1 2024/4/1
f 2025/1/1 2026/2/1 2027/3/1 2028/4/1
f 2029/1/1 2030/2/1 2031/3/1 2032/4/1
f 2033/1/1 2034/2/1 2035/3/1 2036/4/1
f 2037/1/1 2038/2/1 2039/3/1 2040/4/1
f 2041/1/1 2042/2/1 2043/3/1 2044/4/1
f 2045/1/1 2046/2/1 2047/3/1 2048/4/1

