﻿# Tiled2Unity generated file. Do not modify by hand.
# Wavefront file for 'Forest_mesh_0001.obj'

# Vertices (Count = 2048)
v 0 -1 0
v -1 -1 0
v -1 0 0
v 0 0 0
v -1 -1 0
v -2 -1 0
v -2 0 0
v -1 0 0
v -2 -1 0
v -3 -1 0
v -3 0 0
v -2 0 0
v -3 -1 0
v -4 -1 0
v -4 0 0
v -3 0 0
v -4 -1 0
v -5 -1 0
v -5 0 0
v -4 0 0
v -5 -1 0
v -6 -1 0
v -6 0 0
v -5 0 0
v -6 -1 0
v -7 -1 0
v -7 0 0
v -6 0 0
v -7 -1 0
v -8 -1 0
v -8 0 0
v -7 0 0
v -8 -1 0
v -9 -1 0
v -9 0 0
v -8 0 0
v -9 -1 0
v -10 -1 0
v -10 0 0
v -9 0 0
v -10 -1 0
v -11 -1 0
v -11 0 0
v -10 0 0
v -11 -1 0
v -12 -1 0
v -12 0 0
v -11 0 0
v -12 -1 0
v -13 -1 0
v -13 0 0
v -12 0 0
v -13 -1 0
v -14 -1 0
v -14 0 0
v -13 0 0
v -14 -1 0
v -15 -1 0
v -15 0 0
v -14 0 0
v -15 -1 0
v -16 -1 0
v -16 0 0
v -15 0 0
v -16 -1 0
v -17 -1 0
v -17 0 0
v -16 0 0
v -17 -1 0
v -18 -1 0
v -18 0 0
v -17 0 0
v -18 -1 0
v -19 -1 0
v -19 0 0
v -18 0 0
v -19 -1 0
v -20 -1 0
v -20 0 0
v -19 0 0
v -20 -1 0
v -21 -1 0
v -21 0 0
v -20 0 0
v -21 -1 0
v -22 -1 0
v -22 0 0
v -21 0 0
v -22 -1 0
v -23 -1 0
v -23 0 0
v -22 0 0
v -23 -1 0
v -24 -1 0
v -24 0 0
v -23 0 0
v -24 -1 0
v -25 -1 0
v -25 0 0
v -24 0 0
v -25 -1 0
v -26 -1 0
v -26 0 0
v -25 0 0
v -26 -1 0
v -27 -1 0
v -27 0 0
v -26 0 0
v -27 -1 0
v -28 -1 0
v -28 0 0
v -27 0 0
v -28 -1 0
v -29 -1 0
v -29 0 0
v -28 0 0
v -29 -1 0
v -30 -1 0
v -30 0 0
v -29 0 0
v -30 -1 0
v -31 -1 0
v -31 0 0
v -30 0 0
v -31 -1 0
v -32 -1 0
v -32 0 0
v -31 0 0
v 0 -2 0
v -1 -2 0
v -1 -1 0
v 0 -1 0
v -1 -2 0
v -2 -2 0
v -2 -1 0
v -1 -1 0
v -2 -2 0
v -3 -2 0
v -3 -1 0
v -2 -1 0
v -3 -2 0
v -4 -2 0
v -4 -1 0
v -3 -1 0
v -4 -2 0
v -5 -2 0
v -5 -1 0
v -4 -1 0
v -5 -2 0
v -6 -2 0
v -6 -1 0
v -5 -1 0
v -6 -2 0
v -7 -2 0
v -7 -1 0
v -6 -1 0
v -7 -2 0
v -8 -2 0
v -8 -1 0
v -7 -1 0
v -8 -2 0
v -9 -2 0
v -9 -1 0
v -8 -1 0
v -9 -2 0
v -10 -2 0
v -10 -1 0
v -9 -1 0
v -10 -2 0
v -11 -2 0
v -11 -1 0
v -10 -1 0
v -11 -2 0
v -12 -2 0
v -12 -1 0
v -11 -1 0
v -12 -2 0
v -13 -2 0
v -13 -1 0
v -12 -1 0
v -13 -2 0
v -14 -2 0
v -14 -1 0
v -13 -1 0
v -14 -2 0
v -15 -2 0
v -15 -1 0
v -14 -1 0
v -15 -2 0
v -16 -2 0
v -16 -1 0
v -15 -1 0
v -16 -2 0
v -17 -2 0
v -17 -1 0
v -16 -1 0
v -17 -2 0
v -18 -2 0
v -18 -1 0
v -17 -1 0
v -18 -2 0
v -19 -2 0
v -19 -1 0
v -18 -1 0
v -19 -2 0
v -20 -2 0
v -20 -1 0
v -19 -1 0
v -20 -2 0
v -21 -2 0
v -21 -1 0
v -20 -1 0
v -21 -2 0
v -22 -2 0
v -22 -1 0
v -21 -1 0
v -22 -2 0
v -23 -2 0
v -23 -1 0
v -22 -1 0
v -23 -2 0
v -24 -2 0
v -24 -1 0
v -23 -1 0
v -24 -2 0
v -25 -2 0
v -25 -1 0
v -24 -1 0
v -25 -2 0
v -26 -2 0
v -26 -1 0
v -25 -1 0
v -26 -2 0
v -27 -2 0
v -27 -1 0
v -26 -1 0
v -27 -2 0
v -28 -2 0
v -28 -1 0
v -27 -1 0
v -28 -2 0
v -29 -2 0
v -29 -1 0
v -28 -1 0
v -29 -2 0
v -30 -2 0
v -30 -1 0
v -29 -1 0
v -30 -2 0
v -31 -2 0
v -31 -1 0
v -30 -1 0
v -31 -2 0
v -32 -2 0
v -32 -1 0
v -31 -1 0
v 0 -3 0
v -1 -3 0
v -1 -2 0
v 0 -2 0
v -1 -3 0
v -2 -3 0
v -2 -2 0
v -1 -2 0
v -2 -3 0
v -3 -3 0
v -3 -2 0
v -2 -2 0
v -3 -3 0
v -4 -3 0
v -4 -2 0
v -3 -2 0
v -4 -3 0
v -5 -3 0
v -5 -2 0
v -4 -2 0
v -5 -3 0
v -6 -3 0
v -6 -2 0
v -5 -2 0
v -6 -3 0
v -7 -3 0
v -7 -2 0
v -6 -2 0
v -7 -3 0
v -8 -3 0
v -8 -2 0
v -7 -2 0
v -8 -3 0
v -9 -3 0
v -9 -2 0
v -8 -2 0
v -9 -3 0
v -10 -3 0
v -10 -2 0
v -9 -2 0
v -10 -3 0
v -11 -3 0
v -11 -2 0
v -10 -2 0
v -11 -3 0
v -12 -3 0
v -12 -2 0
v -11 -2 0
v -12 -3 0
v -13 -3 0
v -13 -2 0
v -12 -2 0
v -13 -3 0
v -14 -3 0
v -14 -2 0
v -13 -2 0
v -14 -3 0
v -15 -3 0
v -15 -2 0
v -14 -2 0
v -15 -3 0
v -16 -3 0
v -16 -2 0
v -15 -2 0
v -16 -3 0
v -17 -3 0
v -17 -2 0
v -16 -2 0
v -17 -3 0
v -18 -3 0
v -18 -2 0
v -17 -2 0
v -18 -3 0
v -19 -3 0
v -19 -2 0
v -18 -2 0
v -19 -3 0
v -20 -3 0
v -20 -2 0
v -19 -2 0
v -20 -3 0
v -21 -3 0
v -21 -2 0
v -20 -2 0
v -21 -3 0
v -22 -3 0
v -22 -2 0
v -21 -2 0
v -22 -3 0
v -23 -3 0
v -23 -2 0
v -22 -2 0
v -23 -3 0
v -24 -3 0
v -24 -2 0
v -23 -2 0
v -24 -3 0
v -25 -3 0
v -25 -2 0
v -24 -2 0
v -25 -3 0
v -26 -3 0
v -26 -2 0
v -25 -2 0
v -26 -3 0
v -27 -3 0
v -27 -2 0
v -26 -2 0
v -27 -3 0
v -28 -3 0
v -28 -2 0
v -27 -2 0
v -28 -3 0
v -29 -3 0
v -29 -2 0
v -28 -2 0
v -29 -3 0
v -30 -3 0
v -30 -2 0
v -29 -2 0
v -30 -3 0
v -31 -3 0
v -31 -2 0
v -30 -2 0
v -31 -3 0
v -32 -3 0
v -32 -2 0
v -31 -2 0
v 0 -4 0
v -1 -4 0
v -1 -3 0
v 0 -3 0
v -1 -4 0
v -2 -4 0
v -2 -3 0
v -1 -3 0
v -2 -4 0
v -3 -4 0
v -3 -3 0
v -2 -3 0
v -3 -4 0
v -4 -4 0
v -4 -3 0
v -3 -3 0
v -4 -4 0
v -5 -4 0
v -5 -3 0
v -4 -3 0
v -5 -4 0
v -6 -4 0
v -6 -3 0
v -5 -3 0
v -6 -4 0
v -7 -4 0
v -7 -3 0
v -6 -3 0
v -7 -4 0
v -8 -4 0
v -8 -3 0
v -7 -3 0
v -8 -4 0
v -9 -4 0
v -9 -3 0
v -8 -3 0
v -9 -4 0
v -10 -4 0
v -10 -3 0
v -9 -3 0
v -10 -4 0
v -11 -4 0
v -11 -3 0
v -10 -3 0
v -11 -4 0
v -12 -4 0
v -12 -3 0
v -11 -3 0
v -12 -4 0
v -13 -4 0
v -13 -3 0
v -12 -3 0
v -13 -4 0
v -14 -4 0
v -14 -3 0
v -13 -3 0
v -14 -4 0
v -15 -4 0
v -15 -3 0
v -14 -3 0
v -15 -4 0
v -16 -4 0
v -16 -3 0
v -15 -3 0
v -16 -4 0
v -17 -4 0
v -17 -3 0
v -16 -3 0
v -17 -4 0
v -18 -4 0
v -18 -3 0
v -17 -3 0
v -18 -4 0
v -19 -4 0
v -19 -3 0
v -18 -3 0
v -19 -4 0
v -20 -4 0
v -20 -3 0
v -19 -3 0
v -20 -4 0
v -21 -4 0
v -21 -3 0
v -20 -3 0
v -21 -4 0
v -22 -4 0
v -22 -3 0
v -21 -3 0
v -22 -4 0
v -23 -4 0
v -23 -3 0
v -22 -3 0
v -23 -4 0
v -24 -4 0
v -24 -3 0
v -23 -3 0
v -24 -4 0
v -25 -4 0
v -25 -3 0
v -24 -3 0
v -25 -4 0
v -26 -4 0
v -26 -3 0
v -25 -3 0
v -26 -4 0
v -27 -4 0
v -27 -3 0
v -26 -3 0
v -27 -4 0
v -28 -4 0
v -28 -3 0
v -27 -3 0
v -28 -4 0
v -29 -4 0
v -29 -3 0
v -28 -3 0
v -29 -4 0
v -30 -4 0
v -30 -3 0
v -29 -3 0
v -30 -4 0
v -31 -4 0
v -31 -3 0
v -30 -3 0
v -31 -4 0
v -32 -4 0
v -32 -3 0
v -31 -3 0
v 0 -5 0
v -1 -5 0
v -1 -4 0
v 0 -4 0
v -1 -5 0
v -2 -5 0
v -2 -4 0
v -1 -4 0
v -2 -5 0
v -3 -5 0
v -3 -4 0
v -2 -4 0
v -3 -5 0
v -4 -5 0
v -4 -4 0
v -3 -4 0
v -4 -5 0
v -5 -5 0
v -5 -4 0
v -4 -4 0
v -5 -5 0
v -6 -5 0
v -6 -4 0
v -5 -4 0
v -6 -5 0
v -7 -5 0
v -7 -4 0
v -6 -4 0
v -7 -5 0
v -8 -5 0
v -8 -4 0
v -7 -4 0
v -8 -5 0
v -9 -5 0
v -9 -4 0
v -8 -4 0
v -9 -5 0
v -10 -5 0
v -10 -4 0
v -9 -4 0
v -10 -5 0
v -11 -5 0
v -11 -4 0
v -10 -4 0
v -11 -5 0
v -12 -5 0
v -12 -4 0
v -11 -4 0
v -12 -5 0
v -13 -5 0
v -13 -4 0
v -12 -4 0
v -13 -5 0
v -14 -5 0
v -14 -4 0
v -13 -4 0
v -14 -5 0
v -15 -5 0
v -15 -4 0
v -14 -4 0
v -15 -5 0
v -16 -5 0
v -16 -4 0
v -15 -4 0
v -16 -5 0
v -17 -5 0
v -17 -4 0
v -16 -4 0
v -17 -5 0
v -18 -5 0
v -18 -4 0
v -17 -4 0
v -18 -5 0
v -19 -5 0
v -19 -4 0
v -18 -4 0
v -19 -5 0
v -20 -5 0
v -20 -4 0
v -19 -4 0
v -20 -5 0
v -21 -5 0
v -21 -4 0
v -20 -4 0
v -21 -5 0
v -22 -5 0
v -22 -4 0
v -21 -4 0
v -22 -5 0
v -23 -5 0
v -23 -4 0
v -22 -4 0
v -23 -5 0
v -24 -5 0
v -24 -4 0
v -23 -4 0
v -24 -5 0
v -25 -5 0
v -25 -4 0
v -24 -4 0
v -25 -5 0
v -26 -5 0
v -26 -4 0
v -25 -4 0
v -26 -5 0
v -27 -5 0
v -27 -4 0
v -26 -4 0
v -27 -5 0
v -28 -5 0
v -28 -4 0
v -27 -4 0
v -28 -5 0
v -29 -5 0
v -29 -4 0
v -28 -4 0
v -29 -5 0
v -30 -5 0
v -30 -4 0
v -29 -4 0
v -30 -5 0
v -31 -5 0
v -31 -4 0
v -30 -4 0
v -31 -5 0
v -32 -5 0
v -32 -4 0
v -31 -4 0
v 0 -6 0
v -1 -6 0
v -1 -5 0
v 0 -5 0
v -1 -6 0
v -2 -6 0
v -2 -5 0
v -1 -5 0
v -2 -6 0
v -3 -6 0
v -3 -5 0
v -2 -5 0
v -3 -6 0
v -4 -6 0
v -4 -5 0
v -3 -5 0
v -4 -6 0
v -5 -6 0
v -5 -5 0
v -4 -5 0
v -5 -6 0
v -6 -6 0
v -6 -5 0
v -5 -5 0
v -6 -6 0
v -7 -6 0
v -7 -5 0
v -6 -5 0
v -7 -6 0
v -8 -6 0
v -8 -5 0
v -7 -5 0
v -8 -6 0
v -9 -6 0
v -9 -5 0
v -8 -5 0
v -9 -6 0
v -10 -6 0
v -10 -5 0
v -9 -5 0
v -10 -6 0
v -11 -6 0
v -11 -5 0
v -10 -5 0
v -11 -6 0
v -12 -6 0
v -12 -5 0
v -11 -5 0
v -12 -6 0
v -13 -6 0
v -13 -5 0
v -12 -5 0
v -13 -6 0
v -14 -6 0
v -14 -5 0
v -13 -5 0
v -14 -6 0
v -15 -6 0
v -15 -5 0
v -14 -5 0
v -15 -6 0
v -16 -6 0
v -16 -5 0
v -15 -5 0
v -16 -6 0
v -17 -6 0
v -17 -5 0
v -16 -5 0
v -17 -6 0
v -18 -6 0
v -18 -5 0
v -17 -5 0
v -18 -6 0
v -19 -6 0
v -19 -5 0
v -18 -5 0
v -19 -6 0
v -20 -6 0
v -20 -5 0
v -19 -5 0
v -20 -6 0
v -21 -6 0
v -21 -5 0
v -20 -5 0
v -21 -6 0
v -22 -6 0
v -22 -5 0
v -21 -5 0
v -22 -6 0
v -23 -6 0
v -23 -5 0
v -22 -5 0
v -23 -6 0
v -24 -6 0
v -24 -5 0
v -23 -5 0
v -24 -6 0
v -25 -6 0
v -25 -5 0
v -24 -5 0
v -25 -6 0
v -26 -6 0
v -26 -5 0
v -25 -5 0
v -26 -6 0
v -27 -6 0
v -27 -5 0
v -26 -5 0
v -27 -6 0
v -28 -6 0
v -28 -5 0
v -27 -5 0
v -28 -6 0
v -29 -6 0
v -29 -5 0
v -28 -5 0
v -29 -6 0
v -30 -6 0
v -30 -5 0
v -29 -5 0
v -30 -6 0
v -31 -6 0
v -31 -5 0
v -30 -5 0
v -31 -6 0
v -32 -6 0
v -32 -5 0
v -31 -5 0
v 0 -7 0
v -1 -7 0
v -1 -6 0
v 0 -6 0
v -1 -7 0
v -2 -7 0
v -2 -6 0
v -1 -6 0
v -2 -7 0
v -3 -7 0
v -3 -6 0
v -2 -6 0
v -3 -7 0
v -4 -7 0
v -4 -6 0
v -3 -6 0
v -4 -7 0
v -5 -7 0
v -5 -6 0
v -4 -6 0
v -5 -7 0
v -6 -7 0
v -6 -6 0
v -5 -6 0
v -6 -7 0
v -7 -7 0
v -7 -6 0
v -6 -6 0
v -7 -7 0
v -8 -7 0
v -8 -6 0
v -7 -6 0
v -8 -7 0
v -9 -7 0
v -9 -6 0
v -8 -6 0
v -9 -7 0
v -10 -7 0
v -10 -6 0
v -9 -6 0
v -10 -7 0
v -11 -7 0
v -11 -6 0
v -10 -6 0
v -11 -7 0
v -12 -7 0
v -12 -6 0
v -11 -6 0
v -12 -7 0
v -13 -7 0
v -13 -6 0
v -12 -6 0
v -13 -7 0
v -14 -7 0
v -14 -6 0
v -13 -6 0
v -14 -7 0
v -15 -7 0
v -15 -6 0
v -14 -6 0
v -15 -7 0
v -16 -7 0
v -16 -6 0
v -15 -6 0
v -16 -7 0
v -17 -7 0
v -17 -6 0
v -16 -6 0
v -17 -7 0
v -18 -7 0
v -18 -6 0
v -17 -6 0
v -18 -7 0
v -19 -7 0
v -19 -6 0
v -18 -6 0
v -19 -7 0
v -20 -7 0
v -20 -6 0
v -19 -6 0
v -20 -7 0
v -21 -7 0
v -21 -6 0
v -20 -6 0
v -21 -7 0
v -22 -7 0
v -22 -6 0
v -21 -6 0
v -22 -7 0
v -23 -7 0
v -23 -6 0
v -22 -6 0
v -23 -7 0
v -24 -7 0
v -24 -6 0
v -23 -6 0
v -24 -7 0
v -25 -7 0
v -25 -6 0
v -24 -6 0
v -25 -7 0
v -26 -7 0
v -26 -6 0
v -25 -6 0
v -26 -7 0
v -27 -7 0
v -27 -6 0
v -26 -6 0
v -27 -7 0
v -28 -7 0
v -28 -6 0
v -27 -6 0
v -28 -7 0
v -29 -7 0
v -29 -6 0
v -28 -6 0
v -29 -7 0
v -30 -7 0
v -30 -6 0
v -29 -6 0
v -30 -7 0
v -31 -7 0
v -31 -6 0
v -30 -6 0
v -31 -7 0
v -32 -7 0
v -32 -6 0
v -31 -6 0
v 0 -8 0
v -1 -8 0
v -1 -7 0
v 0 -7 0
v -1 -8 0
v -2 -8 0
v -2 -7 0
v -1 -7 0
v -2 -8 0
v -3 -8 0
v -3 -7 0
v -2 -7 0
v -3 -8 0
v -4 -8 0
v -4 -7 0
v -3 -7 0
v -4 -8 0
v -5 -8 0
v -5 -7 0
v -4 -7 0
v -5 -8 0
v -6 -8 0
v -6 -7 0
v -5 -7 0
v -6 -8 0
v -7 -8 0
v -7 -7 0
v -6 -7 0
v -7 -8 0
v -8 -8 0
v -8 -7 0
v -7 -7 0
v -8 -8 0
v -9 -8 0
v -9 -7 0
v -8 -7 0
v -9 -8 0
v -10 -8 0
v -10 -7 0
v -9 -7 0
v -10 -8 0
v -11 -8 0
v -11 -7 0
v -10 -7 0
v -11 -8 0
v -12 -8 0
v -12 -7 0
v -11 -7 0
v -12 -8 0
v -13 -8 0
v -13 -7 0
v -12 -7 0
v -13 -8 0
v -14 -8 0
v -14 -7 0
v -13 -7 0
v -14 -8 0
v -15 -8 0
v -15 -7 0
v -14 -7 0
v -15 -8 0
v -16 -8 0
v -16 -7 0
v -15 -7 0
v -16 -8 0
v -17 -8 0
v -17 -7 0
v -16 -7 0
v -17 -8 0
v -18 -8 0
v -18 -7 0
v -17 -7 0
v -18 -8 0
v -19 -8 0
v -19 -7 0
v -18 -7 0
v -19 -8 0
v -20 -8 0
v -20 -7 0
v -19 -7 0
v -20 -8 0
v -21 -8 0
v -21 -7 0
v -20 -7 0
v -21 -8 0
v -22 -8 0
v -22 -7 0
v -21 -7 0
v -22 -8 0
v -23 -8 0
v -23 -7 0
v -22 -7 0
v -23 -8 0
v -24 -8 0
v -24 -7 0
v -23 -7 0
v -24 -8 0
v -25 -8 0
v -25 -7 0
v -24 -7 0
v -25 -8 0
v -26 -8 0
v -26 -7 0
v -25 -7 0
v -26 -8 0
v -27 -8 0
v -27 -7 0
v -26 -7 0
v -27 -8 0
v -28 -8 0
v -28 -7 0
v -27 -7 0
v -28 -8 0
v -29 -8 0
v -29 -7 0
v -28 -7 0
v -29 -8 0
v -30 -8 0
v -30 -7 0
v -29 -7 0
v -30 -8 0
v -31 -8 0
v -31 -7 0
v -30 -7 0
v -31 -8 0
v -32 -8 0
v -32 -7 0
v -31 -7 0
v 0 -9 0
v -1 -9 0
v -1 -8 0
v 0 -8 0
v -1 -9 0
v -2 -9 0
v -2 -8 0
v -1 -8 0
v -2 -9 0
v -3 -9 0
v -3 -8 0
v -2 -8 0
v -3 -9 0
v -4 -9 0
v -4 -8 0
v -3 -8 0
v -4 -9 0
v -5 -9 0
v -5 -8 0
v -4 -8 0
v -5 -9 0
v -6 -9 0
v -6 -8 0
v -5 -8 0
v -6 -9 0
v -7 -9 0
v -7 -8 0
v -6 -8 0
v -7 -9 0
v -8 -9 0
v -8 -8 0
v -7 -8 0
v -8 -9 0
v -9 -9 0
v -9 -8 0
v -8 -8 0
v -9 -9 0
v -10 -9 0
v -10 -8 0
v -9 -8 0
v -10 -9 0
v -11 -9 0
v -11 -8 0
v -10 -8 0
v -11 -9 0
v -12 -9 0
v -12 -8 0
v -11 -8 0
v -12 -9 0
v -13 -9 0
v -13 -8 0
v -12 -8 0
v -13 -9 0
v -14 -9 0
v -14 -8 0
v -13 -8 0
v -14 -9 0
v -15 -9 0
v -15 -8 0
v -14 -8 0
v -15 -9 0
v -16 -9 0
v -16 -8 0
v -15 -8 0
v -16 -9 0
v -17 -9 0
v -17 -8 0
v -16 -8 0
v -17 -9 0
v -18 -9 0
v -18 -8 0
v -17 -8 0
v -18 -9 0
v -19 -9 0
v -19 -8 0
v -18 -8 0
v -19 -9 0
v -20 -9 0
v -20 -8 0
v -19 -8 0
v -20 -9 0
v -21 -9 0
v -21 -8 0
v -20 -8 0
v -21 -9 0
v -22 -9 0
v -22 -8 0
v -21 -8 0
v -22 -9 0
v -23 -9 0
v -23 -8 0
v -22 -8 0
v -23 -9 0
v -24 -9 0
v -24 -8 0
v -23 -8 0
v -24 -9 0
v -25 -9 0
v -25 -8 0
v -24 -8 0
v -25 -9 0
v -26 -9 0
v -26 -8 0
v -25 -8 0
v -26 -9 0
v -27 -9 0
v -27 -8 0
v -26 -8 0
v -27 -9 0
v -28 -9 0
v -28 -8 0
v -27 -8 0
v -28 -9 0
v -29 -9 0
v -29 -8 0
v -28 -8 0
v -29 -9 0
v -30 -9 0
v -30 -8 0
v -29 -8 0
v -30 -9 0
v -31 -9 0
v -31 -8 0
v -30 -8 0
v -31 -9 0
v -32 -9 0
v -32 -8 0
v -31 -8 0
v 0 -10 0
v -1 -10 0
v -1 -9 0
v 0 -9 0
v -1 -10 0
v -2 -10 0
v -2 -9 0
v -1 -9 0
v -2 -10 0
v -3 -10 0
v -3 -9 0
v -2 -9 0
v -3 -10 0
v -4 -10 0
v -4 -9 0
v -3 -9 0
v -4 -10 0
v -5 -10 0
v -5 -9 0
v -4 -9 0
v -5 -10 0
v -6 -10 0
v -6 -9 0
v -5 -9 0
v -6 -10 0
v -7 -10 0
v -7 -9 0
v -6 -9 0
v -7 -10 0
v -8 -10 0
v -8 -9 0
v -7 -9 0
v -8 -10 0
v -9 -10 0
v -9 -9 0
v -8 -9 0
v -9 -10 0
v -10 -10 0
v -10 -9 0
v -9 -9 0
v -10 -10 0
v -11 -10 0
v -11 -9 0
v -10 -9 0
v -11 -10 0
v -12 -10 0
v -12 -9 0
v -11 -9 0
v -12 -10 0
v -13 -10 0
v -13 -9 0
v -12 -9 0
v -13 -10 0
v -14 -10 0
v -14 -9 0
v -13 -9 0
v -14 -10 0
v -15 -10 0
v -15 -9 0
v -14 -9 0
v -15 -10 0
v -16 -10 0
v -16 -9 0
v -15 -9 0
v -16 -10 0
v -17 -10 0
v -17 -9 0
v -16 -9 0
v -17 -10 0
v -18 -10 0
v -18 -9 0
v -17 -9 0
v -18 -10 0
v -19 -10 0
v -19 -9 0
v -18 -9 0
v -19 -10 0
v -20 -10 0
v -20 -9 0
v -19 -9 0
v -20 -10 0
v -21 -10 0
v -21 -9 0
v -20 -9 0
v -21 -10 0
v -22 -10 0
v -22 -9 0
v -21 -9 0
v -22 -10 0
v -23 -10 0
v -23 -9 0
v -22 -9 0
v -23 -10 0
v -24 -10 0
v -24 -9 0
v -23 -9 0
v -24 -10 0
v -25 -10 0
v -25 -9 0
v -24 -9 0
v -25 -10 0
v -26 -10 0
v -26 -9 0
v -25 -9 0
v -26 -10 0
v -27 -10 0
v -27 -9 0
v -26 -9 0
v -27 -10 0
v -28 -10 0
v -28 -9 0
v -27 -9 0
v -28 -10 0
v -29 -10 0
v -29 -9 0
v -28 -9 0
v -29 -10 0
v -30 -10 0
v -30 -9 0
v -29 -9 0
v -30 -10 0
v -31 -10 0
v -31 -9 0
v -30 -9 0
v -31 -10 0
v -32 -10 0
v -32 -9 0
v -31 -9 0
v 0 -11 0
v -1 -11 0
v -1 -10 0
v 0 -10 0
v -1 -11 0
v -2 -11 0
v -2 -10 0
v -1 -10 0
v -2 -11 0
v -3 -11 0
v -3 -10 0
v -2 -10 0
v -3 -11 0
v -4 -11 0
v -4 -10 0
v -3 -10 0
v -4 -11 0
v -5 -11 0
v -5 -10 0
v -4 -10 0
v -5 -11 0
v -6 -11 0
v -6 -10 0
v -5 -10 0
v -6 -11 0
v -7 -11 0
v -7 -10 0
v -6 -10 0
v -7 -11 0
v -8 -11 0
v -8 -10 0
v -7 -10 0
v -8 -11 0
v -9 -11 0
v -9 -10 0
v -8 -10 0
v -9 -11 0
v -10 -11 0
v -10 -10 0
v -9 -10 0
v -10 -11 0
v -11 -11 0
v -11 -10 0
v -10 -10 0
v -11 -11 0
v -12 -11 0
v -12 -10 0
v -11 -10 0
v -12 -11 0
v -13 -11 0
v -13 -10 0
v -12 -10 0
v -13 -11 0
v -14 -11 0
v -14 -10 0
v -13 -10 0
v -14 -11 0
v -15 -11 0
v -15 -10 0
v -14 -10 0
v -15 -11 0
v -16 -11 0
v -16 -10 0
v -15 -10 0
v -16 -11 0
v -17 -11 0
v -17 -10 0
v -16 -10 0
v -17 -11 0
v -18 -11 0
v -18 -10 0
v -17 -10 0
v -18 -11 0
v -19 -11 0
v -19 -10 0
v -18 -10 0
v -19 -11 0
v -20 -11 0
v -20 -10 0
v -19 -10 0
v -20 -11 0
v -21 -11 0
v -21 -10 0
v -20 -10 0
v -21 -11 0
v -22 -11 0
v -22 -10 0
v -21 -10 0
v -22 -11 0
v -23 -11 0
v -23 -10 0
v -22 -10 0
v -23 -11 0
v -24 -11 0
v -24 -10 0
v -23 -10 0
v -24 -11 0
v -25 -11 0
v -25 -10 0
v -24 -10 0
v -25 -11 0
v -26 -11 0
v -26 -10 0
v -25 -10 0
v -26 -11 0
v -27 -11 0
v -27 -10 0
v -26 -10 0
v -27 -11 0
v -28 -11 0
v -28 -10 0
v -27 -10 0
v -28 -11 0
v -29 -11 0
v -29 -10 0
v -28 -10 0
v -29 -11 0
v -30 -11 0
v -30 -10 0
v -29 -10 0
v -30 -11 0
v -31 -11 0
v -31 -10 0
v -30 -10 0
v -31 -11 0
v -32 -11 0
v -32 -10 0
v -31 -10 0
v 0 -12 0
v -1 -12 0
v -1 -11 0
v 0 -11 0
v -1 -12 0
v -2 -12 0
v -2 -11 0
v -1 -11 0
v -2 -12 0
v -3 -12 0
v -3 -11 0
v -2 -11 0
v -3 -12 0
v -4 -12 0
v -4 -11 0
v -3 -11 0
v -4 -12 0
v -5 -12 0
v -5 -11 0
v -4 -11 0
v -5 -12 0
v -6 -12 0
v -6 -11 0
v -5 -11 0
v -6 -12 0
v -7 -12 0
v -7 -11 0
v -6 -11 0
v -7 -12 0
v -8 -12 0
v -8 -11 0
v -7 -11 0
v -8 -12 0
v -9 -12 0
v -9 -11 0
v -8 -11 0
v -9 -12 0
v -10 -12 0
v -10 -11 0
v -9 -11 0
v -10 -12 0
v -11 -12 0
v -11 -11 0
v -10 -11 0
v -11 -12 0
v -12 -12 0
v -12 -11 0
v -11 -11 0
v -12 -12 0
v -13 -12 0
v -13 -11 0
v -12 -11 0
v -13 -12 0
v -14 -12 0
v -14 -11 0
v -13 -11 0
v -14 -12 0
v -15 -12 0
v -15 -11 0
v -14 -11 0
v -15 -12 0
v -16 -12 0
v -16 -11 0
v -15 -11 0
v -16 -12 0
v -17 -12 0
v -17 -11 0
v -16 -11 0
v -17 -12 0
v -18 -12 0
v -18 -11 0
v -17 -11 0
v -18 -12 0
v -19 -12 0
v -19 -11 0
v -18 -11 0
v -19 -12 0
v -20 -12 0
v -20 -11 0
v -19 -11 0
v -20 -12 0
v -21 -12 0
v -21 -11 0
v -20 -11 0
v -21 -12 0
v -22 -12 0
v -22 -11 0
v -21 -11 0
v -22 -12 0
v -23 -12 0
v -23 -11 0
v -22 -11 0
v -23 -12 0
v -24 -12 0
v -24 -11 0
v -23 -11 0
v -24 -12 0
v -25 -12 0
v -25 -11 0
v -24 -11 0
v -25 -12 0
v -26 -12 0
v -26 -11 0
v -25 -11 0
v -26 -12 0
v -27 -12 0
v -27 -11 0
v -26 -11 0
v -27 -12 0
v -28 -12 0
v -28 -11 0
v -27 -11 0
v -28 -12 0
v -29 -12 0
v -29 -11 0
v -28 -11 0
v -29 -12 0
v -30 -12 0
v -30 -11 0
v -29 -11 0
v -30 -12 0
v -31 -12 0
v -31 -11 0
v -30 -11 0
v -31 -12 0
v -32 -12 0
v -32 -11 0
v -31 -11 0
v 0 -13 0
v -1 -13 0
v -1 -12 0
v 0 -12 0
v -1 -13 0
v -2 -13 0
v -2 -12 0
v -1 -12 0
v -2 -13 0
v -3 -13 0
v -3 -12 0
v -2 -12 0
v -3 -13 0
v -4 -13 0
v -4 -12 0
v -3 -12 0
v -4 -13 0
v -5 -13 0
v -5 -12 0
v -4 -12 0
v -5 -13 0
v -6 -13 0
v -6 -12 0
v -5 -12 0
v -6 -13 0
v -7 -13 0
v -7 -12 0
v -6 -12 0
v -7 -13 0
v -8 -13 0
v -8 -12 0
v -7 -12 0
v -8 -13 0
v -9 -13 0
v -9 -12 0
v -8 -12 0
v -9 -13 0
v -10 -13 0
v -10 -12 0
v -9 -12 0
v -10 -13 0
v -11 -13 0
v -11 -12 0
v -10 -12 0
v -11 -13 0
v -12 -13 0
v -12 -12 0
v -11 -12 0
v -12 -13 0
v -13 -13 0
v -13 -12 0
v -12 -12 0
v -13 -13 0
v -14 -13 0
v -14 -12 0
v -13 -12 0
v -14 -13 0
v -15 -13 0
v -15 -12 0
v -14 -12 0
v -15 -13 0
v -16 -13 0
v -16 -12 0
v -15 -12 0
v -16 -13 0
v -17 -13 0
v -17 -12 0
v -16 -12 0
v -17 -13 0
v -18 -13 0
v -18 -12 0
v -17 -12 0
v -18 -13 0
v -19 -13 0
v -19 -12 0
v -18 -12 0
v -19 -13 0
v -20 -13 0
v -20 -12 0
v -19 -12 0
v -20 -13 0
v -21 -13 0
v -21 -12 0
v -20 -12 0
v -21 -13 0
v -22 -13 0
v -22 -12 0
v -21 -12 0
v -22 -13 0
v -23 -13 0
v -23 -12 0
v -22 -12 0
v -23 -13 0
v -24 -13 0
v -24 -12 0
v -23 -12 0
v -24 -13 0
v -25 -13 0
v -25 -12 0
v -24 -12 0
v -25 -13 0
v -26 -13 0
v -26 -12 0
v -25 -12 0
v -26 -13 0
v -27 -13 0
v -27 -12 0
v -26 -12 0
v -27 -13 0
v -28 -13 0
v -28 -12 0
v -27 -12 0
v -28 -13 0
v -29 -13 0
v -29 -12 0
v -28 -12 0
v -29 -13 0
v -30 -13 0
v -30 -12 0
v -29 -12 0
v -30 -13 0
v -31 -13 0
v -31 -12 0
v -30 -12 0
v -31 -13 0
v -32 -13 0
v -32 -12 0
v -31 -12 0
v 0 -14 0
v -1 -14 0
v -1 -13 0
v 0 -13 0
v -1 -14 0
v -2 -14 0
v -2 -13 0
v -1 -13 0
v -2 -14 0
v -3 -14 0
v -3 -13 0
v -2 -13 0
v -3 -14 0
v -4 -14 0
v -4 -13 0
v -3 -13 0
v -4 -14 0
v -5 -14 0
v -5 -13 0
v -4 -13 0
v -5 -14 0
v -6 -14 0
v -6 -13 0
v -5 -13 0
v -6 -14 0
v -7 -14 0
v -7 -13 0
v -6 -13 0
v -7 -14 0
v -8 -14 0
v -8 -13 0
v -7 -13 0
v -8 -14 0
v -9 -14 0
v -9 -13 0
v -8 -13 0
v -9 -14 0
v -10 -14 0
v -10 -13 0
v -9 -13 0
v -10 -14 0
v -11 -14 0
v -11 -13 0
v -10 -13 0
v -11 -14 0
v -12 -14 0
v -12 -13 0
v -11 -13 0
v -12 -14 0
v -13 -14 0
v -13 -13 0
v -12 -13 0
v -13 -14 0
v -14 -14 0
v -14 -13 0
v -13 -13 0
v -14 -14 0
v -15 -14 0
v -15 -13 0
v -14 -13 0
v -15 -14 0
v -16 -14 0
v -16 -13 0
v -15 -13 0
v -16 -14 0
v -17 -14 0
v -17 -13 0
v -16 -13 0
v -17 -14 0
v -18 -14 0
v -18 -13 0
v -17 -13 0
v -18 -14 0
v -19 -14 0
v -19 -13 0
v -18 -13 0
v -19 -14 0
v -20 -14 0
v -20 -13 0
v -19 -13 0
v -20 -14 0
v -21 -14 0
v -21 -13 0
v -20 -13 0
v -21 -14 0
v -22 -14 0
v -22 -13 0
v -21 -13 0
v -22 -14 0
v -23 -14 0
v -23 -13 0
v -22 -13 0
v -23 -14 0
v -24 -14 0
v -24 -13 0
v -23 -13 0
v -24 -14 0
v -25 -14 0
v -25 -13 0
v -24 -13 0
v -25 -14 0
v -26 -14 0
v -26 -13 0
v -25 -13 0
v -26 -14 0
v -27 -14 0
v -27 -13 0
v -26 -13 0
v -27 -14 0
v -28 -14 0
v -28 -13 0
v -27 -13 0
v -28 -14 0
v -29 -14 0
v -29 -13 0
v -28 -13 0
v -29 -14 0
v -30 -14 0
v -30 -13 0
v -29 -13 0
v -30 -14 0
v -31 -14 0
v -31 -13 0
v -30 -13 0
v -31 -14 0
v -32 -14 0
v -32 -13 0
v -31 -13 0
v 0 -15 0
v -1 -15 0
v -1 -14 0
v 0 -14 0
v -1 -15 0
v -2 -15 0
v -2 -14 0
v -1 -14 0
v -2 -15 0
v -3 -15 0
v -3 -14 0
v -2 -14 0
v -3 -15 0
v -4 -15 0
v -4 -14 0
v -3 -14 0
v -4 -15 0
v -5 -15 0
v -5 -14 0
v -4 -14 0
v -5 -15 0
v -6 -15 0
v -6 -14 0
v -5 -14 0
v -6 -15 0
v -7 -15 0
v -7 -14 0
v -6 -14 0
v -7 -15 0
v -8 -15 0
v -8 -14 0
v -7 -14 0
v -8 -15 0
v -9 -15 0
v -9 -14 0
v -8 -14 0
v -9 -15 0
v -10 -15 0
v -10 -14 0
v -9 -14 0
v -10 -15 0
v -11 -15 0
v -11 -14 0
v -10 -14 0
v -11 -15 0
v -12 -15 0
v -12 -14 0
v -11 -14 0
v -12 -15 0
v -13 -15 0
v -13 -14 0
v -12 -14 0
v -13 -15 0
v -14 -15 0
v -14 -14 0
v -13 -14 0
v -14 -15 0
v -15 -15 0
v -15 -14 0
v -14 -14 0
v -15 -15 0
v -16 -15 0
v -16 -14 0
v -15 -14 0
v -16 -15 0
v -17 -15 0
v -17 -14 0
v -16 -14 0
v -17 -15 0
v -18 -15 0
v -18 -14 0
v -17 -14 0
v -18 -15 0
v -19 -15 0
v -19 -14 0
v -18 -14 0
v -19 -15 0
v -20 -15 0
v -20 -14 0
v -19 -14 0
v -20 -15 0
v -21 -15 0
v -21 -14 0
v -20 -14 0
v -21 -15 0
v -22 -15 0
v -22 -14 0
v -21 -14 0
v -22 -15 0
v -23 -15 0
v -23 -14 0
v -22 -14 0
v -23 -15 0
v -24 -15 0
v -24 -14 0
v -23 -14 0
v -24 -15 0
v -25 -15 0
v -25 -14 0
v -24 -14 0
v -25 -15 0
v -26 -15 0
v -26 -14 0
v -25 -14 0
v -26 -15 0
v -27 -15 0
v -27 -14 0
v -26 -14 0
v -27 -15 0
v -28 -15 0
v -28 -14 0
v -27 -14 0
v -28 -15 0
v -29 -15 0
v -29 -14 0
v -28 -14 0
v -29 -15 0
v -30 -15 0
v -30 -14 0
v -29 -14 0
v -30 -15 0
v -31 -15 0
v -31 -14 0
v -30 -14 0
v -31 -15 0
v -32 -15 0
v -32 -14 0
v -31 -14 0
v 0 -16 0
v -1 -16 0
v -1 -15 0
v 0 -15 0
v -1 -16 0
v -2 -16 0
v -2 -15 0
v -1 -15 0
v -2 -16 0
v -3 -16 0
v -3 -15 0
v -2 -15 0
v -3 -16 0
v -4 -16 0
v -4 -15 0
v -3 -15 0
v -4 -16 0
v -5 -16 0
v -5 -15 0
v -4 -15 0
v -5 -16 0
v -6 -16 0
v -6 -15 0
v -5 -15 0
v -6 -16 0
v -7 -16 0
v -7 -15 0
v -6 -15 0
v -7 -16 0
v -8 -16 0
v -8 -15 0
v -7 -15 0
v -8 -16 0
v -9 -16 0
v -9 -15 0
v -8 -15 0
v -9 -16 0
v -10 -16 0
v -10 -15 0
v -9 -15 0
v -10 -16 0
v -11 -16 0
v -11 -15 0
v -10 -15 0
v -11 -16 0
v -12 -16 0
v -12 -15 0
v -11 -15 0
v -12 -16 0
v -13 -16 0
v -13 -15 0
v -12 -15 0
v -13 -16 0
v -14 -16 0
v -14 -15 0
v -13 -15 0
v -14 -16 0
v -15 -16 0
v -15 -15 0
v -14 -15 0
v -15 -16 0
v -16 -16 0
v -16 -15 0
v -15 -15 0
v -16 -16 0
v -17 -16 0
v -17 -15 0
v -16 -15 0
v -17 -16 0
v -18 -16 0
v -18 -15 0
v -17 -15 0
v -18 -16 0
v -19 -16 0
v -19 -15 0
v -18 -15 0
v -19 -16 0
v -20 -16 0
v -20 -15 0
v -19 -15 0
v -20 -16 0
v -21 -16 0
v -21 -15 0
v -20 -15 0
v -21 -16 0
v -22 -16 0
v -22 -15 0
v -21 -15 0
v -22 -16 0
v -23 -16 0
v -23 -15 0
v -22 -15 0
v -23 -16 0
v -24 -16 0
v -24 -15 0
v -23 -15 0
v -24 -16 0
v -25 -16 0
v -25 -15 0
v -24 -15 0
v -25 -16 0
v -26 -16 0
v -26 -15 0
v -25 -15 0
v -26 -16 0
v -27 -16 0
v -27 -15 0
v -26 -15 0
v -27 -16 0
v -28 -16 0
v -28 -15 0
v -27 -15 0
v -28 -16 0
v -29 -16 0
v -29 -15 0
v -28 -15 0
v -29 -16 0
v -30 -16 0
v -30 -15 0
v -29 -15 0
v -30 -16 0
v -31 -16 0
v -31 -15 0
v -30 -15 0
v -31 -16 0
v -32 -16 0
v -32 -15 0
v -31 -15 0

# Texture cooridinates (Count = 9)
vt 0.425 0.1388889
vt 0.45 0.1388889
vt 0.45 0.1666667
vt 0.425 0.1666667
vt 0.475 0.1666667
vt 0.475 0.1944444
vt 0.45 0.1944444
vt 0.475 0.1388889
vt 0.425 0.1944444

# Normal
vn 0 0 -1

# Mesh description
g Forest_mesh_0001

# Faces
f 1/1/1 2/2/1 3/3/1 4/4/1
f 5/1/1 6/2/1 7/3/1 8/4/1
f 9/3/1 10/5/1 11/6/1 12/7/1
f 13/2/1 14/8/1 15/5/1 16/3/1
f 17/3/1 18/5/1 19/6/1 20/7/1
f 21/1/1 22/2/1 23/3/1 24/4/1
f 25/3/1 26/5/1 27/6/1 28/7/1
f 29/4/1 30/3/1 31/7/1 32/9/1
f 33/3/1 34/5/1 35/6/1 36/7/1
f 37/3/1 38/5/1 39/6/1 40/7/1
f 41/1/1 42/2/1 43/3/1 44/4/1
f 45/4/1 46/3/1 47/7/1 48/9/1
f 49/4/1 50/3/1 51/7/1 52/9/1
f 53/2/1 54/8/1 55/5/1 56/3/1
f 57/4/1 58/3/1 59/7/1 60/9/1
f 61/2/1 62/8/1 63/5/1 64/3/1
f 65/4/1 66/3/1 67/7/1 68/9/1
f 69/4/1 70/3/1 71/7/1 72/9/1
f 73/3/1 74/5/1 75/6/1 76/7/1
f 77/2/1 78/8/1 79/5/1 80/3/1
f 81/4/1 82/3/1 83/7/1 84/9/1
f 85/3/1 86/5/1 87/6/1 88/7/1
f 89/1/1 90/2/1 91/3/1 92/4/1
f 93/3/1 94/5/1 95/6/1 96/7/1
f 97/4/1 98/3/1 99/7/1 100/9/1
f 101/3/1 102/5/1 103/6/1 104/7/1
f 105/2/1 106/8/1 107/5/1 108/3/1
f 109/1/1 110/2/1 111/3/1 112/4/1
f 113/1/1 114/2/1 115/3/1 116/4/1
f 117/2/1 118/8/1 119/5/1 120/3/1
f 121/1/1 122/2/1 123/3/1 124/4/1
f 125/4/1 126/3/1 127/7/1 128/9/1
f 129/3/1 130/5/1 131/6/1 132/7/1
f 133/1/1 134/2/1 135/3/1 136/4/1
f 137/1/1 138/2/1 139/3/1 140/4/1
f 141/2/1 142/8/1 143/5/1 144/3/1
f 145/4/1 146/3/1 147/7/1 148/9/1
f 149/1/1 150/2/1 151/3/1 152/4/1
f 153/2/1 154/8/1 155/5/1 156/3/1
f 157/3/1 158/5/1 159/6/1 160/7/1
f 161/4/1 162/3/1 163/7/1 164/9/1
f 165/4/1 166/3/1 167/7/1 168/9/1
f 169/1/1 170/2/1 171/3/1 172/4/1
f 173/1/1 174/2/1 175/3/1 176/4/1
f 177/3/1 178/5/1 179/6/1 180/7/1
f 181/2/1 182/8/1 183/5/1 184/3/1
f 185/3/1 186/5/1 187/6/1 188/7/1
f 189/3/1 190/5/1 191/6/1 192/7/1
f 193/3/1 194/5/1 195/6/1 196/7/1
f 197/4/1 198/3/1 199/7/1 200/9/1
f 201/3/1 202/5/1 203/6/1 204/7/1
f 205/4/1 206/3/1 207/7/1 208/9/1
f 209/1/1 210/2/1 211/3/1 212/4/1
f 213/2/1 214/8/1 215/5/1 216/3/1
f 217/1/1 218/2/1 219/3/1 220/4/1
f 221/1/1 222/2/1 223/3/1 224/4/1
f 225/4/1 226/3/1 227/7/1 228/9/1
f 229/4/1 230/3/1 231/7/1 232/9/1
f 233/2/1 234/8/1 235/5/1 236/3/1
f 237/1/1 238/2/1 239/3/1 240/4/1
f 241/2/1 242/8/1 243/5/1 244/3/1
f 245/2/1 246/8/1 247/5/1 248/3/1
f 249/4/1 250/3/1 251/7/1 252/9/1
f 253/1/1 254/2/1 255/3/1 256/4/1
f 257/2/1 258/8/1 259/5/1 260/3/1
f 261/2/1 262/8/1 263/5/1 264/3/1
f 265/3/1 266/5/1 267/6/1 268/7/1
f 269/2/1 270/8/1 271/5/1 272/3/1
f 273/3/1 274/5/1 275/6/1 276/7/1
f 277/4/1 278/3/1 279/7/1 280/9/1
f 281/2/1 282/8/1 283/5/1 284/3/1
f 285/3/1 286/5/1 287/6/1 288/7/1
f 289/2/1 290/8/1 291/5/1 292/3/1
f 293/1/1 294/2/1 295/3/1 296/4/1
f 297/4/1 298/3/1 299/7/1 300/9/1
f 301/1/1 302/2/1 303/3/1 304/4/1
f 305/4/1 306/3/1 307/7/1 308/9/1
f 309/2/1 310/8/1 311/5/1 312/3/1
f 313/2/1 314/8/1 315/5/1 316/3/1
f 317/3/1 318/5/1 319/6/1 320/7/1
f 321/3/1 322/5/1 323/6/1 324/7/1
f 325/2/1 326/8/1 327/5/1 328/3/1
f 329/1/1 330/2/1 331/3/1 332/4/1
f 333/4/1 334/3/1 335/7/1 336/9/1
f 337/1/1 338/2/1 339/3/1 340/4/1
f 341/3/1 342/5/1 343/6/1 344/7/1
f 345/4/1 346/3/1 347/7/1 348/9/1
f 349/4/1 350/3/1 351/7/1 352/9/1
f 353/1/1 354/2/1 355/3/1 356/4/1
f 357/4/1 358/3/1 359/7/1 360/9/1
f 361/1/1 362/2/1 363/3/1 364/4/1
f 365/2/1 366/8/1 367/5/1 368/3/1
f 369/2/1 370/8/1 371/5/1 372/3/1
f 373/3/1 374/5/1 375/6/1 376/7/1
f 377/3/1 378/5/1 379/6/1 380/7/1
f 381/2/1 382/8/1 383/5/1 384/3/1
f 385/3/1 386/5/1 387/6/1 388/7/1
f 389/1/1 390/2/1 391/3/1 392/4/1
f 393/1/1 394/2/1 395/3/1 396/4/1
f 397/2/1 398/8/1 399/5/1 400/3/1
f 401/2/1 402/8/1 403/5/1 404/3/1
f 405/3/1 406/5/1 407/6/1 408/7/1
f 409/4/1 410/3/1 411/7/1 412/9/1
f 413/2/1 414/8/1 415/5/1 416/3/1
f 417/4/1 418/3/1 419/7/1 420/9/1
f 421/3/1 422/5/1 423/6/1 424/7/1
f 425/4/1 426/3/1 427/7/1 428/9/1
f 429/4/1 430/3/1 431/7/1 432/9/1
f 433/2/1 434/8/1 435/5/1 436/3/1
f 437/1/1 438/2/1 439/3/1 440/4/1
f 441/1/1 442/2/1 443/3/1 444/4/1
f 445/3/1 446/5/1 447/6/1 448/7/1
f 449/2/1 450/8/1 451/5/1 452/3/1
f 453/3/1 454/5/1 455/6/1 456/7/1
f 457/3/1 458/5/1 459/6/1 460/7/1
f 461/3/1 462/5/1 463/6/1 464/7/1
f 465/3/1 466/5/1 467/6/1 468/7/1
f 469/2/1 470/8/1 471/5/1 472/3/1
f 473/4/1 474/3/1 475/7/1 476/9/1
f 477/1/1 478/2/1 479/3/1 480/4/1
f 481/1/1 482/2/1 483/3/1 484/4/1
f 485/4/1 486/3/1 487/7/1 488/9/1
f 489/4/1 490/3/1 491/7/1 492/9/1
f 493/4/1 494/3/1 495/7/1 496/9/1
f 497/2/1 498/8/1 499/5/1 500/3/1
f 501/4/1 502/3/1 503/7/1 504/9/1
f 505/4/1 506/3/1 507/7/1 508/9/1
f 509/3/1 510/5/1 511/6/1 512/7/1
f 513/4/1 514/3/1 515/7/1 516/9/1
f 517/3/1 518/5/1 519/6/1 520/7/1
f 521/3/1 522/5/1 523/6/1 524/7/1
f 525/1/1 526/2/1 527/3/1 528/4/1
f 529/3/1 530/5/1 531/6/1 532/7/1
f 533/3/1 534/5/1 535/6/1 536/7/1
f 537/2/1 538/8/1 539/5/1 540/3/1
f 541/4/1 542/3/1 543/7/1 544/9/1
f 545/1/1 546/2/1 547/3/1 548/4/1
f 549/2/1 550/8/1 551/5/1 552/3/1
f 553/2/1 554/8/1 555/5/1 556/3/1
f 557/1/1 558/2/1 559/3/1 560/4/1
f 561/4/1 562/3/1 563/7/1 564/9/1
f 565/4/1 566/3/1 567/7/1 568/9/1
f 569/2/1 570/8/1 571/5/1 572/3/1
f 573/4/1 574/3/1 575/7/1 576/9/1
f 577/3/1 578/5/1 579/6/1 580/7/1
f 581/3/1 582/5/1 583/6/1 584/7/1
f 585/2/1 586/8/1 587/5/1 588/3/1
f 589/3/1 590/5/1 591/6/1 592/7/1
f 593/1/1 594/2/1 595/3/1 596/4/1
f 597/3/1 598/5/1 599/6/1 600/7/1
f 601/4/1 602/3/1 603/7/1 604/9/1
f 605/1/1 606/2/1 607/3/1 608/4/1
f 609/3/1 610/5/1 611/6/1 612/7/1
f 613/4/1 614/3/1 615/7/1 616/9/1
f 617/2/1 618/8/1 619/5/1 620/3/1
f 621/2/1 622/8/1 623/5/1 624/3/1
f 625/1/1 626/2/1 627/3/1 628/4/1
f 629/1/1 630/2/1 631/3/1 632/4/1
f 633/4/1 634/3/1 635/7/1 636/9/1
f 637/3/1 638/5/1 639/6/1 640/7/1
f 641/3/1 642/5/1 643/6/1 644/7/1
f 645/3/1 646/5/1 647/6/1 648/7/1
f 649/1/1 650/2/1 651/3/1 652/4/1
f 653/3/1 654/5/1 655/6/1 656/7/1
f 657/2/1 658/8/1 659/5/1 660/3/1
f 661/3/1 662/5/1 663/6/1 664/7/1
f 665/4/1 666/3/1 667/7/1 668/9/1
f 669/4/1 670/3/1 671/7/1 672/9/1
f 673/1/1 674/2/1 675/3/1 676/4/1
f 677/3/1 678/5/1 679/6/1 680/7/1
f 681/3/1 682/5/1 683/6/1 684/7/1
f 685/1/1 686/2/1 687/3/1 688/4/1
f 689/1/1 690/2/1 691/3/1 692/4/1
f 693/4/1 694/3/1 695/7/1 696/9/1
f 697/1/1 698/2/1 699/3/1 700/4/1
f 701/2/1 702/8/1 703/5/1 704/3/1
f 705/1/1 706/2/1 707/3/1 708/4/1
f 709/3/1 710/5/1 711/6/1 712/7/1
f 713/1/1 714/2/1 715/3/1 716/4/1
f 717/3/1 718/5/1 719/6/1 720/7/1
f 721/3/1 722/5/1 723/6/1 724/7/1
f 725/2/1 726/8/1 727/5/1 728/3/1
f 729/3/1 730/5/1 731/6/1 732/7/1
f 733/1/1 734/2/1 735/3/1 736/4/1
f 737/4/1 738/3/1 739/7/1 740/9/1
f 741/2/1 742/8/1 743/5/1 744/3/1
f 745/4/1 746/3/1 747/7/1 748/9/1
f 749/1/1 750/2/1 751/3/1 752/4/1
f 753/4/1 754/3/1 755/7/1 756/9/1
f 757/2/1 758/8/1 759/5/1 760/3/1
f 761/1/1 762/2/1 763/3/1 764/4/1
f 765/4/1 766/3/1 767/7/1 768/9/1
f 769/3/1 770/5/1 771/6/1 772/7/1
f 773/3/1 774/5/1 775/6/1 776/7/1
f 777/1/1 778/2/1 779/3/1 780/4/1
f 781/2/1 782/8/1 783/5/1 784/3/1
f 785/1/1 786/2/1 787/3/1 788/4/1
f 789/3/1 790/5/1 791/6/1 792/7/1
f 793/4/1 794/3/1 795/7/1 796/9/1
f 797/1/1 798/2/1 799/3/1 800/4/1
f 801/1/1 802/2/1 803/3/1 804/4/1
f 805/4/1 806/3/1 807/7/1 808/9/1
f 809/3/1 810/5/1 811/6/1 812/7/1
f 813/3/1 814/5/1 815/6/1 816/7/1
f 817/3/1 818/5/1 819/6/1 820/7/1
f 821/1/1 822/2/1 823/3/1 824/4/1
f 825/1/1 826/2/1 827/3/1 828/4/1
f 829/3/1 830/5/1 831/6/1 832/7/1
f 833/2/1 834/8/1 835/5/1 836/3/1
f 837/3/1 838/5/1 839/6/1 840/7/1
f 841/2/1 842/8/1 843/5/1 844/3/1
f 845/3/1 846/5/1 847/6/1 848/7/1
f 849/1/1 850/2/1 851/3/1 852/4/1
f 853/1/1 854/2/1 855/3/1 856/4/1
f 857/3/1 858/5/1 859/6/1 860/7/1
f 861/3/1 862/5/1 863/6/1 864/7/1
f 865/4/1 866/3/1 867/7/1 868/9/1
f 869/3/1 870/5/1 871/6/1 872/7/1
f 873/3/1 874/5/1 875/6/1 876/7/1
f 877/4/1 878/3/1 879/7/1 880/9/1
f 881/1/1 882/2/1 883/3/1 884/4/1
f 885/1/1 886/2/1 887/3/1 888/4/1
f 889/1/1 890/2/1 891/3/1 892/4/1
f 893/4/1 894/3/1 895/7/1 896/9/1
f 897/4/1 898/3/1 899/7/1 900/9/1
f 901/2/1 902/8/1 903/5/1 904/3/1
f 905/1/1 906/2/1 907/3/1 908/4/1
f 909/3/1 910/5/1 911/6/1 912/7/1
f 913/4/1 914/3/1 915/7/1 916/9/1
f 917/4/1 918/3/1 919/7/1 920/9/1
f 921/3/1 922/5/1 923/6/1 924/7/1
f 925/1/1 926/2/1 927/3/1 928/4/1
f 929/4/1 930/3/1 931/7/1 932/9/1
f 933/4/1 934/3/1 935/7/1 936/9/1
f 937/1/1 938/2/1 939/3/1 940/4/1
f 941/4/1 942/3/1 943/7/1 944/9/1
f 945/3/1 946/5/1 947/6/1 948/7/1
f 949/4/1 950/3/1 951/7/1 952/9/1
f 953/1/1 954/2/1 955/3/1 956/4/1
f 957/1/1 958/2/1 959/3/1 960/4/1
f 961/2/1 962/8/1 963/5/1 964/3/1
f 965/4/1 966/3/1 967/7/1 968/9/1
f 969/4/1 970/3/1 971/7/1 972/9/1
f 973/2/1 974/8/1 975/5/1 976/3/1
f 977/4/1 978/3/1 979/7/1 980/9/1
f 981/4/1 982/3/1 983/7/1 984/9/1
f 985/4/1 986/3/1 987/7/1 988/9/1
f 989/4/1 990/3/1 991/7/1 992/9/1
f 993/3/1 994/5/1 995/6/1 996/7/1
f 997/4/1 998/3/1 999/7/1 1000/9/1
f 1001/1/1 1002/2/1 1003/3/1 1004/4/1
f 1005/2/1 1006/8/1 1007/5/1 1008/3/1
f 1009/3/1 1010/5/1 1011/6/1 1012/7/1
f 1013/3/1 1014/5/1 1015/6/1 1016/7/1
f 1017/4/1 1018/3/1 1019/7/1 1020/9/1
f 1021/3/1 1022/5/1 1023/6/1 1024/7/1
f 1025/4/1 1026/3/1 1027/7/1 1028/9/1
f 1029/2/1 1030/8/1 1031/5/1 1032/3/1
f 1033/3/1 1034/5/1 1035/6/1 1036/7/1
f 1037/4/1 1038/3/1 1039/7/1 1040/9/1
f 1041/3/1 1042/5/1 1043/6/1 1044/7/1
f 1045/1/1 1046/2/1 1047/3/1 1048/4/1
f 1049/1/1 1050/2/1 1051/3/1 1052/4/1
f 1053/1/1 1054/2/1 1055/3/1 1056/4/1
f 1057/2/1 1058/8/1 1059/5/1 1060/3/1
f 1061/1/1 1062/2/1 1063/3/1 1064/4/1
f 1065/3/1 1066/5/1 1067/6/1 1068/7/1
f 1069/1/1 1070/2/1 1071/3/1 1072/4/1
f 1073/2/1 1074/8/1 1075/5/1 1076/3/1
f 1077/2/1 1078/8/1 1079/5/1 1080/3/1
f 1081/3/1 1082/5/1 1083/6/1 1084/7/1
f 1085/4/1 1086/3/1 1087/7/1 1088/9/1
f 1089/4/1 1090/3/1 1091/7/1 1092/9/1
f 1093/2/1 1094/8/1 1095/5/1 1096/3/1
f 1097/1/1 1098/2/1 1099/3/1 1100/4/1
f 1101/3/1 1102/5/1 1103/6/1 1104/7/1
f 1105/4/1 1106/3/1 1107/7/1 1108/9/1
f 1109/3/1 1110/5/1 1111/6/1 1112/7/1
f 1113/4/1 1114/3/1 1115/7/1 1116/9/1
f 1117/1/1 1118/2/1 1119/3/1 1120/4/1
f 1121/1/1 1122/2/1 1123/3/1 1124/4/1
f 1125/2/1 1126/8/1 1127/5/1 1128/3/1
f 1129/4/1 1130/3/1 1131/7/1 1132/9/1
f 1133/3/1 1134/5/1 1135/6/1 1136/7/1
f 1137/4/1 1138/3/1 1139/7/1 1140/9/1
f 1141/3/1 1142/5/1 1143/6/1 1144/7/1
f 1145/4/1 1146/3/1 1147/7/1 1148/9/1
f 1149/3/1 1150/5/1 1151/6/1 1152/7/1
f 1153/2/1 1154/8/1 1155/5/1 1156/3/1
f 1157/1/1 1158/2/1 1159/3/1 1160/4/1
f 1161/3/1 1162/5/1 1163/6/1 1164/7/1
f 1165/4/1 1166/3/1 1167/7/1 1168/9/1
f 1169/3/1 1170/5/1 1171/6/1 1172/7/1
f 1173/3/1 1174/5/1 1175/6/1 1176/7/1
f 1177/2/1 1178/8/1 1179/5/1 1180/3/1
f 1181/1/1 1182/2/1 1183/3/1 1184/4/1
f 1185/4/1 1186/3/1 1187/7/1 1188/9/1
f 1189/4/1 1190/3/1 1191/7/1 1192/9/1
f 1193/4/1 1194/3/1 1195/7/1 1196/9/1
f 1197/3/1 1198/5/1 1199/6/1 1200/7/1
f 1201/3/1 1202/5/1 1203/6/1 1204/7/1
f 1205/1/1 1206/2/1 1207/3/1 1208/4/1
f 1209/3/1 1210/5/1 1211/6/1 1212/7/1
f 1213/4/1 1214/3/1 1215/7/1 1216/9/1
f 1217/3/1 1218/5/1 1219/6/1 1220/7/1
f 1221/4/1 1222/3/1 1223/7/1 1224/9/1
f 1225/2/1 1226/8/1 1227/5/1 1228/3/1
f 1229/3/1 1230/5/1 1231/6/1 1232/7/1
f 1233/4/1 1234/3/1 1235/7/1 1236/9/1
f 1237/1/1 1238/2/1 1239/3/1 1240/4/1
f 1241/3/1 1242/5/1 1243/6/1 1244/7/1
f 1245/3/1 1246/5/1 1247/6/1 1248/7/1
f 1249/4/1 1250/3/1 1251/7/1 1252/9/1
f 1253/2/1 1254/8/1 1255/5/1 1256/3/1
f 1257/4/1 1258/3/1 1259/7/1 1260/9/1
f 1261/4/1 1262/3/1 1263/7/1 1264/9/1
f 1265/4/1 1266/3/1 1267/7/1 1268/9/1
f 1269/1/1 1270/2/1 1271/3/1 1272/4/1
f 1273/3/1 1274/5/1 1275/6/1 1276/7/1
f 1277/2/1 1278/8/1 1279/5/1 1280/3/1
f 1281/4/1 1282/3/1 1283/7/1 1284/9/1
f 1285/2/1 1286/8/1 1287/5/1 1288/3/1
f 1289/4/1 1290/3/1 1291/7/1 1292/9/1
f 1293/1/1 1294/2/1 1295/3/1 1296/4/1
f 1297/3/1 1298/5/1 1299/6/1 1300/7/1
f 1301/3/1 1302/5/1 1303/6/1 1304/7/1
f 1305/3/1 1306/5/1 1307/6/1 1308/7/1
f 1309/3/1 1310/5/1 1311/6/1 1312/7/1
f 1313/1/1 1314/2/1 1315/3/1 1316/4/1
f 1317/1/1 1318/2/1 1319/3/1 1320/4/1
f 1321/4/1 1322/3/1 1323/7/1 1324/9/1
f 1325/4/1 1326/3/1 1327/7/1 1328/9/1
f 1329/3/1 1330/5/1 1331/6/1 1332/7/1
f 1333/4/1 1334/3/1 1335/7/1 1336/9/1
f 1337/4/1 1338/3/1 1339/7/1 1340/9/1
f 1341/2/1 1342/8/1 1343/5/1 1344/3/1
f 1345/1/1 1346/2/1 1347/3/1 1348/4/1
f 1349/3/1 1350/5/1 1351/6/1 1352/7/1
f 1353/2/1 1354/8/1 1355/5/1 1356/3/1
f 1357/4/1 1358/3/1 1359/7/1 1360/9/1
f 1361/4/1 1362/3/1 1363/7/1 1364/9/1
f 1365/3/1 1366/5/1 1367/6/1 1368/7/1
f 1369/3/1 1370/5/1 1371/6/1 1372/7/1
f 1373/2/1 1374/8/1 1375/5/1 1376/3/1
f 1377/4/1 1378/3/1 1379/7/1 1380/9/1
f 1381/2/1 1382/8/1 1383/5/1 1384/3/1
f 1385/3/1 1386/5/1 1387/6/1 1388/7/1
f 1389/3/1 1390/5/1 1391/6/1 1392/7/1
f 1393/4/1 1394/3/1 1395/7/1 1396/9/1
f 1397/1/1 1398/2/1 1399/3/1 1400/4/1
f 1401/1/1 1402/2/1 1403/3/1 1404/4/1
f 1405/4/1 1406/3/1 1407/7/1 1408/9/1
f 1409/3/1 1410/5/1 1411/6/1 1412/7/1
f 1413/3/1 1414/5/1 1415/6/1 1416/7/1
f 1417/4/1 1418/3/1 1419/7/1 1420/9/1
f 1421/3/1 1422/5/1 1423/6/1 1424/7/1
f 1425/4/1 1426/3/1 1427/7/1 1428/9/1
f 1429/2/1 1430/8/1 1431/5/1 1432/3/1
f 1433/4/1 1434/3/1 1435/7/1 1436/9/1
f 1437/1/1 1438/2/1 1439/3/1 1440/4/1
f 1441/2/1 1442/8/1 1443/5/1 1444/3/1
f 1445/4/1 1446/3/1 1447/7/1 1448/9/1
f 1449/1/1 1450/2/1 1451/3/1 1452/4/1
f 1453/2/1 1454/8/1 1455/5/1 1456/3/1
f 1457/4/1 1458/3/1 1459/7/1 1460/9/1
f 1461/4/1 1462/3/1 1463/7/1 1464/9/1
f 1465/1/1 1466/2/1 1467/3/1 1468/4/1
f 1469/4/1 1470/3/1 1471/7/1 1472/9/1
f 1473/1/1 1474/2/1 1475/3/1 1476/4/1
f 1477/1/1 1478/2/1 1479/3/1 1480/4/1
f 1481/2/1 1482/8/1 1483/5/1 1484/3/1
f 1485/4/1 1486/3/1 1487/7/1 1488/9/1
f 1489/4/1 1490/3/1 1491/7/1 1492/9/1
f 1493/2/1 1494/8/1 1495/5/1 1496/3/1
f 1497/4/1 1498/3/1 1499/7/1 1500/9/1
f 1501/3/1 1502/5/1 1503/6/1 1504/7/1
f 1505/4/1 1506/3/1 1507/7/1 1508/9/1
f 1509/1/1 1510/2/1 1511/3/1 1512/4/1
f 1513/4/1 1514/3/1 1515/7/1 1516/9/1
f 1517/4/1 1518/3/1 1519/7/1 1520/9/1
f 1521/1/1 1522/2/1 1523/3/1 1524/4/1
f 1525/2/1 1526/8/1 1527/5/1 1528/3/1
f 1529/4/1 1530/3/1 1531/7/1 1532/9/1
f 1533/1/1 1534/2/1 1535/3/1 1536/4/1
f 1537/1/1 1538/2/1 1539/3/1 1540/4/1
f 1541/1/1 1542/2/1 1543/3/1 1544/4/1
f 1545/3/1 1546/5/1 1547/6/1 1548/7/1
f 1549/3/1 1550/5/1 1551/6/1 1552/7/1
f 1553/3/1 1554/5/1 1555/6/1 1556/7/1
f 1557/1/1 1558/2/1 1559/3/1 1560/4/1
f 1561/2/1 1562/8/1 1563/5/1 1564/3/1
f 1565/4/1 1566/3/1 1567/7/1 1568/9/1
f 1569/3/1 1570/5/1 1571/6/1 1572/7/1
f 1573/1/1 1574/2/1 1575/3/1 1576/4/1
f 1577/3/1 1578/5/1 1579/6/1 1580/7/1
f 1581/2/1 1582/8/1 1583/5/1 1584/3/1
f 1585/1/1 1586/2/1 1587/3/1 1588/4/1
f 1589/4/1 1590/3/1 1591/7/1 1592/9/1
f 1593/3/1 1594/5/1 1595/6/1 1596/7/1
f 1597/4/1 1598/3/1 1599/7/1 1600/9/1
f 1601/1/1 1602/2/1 1603/3/1 1604/4/1
f 1605/4/1 1606/3/1 1607/7/1 1608/9/1
f 1609/1/1 1610/2/1 1611/3/1 1612/4/1
f 1613/1/1 1614/2/1 1615/3/1 1616/4/1
f 1617/2/1 1618/8/1 1619/5/1 1620/3/1
f 1621/3/1 1622/5/1 1623/6/1 1624/7/1
f 1625/4/1 1626/3/1 1627/7/1 1628/9/1
f 1629/4/1 1630/3/1 1631/7/1 1632/9/1
f 1633/3/1 1634/5/1 1635/6/1 1636/7/1
f 1637/3/1 1638/5/1 1639/6/1 1640/7/1
f 1641/3/1 1642/5/1 1643/6/1 1644/7/1
f 1645/1/1 1646/2/1 1647/3/1 1648/4/1
f 1649/1/1 1650/2/1 1651/3/1 1652/4/1
f 1653/1/1 1654/2/1 1655/3/1 1656/4/1
f 1657/4/1 1658/3/1 1659/7/1 1660/9/1
f 1661/4/1 1662/3/1 1663/7/1 1664/9/1
f 1665/4/1 1666/3/1 1667/7/1 1668/9/1
f 1669/3/1 1670/5/1 1671/6/1 1672/7/1
f 1673/4/1 1674/3/1 1675/7/1 1676/9/1
f 1677/1/1 1678/2/1 1679/3/1 1680/4/1
f 1681/4/1 1682/3/1 1683/7/1 1684/9/1
f 1685/3/1 1686/5/1 1687/6/1 1688/7/1
f 1689/2/1 1690/8/1 1691/5/1 1692/3/1
f 1693/4/1 1694/3/1 1695/7/1 1696/9/1
f 1697/2/1 1698/8/1 1699/5/1 1700/3/1
f 1701/1/1 1702/2/1 1703/3/1 1704/4/1
f 1705/1/1 1706/2/1 1707/3/1 1708/4/1
f 1709/3/1 1710/5/1 1711/6/1 1712/7/1
f 1713/2/1 1714/8/1 1715/5/1 1716/3/1
f 1717/4/1 1718/3/1 1719/7/1 1720/9/1
f 1721/1/1 1722/2/1 1723/3/1 1724/4/1
f 1725/1/1 1726/2/1 1727/3/1 1728/4/1
f 1729/4/1 1730/3/1 1731/7/1 1732/9/1
f 1733/2/1 1734/8/1 1735/5/1 1736/3/1
f 1737/1/1 1738/2/1 1739/3/1 1740/4/1
f 1741/2/1 1742/8/1 1743/5/1 1744/3/1
f 1745/1/1 1746/2/1 1747/3/1 1748/4/1
f 1749/1/1 1750/2/1 1751/3/1 1752/4/1
f 1753/1/1 1754/2/1 1755/3/1 1756/4/1
f 1757/3/1 1758/5/1 1759/6/1 1760/7/1
f 1761/4/1 1762/3/1 1763/7/1 1764/9/1
f 1765/1/1 1766/2/1 1767/3/1 1768/4/1
f 1769/2/1 1770/8/1 1771/5/1 1772/3/1
f 1773/1/1 1774/2/1 1775/3/1 1776/4/1
f 1777/4/1 1778/3/1 1779/7/1 1780/9/1
f 1781/2/1 1782/8/1 1783/5/1 1784/3/1
f 1785/1/1 1786/2/1 1787/3/1 1788/4/1
f 1789/1/1 1790/2/1 1791/3/1 1792/4/1
f 1793/2/1 1794/8/1 1795/5/1 1796/3/1
f 1797/2/1 1798/8/1 1799/5/1 1800/3/1
f 1801/1/1 1802/2/1 1803/3/1 1804/4/1
f 1805/4/1 1806/3/1 1807/7/1 1808/9/1
f 1809/4/1 1810/3/1 1811/7/1 1812/9/1
f 1813/4/1 1814/3/1 1815/7/1 1816/9/1
f 1817/1/1 1818/2/1 1819/3/1 1820/4/1
f 1821/1/1 1822/2/1 1823/3/1 1824/4/1
f 1825/4/1 1826/3/1 1827/7/1 1828/9/1
f 1829/4/1 1830/3/1 1831/7/1 1832/9/1
f 1833/1/1 1834/2/1 1835/3/1 1836/4/1
f 1837/3/1 1838/5/1 1839/6/1 1840/7/1
f 1841/4/1 1842/3/1 1843/7/1 1844/9/1
f 1845/4/1 1846/3/1 1847/7/1 1848/9/1
f 1849/2/1 1850/8/1 1851/5/1 1852/3/1
f 1853/3/1 1854/5/1 1855/6/1 1856/7/1
f 1857/2/1 1858/8/1 1859/5/1 1860/3/1
f 1861/1/1 1862/2/1 1863/3/1 1864/4/1
f 1865/4/1 1866/3/1 1867/7/1 1868/9/1
f 1869/3/1 1870/5/1 1871/6/1 1872/7/1
f 1873/1/1 1874/2/1 1875/3/1 1876/4/1
f 1877/2/1 1878/8/1 1879/5/1 1880/3/1
f 1881/1/1 1882/2/1 1883/3/1 1884/4/1
f 1885/4/1 1886/3/1 1887/7/1 1888/9/1
f 1889/2/1 1890/8/1 1891/5/1 1892/3/1
f 1893/2/1 1894/8/1 1895/5/1 1896/3/1
f 1897/1/1 1898/2/1 1899/3/1 1900/4/1
f 1901/3/1 1902/5/1 1903/6/1 1904/7/1
f 1905/1/1 1906/2/1 1907/3/1 1908/4/1
f 1909/1/1 1910/2/1 1911/3/1 1912/4/1
f 1913/2/1 1914/8/1 1915/5/1 1916/3/1
f 1917/3/1 1918/5/1 1919/6/1 1920/7/1
f 1921/4/1 1922/3/1 1923/7/1 1924/9/1
f 1925/1/1 1926/2/1 1927/3/1 1928/4/1
f 1929/3/1 1930/5/1 1931/6/1 1932/7/1
f 1933/2/1 1934/8/1 1935/5/1 1936/3/1
f 1937/3/1 1938/5/1 1939/6/1 1940/7/1
f 1941/4/1 1942/3/1 1943/7/1 1944/9/1
f 1945/1/1 1946/2/1 1947/3/1 1948/4/1
f 1949/1/1 1950/2/1 1951/3/1 1952/4/1
f 1953/3/1 1954/5/1 1955/6/1 1956/7/1
f 1957/4/1 1958/3/1 1959/7/1 1960/9/1
f 1961/3/1 1962/5/1 1963/6/1 1964/7/1
f 1965/1/1 1966/2/1 1967/3/1 1968/4/1
f 1969/4/1 1970/3/1 1971/7/1 1972/9/1
f 1973/4/1 1974/3/1 1975/7/1 1976/9/1
f 1977/2/1 1978/8/1 1979/5/1 1980/3/1
f 1981/4/1 1982/3/1 1983/7/1 1984/9/1
f 1985/3/1 1986/5/1 1987/6/1 1988/7/1
f 1989/3/1 1990/5/1 1991/6/1 1992/7/1
f 1993/4/1 1994/3/1 1995/7/1 1996/9/1
f 1997/2/1 1998/8/1 1999/5/1 2000/3/1
f 2001/2/1 2002/8/1 2003/5/1 2004/3/1
f 2005/4/1 2006/3/1 2007/7/1 2008/9/1
f 2009/3/1 2010/5/1 2011/6/1 2012/7/1
f 2013/3/1 2014/5/1 2015/6/1 2016/7/1
f 2017/3/1 2018/5/1 2019/6/1 2020/7/1
f 2021/1/1 2022/2/1 2023/3/1 2024/4/1
f 2025/3/1 2026/5/1 2027/6/1 2028/7/1
f 2029/2/1 2030/8/1 2031/5/1 2032/3/1
f 2033/2/1 2034/8/1 2035/5/1 2036/3/1
f 2037/1/1 2038/2/1 2039/3/1 2040/4/1
f 2041/3/1 2042/5/1 2043/6/1 2044/7/1
f 2045/2/1 2046/8/1 2047/5/1 2048/3/1

