﻿# Tiled2Unity generated file. Do not modify by hand.
# Wavefront file for 'Forest_mesh_0004.obj'

# Vertices (Count = 1136)
v 0 -1 0
v -1 -1 0
v -1 0 0
v 0 0 0
v -1 -1 0
v -2 -1 0
v -2 0 0
v -1 0 0
v -2 -1 0
v -3 -1 0
v -3 0 0
v -2 0 0
v -3 -1 0
v -4 -1 0
v -4 0 0
v -3 0 0
v -4 -1 0
v -5 -1 0
v -5 0 0
v -4 0 0
v -5 -1 0
v -6 -1 0
v -6 0 0
v -5 0 0
v -6 -1 0
v -7 -1 0
v -7 0 0
v -6 0 0
v -7 -1 0
v -8 -1 0
v -8 0 0
v -7 0 0
v -8 -1 0
v -9 -1 0
v -9 0 0
v -8 0 0
v -9 -1 0
v -10 -1 0
v -10 0 0
v -9 0 0
v -16 -1 0
v -17 -1 0
v -17 0 0
v -16 0 0
v -17 -1 0
v -18 -1 0
v -18 0 0
v -17 0 0
v -18 -1 0
v -19 -1 0
v -19 0 0
v -18 0 0
v -19 -1 0
v -20 -1 0
v -20 0 0
v -19 0 0
v -20 -1 0
v -21 -1 0
v -21 0 0
v -20 0 0
v -21 -1 0
v -22 -1 0
v -22 0 0
v -21 0 0
v -22 -1 0
v -23 -1 0
v -23 0 0
v -22 0 0
v -23 -1 0
v -24 -1 0
v -24 0 0
v -23 0 0
v -24 -1 0
v -25 -1 0
v -25 0 0
v -24 0 0
v -25 -1 0
v -26 -1 0
v -26 0 0
v -25 0 0
v -26 -1 0
v -27 -1 0
v -27 0 0
v -26 0 0
v -27 -1 0
v -28 -1 0
v -28 0 0
v -27 0 0
v -28 -1 0
v -29 -1 0
v -29 0 0
v -28 0 0
v -29 -1 0
v -30 -1 0
v -30 0 0
v -29 0 0
v -30 -1 0
v -31 -1 0
v -31 0 0
v -30 0 0
v -31 -1 0
v -32 -1 0
v -32 0 0
v -31 0 0
v 0 -2 0
v -1 -2 0
v -1 -1 0
v 0 -1 0
v -1 -2 0
v -2 -2 0
v -2 -1 0
v -1 -1 0
v -2 -2 0
v -3 -2 0
v -3 -1 0
v -2 -1 0
v -3 -2 0
v -4 -2 0
v -4 -1 0
v -3 -1 0
v -4 -2 0
v -5 -2 0
v -5 -1 0
v -4 -1 0
v -5 -2 0
v -6 -2 0
v -6 -1 0
v -5 -1 0
v -6 -2 0
v -7 -2 0
v -7 -1 0
v -6 -1 0
v -7 -2 0
v -8 -2 0
v -8 -1 0
v -7 -1 0
v -8 -2 0
v -9 -2 0
v -9 -1 0
v -8 -1 0
v -9 -2 0
v -10 -2 0
v -10 -1 0
v -9 -1 0
v -10 -2 0
v -11 -2 0
v -11 -1 0
v -10 -1 0
v -11 -2 0
v -12 -2 0
v -12 -1 0
v -11 -1 0
v -16 -2 0
v -17 -2 0
v -17 -1 0
v -16 -1 0
v -17 -2 0
v -18 -2 0
v -18 -1 0
v -17 -1 0
v -18 -2 0
v -19 -2 0
v -19 -1 0
v -18 -1 0
v -19 -2 0
v -20 -2 0
v -20 -1 0
v -19 -1 0
v -20 -2 0
v -21 -2 0
v -21 -1 0
v -20 -1 0
v -21 -2 0
v -22 -2 0
v -22 -1 0
v -21 -1 0
v -22 -2 0
v -23 -2 0
v -23 -1 0
v -22 -1 0
v -23 -2 0
v -24 -2 0
v -24 -1 0
v -23 -1 0
v -24 -2 0
v -25 -2 0
v -25 -1 0
v -24 -1 0
v -25 -2 0
v -26 -2 0
v -26 -1 0
v -25 -1 0
v -26 -2 0
v -27 -2 0
v -27 -1 0
v -26 -1 0
v -27 -2 0
v -28 -2 0
v -28 -1 0
v -27 -1 0
v -28 -2 0
v -29 -2 0
v -29 -1 0
v -28 -1 0
v -29 -2 0
v -30 -2 0
v -30 -1 0
v -29 -1 0
v -30 -2 0
v -31 -2 0
v -31 -1 0
v -30 -1 0
v -31 -2 0
v -32 -2 0
v -32 -1 0
v -31 -1 0
v -10 -3 0
v -11 -3 0
v -11 -2 0
v -10 -2 0
v -11 -3 0
v -12 -3 0
v -12 -2 0
v -11 -2 0
v -14 -3 0
v -15 -3 0
v -15 -2 0
v -14 -2 0
v -15 -3 0
v -16 -3 0
v -16 -2 0
v -15 -2 0
v -18 -3 0
v -19 -3 0
v -19 -2 0
v -18 -2 0
v -19 -3 0
v -20 -3 0
v -20 -2 0
v -19 -2 0
v -20 -3 0
v -21 -3 0
v -21 -2 0
v -20 -2 0
v -21 -3 0
v -22 -3 0
v -22 -2 0
v -21 -2 0
v -22 -3 0
v -23 -3 0
v -23 -2 0
v -22 -2 0
v -23 -3 0
v -24 -3 0
v -24 -2 0
v -23 -2 0
v -24 -3 0
v -25 -3 0
v -25 -2 0
v -24 -2 0
v -25 -3 0
v -26 -3 0
v -26 -2 0
v -25 -2 0
v -26 -3 0
v -27 -3 0
v -27 -2 0
v -26 -2 0
v -27 -3 0
v -28 -3 0
v -28 -2 0
v -27 -2 0
v -28 -3 0
v -29 -3 0
v -29 -2 0
v -28 -2 0
v -29 -3 0
v -30 -3 0
v -30 -2 0
v -29 -2 0
v -30 -3 0
v -31 -3 0
v -31 -2 0
v -30 -2 0
v -31 -3 0
v -32 -3 0
v -32 -2 0
v -31 -2 0
v -14 -4 0
v -15 -4 0
v -15 -3 0
v -14 -3 0
v -15 -4 0
v -16 -4 0
v -16 -3 0
v -15 -3 0
v -18 -4 0
v -19 -4 0
v -19 -3 0
v -18 -3 0
v -19 -4 0
v -20 -4 0
v -20 -3 0
v -19 -3 0
v -20 -4 0
v -21 -4 0
v -21 -3 0
v -20 -3 0
v -21 -4 0
v -22 -4 0
v -22 -3 0
v -21 -3 0
v -22 -4 0
v -23 -4 0
v -23 -3 0
v -22 -3 0
v -23 -4 0
v -24 -4 0
v -24 -3 0
v -23 -3 0
v -24 -4 0
v -25 -4 0
v -25 -3 0
v -24 -3 0
v -25 -4 0
v -26 -4 0
v -26 -3 0
v -25 -3 0
v -26 -4 0
v -27 -4 0
v -27 -3 0
v -26 -3 0
v -27 -4 0
v -28 -4 0
v -28 -3 0
v -27 -3 0
v -28 -4 0
v -29 -4 0
v -29 -3 0
v -28 -3 0
v -29 -4 0
v -30 -4 0
v -30 -3 0
v -29 -3 0
v -30 -4 0
v -31 -4 0
v -31 -3 0
v -30 -3 0
v -31 -4 0
v -32 -4 0
v -32 -3 0
v -31 -3 0
v -16 -5 0
v -17 -5 0
v -17 -4 0
v -16 -4 0
v -17 -5 0
v -18 -5 0
v -18 -4 0
v -17 -4 0
v -18 -5 0
v -19 -5 0
v -19 -4 0
v -18 -4 0
v -19 -5 0
v -20 -5 0
v -20 -4 0
v -19 -4 0
v -22 -5 0
v -23 -5 0
v -23 -4 0
v -22 -4 0
v -23 -5 0
v -24 -5 0
v -24 -4 0
v -23 -4 0
v -24 -5 0
v -25 -5 0
v -25 -4 0
v -24 -4 0
v -25 -5 0
v -26 -5 0
v -26 -4 0
v -25 -4 0
v -26 -5 0
v -27 -5 0
v -27 -4 0
v -26 -4 0
v -27 -5 0
v -28 -5 0
v -28 -4 0
v -27 -4 0
v -28 -5 0
v -29 -5 0
v -29 -4 0
v -28 -4 0
v -29 -5 0
v -30 -5 0
v -30 -4 0
v -29 -4 0
v -30 -5 0
v -31 -5 0
v -31 -4 0
v -30 -4 0
v -31 -5 0
v -32 -5 0
v -32 -4 0
v -31 -4 0
v -16 -6 0
v -17 -6 0
v -17 -5 0
v -16 -5 0
v -17 -6 0
v -18 -6 0
v -18 -5 0
v -17 -5 0
v -18 -6 0
v -19 -6 0
v -19 -5 0
v -18 -5 0
v -19 -6 0
v -20 -6 0
v -20 -5 0
v -19 -5 0
v -22 -6 0
v -23 -6 0
v -23 -5 0
v -22 -5 0
v -23 -6 0
v -24 -6 0
v -24 -5 0
v -23 -5 0
v -24 -6 0
v -25 -6 0
v -25 -5 0
v -24 -5 0
v -25 -6 0
v -26 -6 0
v -26 -5 0
v -25 -5 0
v -26 -6 0
v -27 -6 0
v -27 -5 0
v -26 -5 0
v -27 -6 0
v -28 -6 0
v -28 -5 0
v -27 -5 0
v -28 -6 0
v -29 -6 0
v -29 -5 0
v -28 -5 0
v -29 -6 0
v -30 -6 0
v -30 -5 0
v -29 -5 0
v -30 -6 0
v -31 -6 0
v -31 -5 0
v -30 -5 0
v -31 -6 0
v -32 -6 0
v -32 -5 0
v -31 -5 0
v -14 -7 0
v -15 -7 0
v -15 -6 0
v -14 -6 0
v -15 -7 0
v -16 -7 0
v -16 -6 0
v -15 -6 0
v -18 -7 0
v -19 -7 0
v -19 -6 0
v -18 -6 0
v -19 -7 0
v -20 -7 0
v -20 -6 0
v -19 -6 0
v -24 -7 0
v -25 -7 0
v -25 -6 0
v -24 -6 0
v -25 -7 0
v -26 -7 0
v -26 -6 0
v -25 -6 0
v -26 -7 0
v -27 -7 0
v -27 -6 0
v -26 -6 0
v -27 -7 0
v -28 -7 0
v -28 -6 0
v -27 -6 0
v -28 -7 0
v -29 -7 0
v -29 -6 0
v -28 -6 0
v -29 -7 0
v -30 -7 0
v -30 -6 0
v -29 -6 0
v -30 -7 0
v -31 -7 0
v -31 -6 0
v -30 -6 0
v -31 -7 0
v -32 -7 0
v -32 -6 0
v -31 -6 0
v -14 -8 0
v -15 -8 0
v -15 -7 0
v -14 -7 0
v -15 -8 0
v -16 -8 0
v -16 -7 0
v -15 -7 0
v -18 -8 0
v -19 -8 0
v -19 -7 0
v -18 -7 0
v -19 -8 0
v -20 -8 0
v -20 -7 0
v -19 -7 0
v -24 -8 0
v -25 -8 0
v -25 -7 0
v -24 -7 0
v -25 -8 0
v -26 -8 0
v -26 -7 0
v -25 -7 0
v -26 -8 0
v -27 -8 0
v -27 -7 0
v -26 -7 0
v -27 -8 0
v -28 -8 0
v -28 -7 0
v -27 -7 0
v -28 -8 0
v -29 -8 0
v -29 -7 0
v -28 -7 0
v -29 -8 0
v -30 -8 0
v -30 -7 0
v -29 -7 0
v -30 -8 0
v -31 -8 0
v -31 -7 0
v -30 -7 0
v -31 -8 0
v -32 -8 0
v -32 -7 0
v -31 -7 0
v -20 -9 0
v -21 -9 0
v -21 -8 0
v -20 -8 0
v -21 -9 0
v -22 -9 0
v -22 -8 0
v -21 -8 0
v -22 -9 0
v -23 -9 0
v -23 -8 0
v -22 -8 0
v -23 -9 0
v -24 -9 0
v -24 -8 0
v -23 -8 0
v -24 -9 0
v -25 -9 0
v -25 -8 0
v -24 -8 0
v -25 -9 0
v -26 -9 0
v -26 -8 0
v -25 -8 0
v -26 -9 0
v -27 -9 0
v -27 -8 0
v -26 -8 0
v -27 -9 0
v -28 -9 0
v -28 -8 0
v -27 -8 0
v -28 -9 0
v -29 -9 0
v -29 -8 0
v -28 -8 0
v -29 -9 0
v -30 -9 0
v -30 -8 0
v -29 -8 0
v -30 -9 0
v -31 -9 0
v -31 -8 0
v -30 -8 0
v -31 -9 0
v -32 -9 0
v -32 -8 0
v -31 -8 0
v -20 -10 0
v -21 -10 0
v -21 -9 0
v -20 -9 0
v -21 -10 0
v -22 -10 0
v -22 -9 0
v -21 -9 0
v -22 -10 0
v -23 -10 0
v -23 -9 0
v -22 -9 0
v -23 -10 0
v -24 -10 0
v -24 -9 0
v -23 -9 0
v -24 -10 0
v -25 -10 0
v -25 -9 0
v -24 -9 0
v -25 -10 0
v -26 -10 0
v -26 -9 0
v -25 -9 0
v -26 -10 0
v -27 -10 0
v -27 -9 0
v -26 -9 0
v -27 -10 0
v -28 -10 0
v -28 -9 0
v -27 -9 0
v -28 -10 0
v -29 -10 0
v -29 -9 0
v -28 -9 0
v -29 -10 0
v -30 -10 0
v -30 -9 0
v -29 -9 0
v -30 -10 0
v -31 -10 0
v -31 -9 0
v -30 -9 0
v -31 -10 0
v -32 -10 0
v -32 -9 0
v -31 -9 0
v -12 -11 0
v -13 -11 0
v -13 -10 0
v -12 -10 0
v -13 -11 0
v -14 -11 0
v -14 -10 0
v -13 -10 0
v -14 -11 0
v -15 -11 0
v -15 -10 0
v -14 -10 0
v -15 -11 0
v -16 -11 0
v -16 -10 0
v -15 -10 0
v -16 -11 0
v -17 -11 0
v -17 -10 0
v -16 -10 0
v -17 -11 0
v -18 -11 0
v -18 -10 0
v -17 -10 0
v -18 -11 0
v -19 -11 0
v -19 -10 0
v -18 -10 0
v -19 -11 0
v -20 -11 0
v -20 -10 0
v -19 -10 0
v -22 -11 0
v -23 -11 0
v -23 -10 0
v -22 -10 0
v -23 -11 0
v -24 -11 0
v -24 -10 0
v -23 -10 0
v -24 -11 0
v -25 -11 0
v -25 -10 0
v -24 -10 0
v -25 -11 0
v -26 -11 0
v -26 -10 0
v -25 -10 0
v -26 -11 0
v -27 -11 0
v -27 -10 0
v -26 -10 0
v -27 -11 0
v -28 -11 0
v -28 -10 0
v -27 -10 0
v -28 -11 0
v -29 -11 0
v -29 -10 0
v -28 -10 0
v -29 -11 0
v -30 -11 0
v -30 -10 0
v -29 -10 0
v -30 -11 0
v -31 -11 0
v -31 -10 0
v -30 -10 0
v -31 -11 0
v -32 -11 0
v -32 -10 0
v -31 -10 0
v -12 -12 0
v -13 -12 0
v -13 -11 0
v -12 -11 0
v -13 -12 0
v -14 -12 0
v -14 -11 0
v -13 -11 0
v -14 -12 0
v -15 -12 0
v -15 -11 0
v -14 -11 0
v -15 -12 0
v -16 -12 0
v -16 -11 0
v -15 -11 0
v -16 -12 0
v -17 -12 0
v -17 -11 0
v -16 -11 0
v -17 -12 0
v -18 -12 0
v -18 -11 0
v -17 -11 0
v -18 -12 0
v -19 -12 0
v -19 -11 0
v -18 -11 0
v -19 -12 0
v -20 -12 0
v -20 -11 0
v -19 -11 0
v -22 -12 0
v -23 -12 0
v -23 -11 0
v -22 -11 0
v -23 -12 0
v -24 -12 0
v -24 -11 0
v -23 -11 0
v -24 -12 0
v -25 -12 0
v -25 -11 0
v -24 -11 0
v -25 -12 0
v -26 -12 0
v -26 -11 0
v -25 -11 0
v -26 -12 0
v -27 -12 0
v -27 -11 0
v -26 -11 0
v -27 -12 0
v -28 -12 0
v -28 -11 0
v -27 -11 0
v -28 -12 0
v -29 -12 0
v -29 -11 0
v -28 -11 0
v -29 -12 0
v -30 -12 0
v -30 -11 0
v -29 -11 0
v -30 -12 0
v -31 -12 0
v -31 -11 0
v -30 -11 0
v -31 -12 0
v -32 -12 0
v -32 -11 0
v -31 -11 0
v -12 -13 0
v -13 -13 0
v -13 -12 0
v -12 -12 0
v -13 -13 0
v -14 -13 0
v -14 -12 0
v -13 -12 0
v -14 -13 0
v -15 -13 0
v -15 -12 0
v -14 -12 0
v -15 -13 0
v -16 -13 0
v -16 -12 0
v -15 -12 0
v -18 -13 0
v -19 -13 0
v -19 -12 0
v -18 -12 0
v -19 -13 0
v -20 -13 0
v -20 -12 0
v -19 -12 0
v -20 -13 0
v -21 -13 0
v -21 -12 0
v -20 -12 0
v -21 -13 0
v -22 -13 0
v -22 -12 0
v -21 -12 0
v -22 -13 0
v -23 -13 0
v -23 -12 0
v -22 -12 0
v -23 -13 0
v -24 -13 0
v -24 -12 0
v -23 -12 0
v -24 -13 0
v -25 -13 0
v -25 -12 0
v -24 -12 0
v -25 -13 0
v -26 -13 0
v -26 -12 0
v -25 -12 0
v -26 -13 0
v -27 -13 0
v -27 -12 0
v -26 -12 0
v -27 -13 0
v -28 -13 0
v -28 -12 0
v -27 -12 0
v -28 -13 0
v -29 -13 0
v -29 -12 0
v -28 -12 0
v -29 -13 0
v -30 -13 0
v -30 -12 0
v -29 -12 0
v -30 -13 0
v -31 -13 0
v -31 -12 0
v -30 -12 0
v -31 -13 0
v -32 -13 0
v -32 -12 0
v -31 -12 0
v -12 -14 0
v -13 -14 0
v -13 -13 0
v -12 -13 0
v -13 -14 0
v -14 -14 0
v -14 -13 0
v -13 -13 0
v -14 -14 0
v -15 -14 0
v -15 -13 0
v -14 -13 0
v -15 -14 0
v -16 -14 0
v -16 -13 0
v -15 -13 0
v -18 -14 0
v -19 -14 0
v -19 -13 0
v -18 -13 0
v -19 -14 0
v -20 -14 0
v -20 -13 0
v -19 -13 0
v -20 -14 0
v -21 -14 0
v -21 -13 0
v -20 -13 0
v -21 -14 0
v -22 -14 0
v -22 -13 0
v -21 -13 0
v -22 -14 0
v -23 -14 0
v -23 -13 0
v -22 -13 0
v -23 -14 0
v -24 -14 0
v -24 -13 0
v -23 -13 0
v -24 -14 0
v -25 -14 0
v -25 -13 0
v -24 -13 0
v -25 -14 0
v -26 -14 0
v -26 -13 0
v -25 -13 0
v -26 -14 0
v -27 -14 0
v -27 -13 0
v -26 -13 0
v -27 -14 0
v -28 -14 0
v -28 -13 0
v -27 -13 0
v -28 -14 0
v -29 -14 0
v -29 -13 0
v -28 -13 0
v -29 -14 0
v -30 -14 0
v -30 -13 0
v -29 -13 0
v -30 -14 0
v -31 -14 0
v -31 -13 0
v -30 -13 0
v -31 -14 0
v -32 -14 0
v -32 -13 0
v -31 -13 0
v 0 -15 0
v -1 -15 0
v -1 -14 0
v 0 -14 0
v -1 -15 0
v -2 -15 0
v -2 -14 0
v -1 -14 0
v -2 -15 0
v -3 -15 0
v -3 -14 0
v -2 -14 0
v -3 -15 0
v -4 -15 0
v -4 -14 0
v -3 -14 0
v -4 -15 0
v -5 -15 0
v -5 -14 0
v -4 -14 0
v -5 -15 0
v -6 -15 0
v -6 -14 0
v -5 -14 0
v -8 -15 0
v -9 -15 0
v -9 -14 0
v -8 -14 0
v -9 -15 0
v -10 -15 0
v -10 -14 0
v -9 -14 0
v -12 -15 0
v -13 -15 0
v -13 -14 0
v -12 -14 0
v -13 -15 0
v -14 -15 0
v -14 -14 0
v -13 -14 0
v -14 -15 0
v -15 -15 0
v -15 -14 0
v -14 -14 0
v -15 -15 0
v -16 -15 0
v -16 -14 0
v -15 -14 0
v -18 -15 0
v -19 -15 0
v -19 -14 0
v -18 -14 0
v -19 -15 0
v -20 -15 0
v -20 -14 0
v -19 -14 0
v -22 -15 0
v -23 -15 0
v -23 -14 0
v -22 -14 0
v -23 -15 0
v -24 -15 0
v -24 -14 0
v -23 -14 0
v -24 -15 0
v -25 -15 0
v -25 -14 0
v -24 -14 0
v -25 -15 0
v -26 -15 0
v -26 -14 0
v -25 -14 0
v -26 -15 0
v -27 -15 0
v -27 -14 0
v -26 -14 0
v -27 -15 0
v -28 -15 0
v -28 -14 0
v -27 -14 0
v -28 -15 0
v -29 -15 0
v -29 -14 0
v -28 -14 0
v -29 -15 0
v -30 -15 0
v -30 -14 0
v -29 -14 0
v -30 -15 0
v -31 -15 0
v -31 -14 0
v -30 -14 0
v -31 -15 0
v -32 -15 0
v -32 -14 0
v -31 -14 0
v 0 -16 0
v -1 -16 0
v -1 -15 0
v 0 -15 0
v -1 -16 0
v -2 -16 0
v -2 -15 0
v -1 -15 0
v -2 -16 0
v -3 -16 0
v -3 -15 0
v -2 -15 0
v -3 -16 0
v -4 -16 0
v -4 -15 0
v -3 -15 0
v -4 -16 0
v -5 -16 0
v -5 -15 0
v -4 -15 0
v -5 -16 0
v -6 -16 0
v -6 -15 0
v -5 -15 0
v -8 -16 0
v -9 -16 0
v -9 -15 0
v -8 -15 0
v -9 -16 0
v -10 -16 0
v -10 -15 0
v -9 -15 0
v -12 -16 0
v -13 -16 0
v -13 -15 0
v -12 -15 0
v -13 -16 0
v -14 -16 0
v -14 -15 0
v -13 -15 0
v -14 -16 0
v -15 -16 0
v -15 -15 0
v -14 -15 0
v -15 -16 0
v -16 -16 0
v -16 -15 0
v -15 -15 0
v -18 -16 0
v -19 -16 0
v -19 -15 0
v -18 -15 0
v -19 -16 0
v -20 -16 0
v -20 -15 0
v -19 -15 0
v -22 -16 0
v -23 -16 0
v -23 -15 0
v -22 -15 0
v -23 -16 0
v -24 -16 0
v -24 -15 0
v -23 -15 0
v -24 -16 0
v -25 -16 0
v -25 -15 0
v -24 -15 0
v -25 -16 0
v -26 -16 0
v -26 -15 0
v -25 -15 0
v -26 -16 0
v -27 -16 0
v -27 -15 0
v -26 -15 0
v -27 -16 0
v -28 -16 0
v -28 -15 0
v -27 -15 0
v -28 -16 0
v -29 -16 0
v -29 -15 0
v -28 -15 0
v -29 -16 0
v -30 -16 0
v -30 -15 0
v -29 -15 0
v -30 -16 0
v -31 -16 0
v -31 -15 0
v -30 -15 0
v -31 -16 0
v -32 -16 0
v -32 -15 0
v -31 -15 0

# Texture cooridinates (Count = 31)
vt 0.15 0.4722222
vt 0.175 0.4722222
vt 0.175 0.5
vt 0.15 0.5
vt 0.05 0.5277778
vt 0.075 0.5277778
vt 0.075 0.5555556
vt 0.05 0.5555556
vt 0.125 0.4722222
vt 0.125 0.5
vt 0.1 0.5277778
vt 0.1 0.5555556
vt 0.2 0.4722222
vt 0.2 0.5
vt 0.125 0.5277778
vt 0.15 0.5277778
vt 0.15 0.5555556
vt 0.125 0.5555556
vt 0.175 0.5277778
vt 0.175 0.5555556
vt 0.125 0.4444444
vt 0.15 0.4444444
vt 0.775 0.8888889
vt 0.8 0.8888889
vt 0.8 0.9166667
vt 0.775 0.9166667
vt 0.825 0.8888889
vt 0.825 0.9166667
vt 0.775 0.8611111
vt 0.8 0.8611111
vt 0.825 0.8611111

# Normal
vn 0 0 -1

# Mesh description
g Forest_mesh_0004

# Faces
f 1/1/1 2/2/1 3/3/1 4/4/1
f 5/5/1 6/6/1 7/7/1 8/8/1
f 9/9/1 10/1/1 11/4/1 12/10/1
f 13/6/1 14/11/1 15/12/1 16/7/1
f 17/2/1 18/13/1 19/14/1 20/3/1
f 21/15/1 22/16/1 23/17/1 24/18/1
f 25/9/1 26/1/1 27/4/1 28/10/1
f 29/16/1 30/19/1 31/20/1 32/17/1
f 33/15/1 34/16/1 35/17/1 36/18/1
f 37/16/1 38/19/1 39/20/1 40/17/1
f 41/15/1 42/16/1 43/17/1 44/18/1
f 45/16/1 46/19/1 47/20/1 48/17/1
f 49/15/1 50/16/1 51/17/1 52/18/1
f 53/16/1 54/19/1 55/20/1 56/17/1
f 57/15/1 58/16/1 59/17/1 60/18/1
f 61/16/1 62/19/1 63/20/1 64/17/1
f 65/15/1 66/16/1 67/17/1 68/18/1
f 69/16/1 70/19/1 71/20/1 72/17/1
f 73/15/1 74/16/1 75/17/1 76/18/1
f 77/16/1 78/19/1 79/20/1 80/17/1
f 81/15/1 82/16/1 83/17/1 84/18/1
f 85/16/1 86/19/1 87/20/1 88/17/1
f 89/15/1 90/16/1 91/17/1 92/18/1
f 93/16/1 94/19/1 95/20/1 96/17/1
f 97/15/1 98/16/1 99/17/1 100/18/1
f 101/16/1 102/19/1 103/20/1 104/17/1
f 105/10/1 106/4/1 107/16/1 108/15/1
f 109/21/1 110/22/1 111/1/1 112/9/1
f 113/21/1 114/22/1 115/1/1 116/9/1
f 117/21/1 118/22/1 119/1/1 120/9/1
f 121/4/1 122/3/1 123/19/1 124/16/1
f 125/10/1 126/4/1 127/16/1 128/15/1
f 129/21/1 130/22/1 131/1/1 132/9/1
f 133/4/1 134/3/1 135/19/1 136/16/1
f 137/10/1 138/4/1 139/16/1 140/15/1
f 141/4/1 142/3/1 143/19/1 144/16/1
f 145/23/1 146/24/1 147/25/1 148/26/1
f 149/24/1 150/27/1 151/28/1 152/25/1
f 153/10/1 154/4/1 155/16/1 156/15/1
f 157/4/1 158/3/1 159/19/1 160/16/1
f 161/10/1 162/4/1 163/16/1 164/15/1
f 165/4/1 166/3/1 167/19/1 168/16/1
f 169/10/1 170/4/1 171/16/1 172/15/1
f 173/4/1 174/3/1 175/19/1 176/16/1
f 177/10/1 178/4/1 179/16/1 180/15/1
f 181/4/1 182/3/1 183/19/1 184/16/1
f 185/10/1 186/4/1 187/16/1 188/15/1
f 189/4/1 190/3/1 191/19/1 192/16/1
f 193/10/1 194/4/1 195/16/1 196/15/1
f 197/4/1 198/3/1 199/19/1 200/16/1
f 201/10/1 202/4/1 203/16/1 204/15/1
f 205/4/1 206/3/1 207/19/1 208/16/1
f 209/10/1 210/4/1 211/16/1 212/15/1
f 213/4/1 214/3/1 215/19/1 216/16/1
f 217/29/1 218/30/1 219/24/1 220/23/1
f 221/30/1 222/31/1 223/27/1 224/24/1
f 225/23/1 226/24/1 227/25/1 228/26/1
f 229/24/1 230/27/1 231/28/1 232/25/1
f 233/15/1 234/16/1 235/17/1 236/18/1
f 237/16/1 238/19/1 239/20/1 240/17/1
f 241/15/1 242/16/1 243/17/1 244/18/1
f 245/16/1 246/19/1 247/20/1 248/17/1
f 249/15/1 250/16/1 251/17/1 252/18/1
f 253/16/1 254/19/1 255/20/1 256/17/1
f 257/15/1 258/16/1 259/17/1 260/18/1
f 261/16/1 262/19/1 263/20/1 264/17/1
f 265/15/1 266/16/1 267/17/1 268/18/1
f 269/16/1 270/19/1 271/20/1 272/17/1
f 273/15/1 274/16/1 275/17/1 276/18/1
f 277/16/1 278/19/1 279/20/1 280/17/1
f 281/15/1 282/16/1 283/17/1 284/18/1
f 285/16/1 286/19/1 287/20/1 288/17/1
f 289/29/1 290/30/1 291/24/1 292/23/1
f 293/30/1 294/31/1 295/27/1 296/24/1
f 297/10/1 298/4/1 299/16/1 300/15/1
f 301/4/1 302/3/1 303/19/1 304/16/1
f 305/10/1 306/4/1 307/16/1 308/15/1
f 309/4/1 310/3/1 311/19/1 312/16/1
f 313/10/1 314/4/1 315/16/1 316/15/1
f 317/4/1 318/3/1 319/19/1 320/16/1
f 321/10/1 322/4/1 323/16/1 324/15/1
f 325/4/1 326/3/1 327/19/1 328/16/1
f 329/10/1 330/4/1 331/16/1 332/15/1
f 333/4/1 334/3/1 335/19/1 336/16/1
f 337/10/1 338/4/1 339/16/1 340/15/1
f 341/4/1 342/3/1 343/19/1 344/16/1
f 345/10/1 346/4/1 347/16/1 348/15/1
f 349/4/1 350/3/1 351/19/1 352/16/1
f 353/23/1 354/24/1 355/25/1 356/26/1
f 357/24/1 358/27/1 359/28/1 360/25/1
f 361/15/1 362/16/1 363/17/1 364/18/1
f 365/16/1 366/19/1 367/20/1 368/17/1
f 369/15/1 370/16/1 371/17/1 372/18/1
f 373/16/1 374/19/1 375/20/1 376/17/1
f 377/15/1 378/16/1 379/17/1 380/18/1
f 381/16/1 382/19/1 383/20/1 384/17/1
f 385/15/1 386/16/1 387/17/1 388/18/1
f 389/16/1 390/19/1 391/20/1 392/17/1
f 393/15/1 394/16/1 395/17/1 396/18/1
f 397/16/1 398/19/1 399/20/1 400/17/1
f 401/15/1 402/16/1 403/17/1 404/18/1
f 405/16/1 406/19/1 407/20/1 408/17/1
f 409/29/1 410/30/1 411/24/1 412/23/1
f 413/30/1 414/31/1 415/27/1 416/24/1
f 417/10/1 418/4/1 419/16/1 420/15/1
f 421/4/1 422/3/1 423/19/1 424/16/1
f 425/10/1 426/4/1 427/16/1 428/15/1
f 429/4/1 430/3/1 431/19/1 432/16/1
f 433/10/1 434/4/1 435/16/1 436/15/1
f 437/4/1 438/3/1 439/19/1 440/16/1
f 441/10/1 442/4/1 443/16/1 444/15/1
f 445/4/1 446/3/1 447/19/1 448/16/1
f 449/10/1 450/4/1 451/16/1 452/15/1
f 453/4/1 454/3/1 455/19/1 456/16/1
f 457/10/1 458/4/1 459/16/1 460/15/1
f 461/4/1 462/3/1 463/19/1 464/16/1
f 465/15/1 466/16/1 467/17/1 468/18/1
f 469/16/1 470/19/1 471/20/1 472/17/1
f 473/15/1 474/16/1 475/17/1 476/18/1
f 477/16/1 478/19/1 479/20/1 480/17/1
f 481/15/1 482/16/1 483/17/1 484/18/1
f 485/16/1 486/19/1 487/20/1 488/17/1
f 489/15/1 490/16/1 491/17/1 492/18/1
f 493/16/1 494/19/1 495/20/1 496/17/1
f 497/15/1 498/16/1 499/17/1 500/18/1
f 501/16/1 502/19/1 503/20/1 504/17/1
f 505/15/1 506/16/1 507/17/1 508/18/1
f 509/16/1 510/19/1 511/20/1 512/17/1
f 513/10/1 514/4/1 515/16/1 516/15/1
f 517/4/1 518/3/1 519/19/1 520/16/1
f 521/10/1 522/4/1 523/16/1 524/15/1
f 525/4/1 526/3/1 527/19/1 528/16/1
f 529/10/1 530/4/1 531/16/1 532/15/1
f 533/4/1 534/3/1 535/19/1 536/16/1
f 537/10/1 538/4/1 539/16/1 540/15/1
f 541/4/1 542/3/1 543/19/1 544/16/1
f 545/10/1 546/4/1 547/16/1 548/15/1
f 549/4/1 550/3/1 551/19/1 552/16/1
f 553/10/1 554/4/1 555/16/1 556/15/1
f 557/4/1 558/3/1 559/19/1 560/16/1
f 561/15/1 562/16/1 563/17/1 564/18/1
f 565/16/1 566/19/1 567/20/1 568/17/1
f 569/15/1 570/16/1 571/17/1 572/18/1
f 573/16/1 574/19/1 575/20/1 576/17/1
f 577/15/1 578/16/1 579/17/1 580/18/1
f 581/16/1 582/19/1 583/20/1 584/17/1
f 585/15/1 586/16/1 587/17/1 588/18/1
f 589/16/1 590/19/1 591/20/1 592/17/1
f 593/15/1 594/16/1 595/17/1 596/18/1
f 597/16/1 598/19/1 599/20/1 600/17/1
f 601/15/1 602/16/1 603/17/1 604/18/1
f 605/16/1 606/19/1 607/20/1 608/17/1
f 609/10/1 610/4/1 611/16/1 612/15/1
f 613/4/1 614/3/1 615/19/1 616/16/1
f 617/10/1 618/4/1 619/16/1 620/15/1
f 621/4/1 622/3/1 623/19/1 624/16/1
f 625/10/1 626/4/1 627/16/1 628/15/1
f 629/4/1 630/3/1 631/19/1 632/16/1
f 633/10/1 634/4/1 635/16/1 636/15/1
f 637/4/1 638/3/1 639/19/1 640/16/1
f 641/10/1 642/4/1 643/16/1 644/15/1
f 645/4/1 646/3/1 647/19/1 648/16/1
f 649/10/1 650/4/1 651/16/1 652/15/1
f 653/4/1 654/3/1 655/19/1 656/16/1
f 657/15/1 658/16/1 659/17/1 660/18/1
f 661/16/1 662/19/1 663/20/1 664/17/1
f 665/23/1 666/24/1 667/25/1 668/26/1
f 669/24/1 670/27/1 671/28/1 672/25/1
f 673/15/1 674/16/1 675/17/1 676/18/1
f 677/16/1 678/19/1 679/20/1 680/17/1
f 681/15/1 682/16/1 683/17/1 684/18/1
f 685/16/1 686/19/1 687/20/1 688/17/1
f 689/15/1 690/16/1 691/17/1 692/18/1
f 693/16/1 694/19/1 695/20/1 696/17/1
f 697/15/1 698/16/1 699/17/1 700/18/1
f 701/16/1 702/19/1 703/20/1 704/17/1
f 705/15/1 706/16/1 707/17/1 708/18/1
f 709/16/1 710/19/1 711/20/1 712/17/1
f 713/15/1 714/16/1 715/17/1 716/18/1
f 717/16/1 718/19/1 719/20/1 720/17/1
f 721/15/1 722/16/1 723/17/1 724/18/1
f 725/16/1 726/19/1 727/20/1 728/17/1
f 729/10/1 730/4/1 731/16/1 732/15/1
f 733/4/1 734/3/1 735/19/1 736/16/1
f 737/29/1 738/30/1 739/24/1 740/23/1
f 741/30/1 742/31/1 743/27/1 744/24/1
f 745/10/1 746/4/1 747/16/1 748/15/1
f 749/4/1 750/3/1 751/19/1 752/16/1
f 753/10/1 754/4/1 755/16/1 756/15/1
f 757/4/1 758/3/1 759/19/1 760/16/1
f 761/10/1 762/4/1 763/16/1 764/15/1
f 765/4/1 766/3/1 767/19/1 768/16/1
f 769/10/1 770/4/1 771/16/1 772/15/1
f 773/4/1 774/3/1 775/19/1 776/16/1
f 777/10/1 778/4/1 779/16/1 780/15/1
f 781/4/1 782/3/1 783/19/1 784/16/1
f 785/10/1 786/4/1 787/16/1 788/15/1
f 789/4/1 790/3/1 791/19/1 792/16/1
f 793/10/1 794/4/1 795/16/1 796/15/1
f 797/4/1 798/3/1 799/19/1 800/16/1
f 801/15/1 802/16/1 803/17/1 804/18/1
f 805/16/1 806/19/1 807/20/1 808/17/1
f 809/15/1 810/16/1 811/17/1 812/18/1
f 813/16/1 814/19/1 815/20/1 816/17/1
f 817/15/1 818/16/1 819/17/1 820/18/1
f 821/16/1 822/19/1 823/20/1 824/17/1
f 825/15/1 826/16/1 827/17/1 828/18/1
f 829/16/1 830/19/1 831/20/1 832/17/1
f 833/15/1 834/16/1 835/17/1 836/18/1
f 837/16/1 838/19/1 839/20/1 840/17/1
f 841/15/1 842/16/1 843/17/1 844/18/1
f 845/16/1 846/19/1 847/20/1 848/17/1
f 849/15/1 850/16/1 851/17/1 852/18/1
f 853/16/1 854/19/1 855/20/1 856/17/1
f 857/15/1 858/16/1 859/17/1 860/18/1
f 861/16/1 862/19/1 863/20/1 864/17/1
f 865/15/1 866/16/1 867/17/1 868/18/1
f 869/16/1 870/19/1 871/20/1 872/17/1
f 873/10/1 874/4/1 875/16/1 876/15/1
f 877/4/1 878/3/1 879/19/1 880/16/1
f 881/10/1 882/4/1 883/16/1 884/15/1
f 885/4/1 886/3/1 887/19/1 888/16/1
f 889/10/1 890/4/1 891/16/1 892/15/1
f 893/4/1 894/3/1 895/19/1 896/16/1
f 897/10/1 898/4/1 899/16/1 900/15/1
f 901/4/1 902/3/1 903/19/1 904/16/1
f 905/10/1 906/4/1 907/16/1 908/15/1
f 909/4/1 910/3/1 911/19/1 912/16/1
f 913/10/1 914/4/1 915/16/1 916/15/1
f 917/4/1 918/3/1 919/19/1 920/16/1
f 921/10/1 922/4/1 923/16/1 924/15/1
f 925/4/1 926/3/1 927/19/1 928/16/1
f 929/10/1 930/4/1 931/16/1 932/15/1
f 933/4/1 934/3/1 935/19/1 936/16/1
f 937/10/1 938/4/1 939/16/1 940/15/1
f 941/4/1 942/3/1 943/19/1 944/16/1
f 945/15/1 946/16/1 947/17/1 948/18/1
f 949/9/1 950/1/1 951/4/1 952/10/1
f 953/9/1 954/1/1 955/4/1 956/10/1
f 957/9/1 958/1/1 959/4/1 960/10/1
f 961/9/1 962/1/1 963/4/1 964/10/1
f 965/16/1 966/19/1 967/20/1 968/17/1
f 969/15/1 970/16/1 971/17/1 972/18/1
f 973/16/1 974/19/1 975/20/1 976/17/1
f 977/15/1 978/16/1 979/17/1 980/18/1
f 981/16/1 982/19/1 983/20/1 984/17/1
f 985/15/1 986/16/1 987/17/1 988/18/1
f 989/16/1 990/19/1 991/20/1 992/17/1
f 993/15/1 994/16/1 995/17/1 996/18/1
f 997/16/1 998/19/1 999/20/1 1000/17/1
f 1001/15/1 1002/16/1 1003/17/1 1004/18/1
f 1005/16/1 1006/19/1 1007/20/1 1008/17/1
f 1009/15/1 1010/16/1 1011/17/1 1012/18/1
f 1013/16/1 1014/19/1 1015/20/1 1016/17/1
f 1017/15/1 1018/16/1 1019/17/1 1020/18/1
f 1021/16/1 1022/19/1 1023/20/1 1024/17/1
f 1025/15/1 1026/16/1 1027/17/1 1028/18/1
f 1029/16/1 1030/19/1 1031/20/1 1032/17/1
f 1033/15/1 1034/16/1 1035/17/1 1036/18/1
f 1037/16/1 1038/19/1 1039/20/1 1040/17/1
f 1041/10/1 1042/4/1 1043/16/1 1044/15/1
f 1045/21/1 1046/22/1 1047/1/1 1048/9/1
f 1049/21/1 1050/22/1 1051/1/1 1052/9/1
f 1053/21/1 1054/22/1 1055/1/1 1056/9/1
f 1057/21/1 1058/22/1 1059/1/1 1060/9/1
f 1061/4/1 1062/3/1 1063/19/1 1064/16/1
f 1065/10/1 1066/4/1 1067/16/1 1068/15/1
f 1069/4/1 1070/3/1 1071/19/1 1072/16/1
f 1073/10/1 1074/4/1 1075/16/1 1076/15/1
f 1077/4/1 1078/3/1 1079/19/1 1080/16/1
f 1081/10/1 1082/4/1 1083/16/1 1084/15/1
f 1085/4/1 1086/3/1 1087/19/1 1088/16/1
f 1089/10/1 1090/4/1 1091/16/1 1092/15/1
f 1093/4/1 1094/3/1 1095/19/1 1096/16/1
f 1097/10/1 1098/4/1 1099/16/1 1100/15/1
f 1101/4/1 1102/3/1 1103/19/1 1104/16/1
f 1105/10/1 1106/4/1 1107/16/1 1108/15/1
f 1109/4/1 1110/3/1 1111/19/1 1112/16/1
f 1113/10/1 1114/4/1 1115/16/1 1116/15/1
f 1117/4/1 1118/3/1 1119/19/1 1120/16/1
f 1121/10/1 1122/4/1 1123/16/1 1124/15/1
f 1125/4/1 1126/3/1 1127/19/1 1128/16/1
f 1129/10/1 1130/4/1 1131/16/1 1132/15/1
f 1133/4/1 1134/3/1 1135/19/1 1136/16/1

