﻿# Tiled2Unity generated file. Do not modify by hand.
# Wavefront file for 'Cave_mesh_0003.obj'

# Vertices (Count = 872)
v 0 -1 0
v -1 -1 0
v -1 0 0
v 0 0 0
v -1 -1 0
v -2 -1 0
v -2 0 0
v -1 0 0
v -2 -1 0
v -3 -1 0
v -3 0 0
v -2 0 0
v -3 -1 0
v -4 -1 0
v -4 0 0
v -3 0 0
v -4 -1 0
v -5 -1 0
v -5 0 0
v -4 0 0
v -5 -1 0
v -6 -1 0
v -6 0 0
v -5 0 0
v -6 -1 0
v -7 -1 0
v -7 0 0
v -6 0 0
v -7 -1 0
v -8 -1 0
v -8 0 0
v -7 0 0
v -8 -1 0
v -9 -1 0
v -9 0 0
v -8 0 0
v -9 -1 0
v -10 -1 0
v -10 0 0
v -9 0 0
v -10 -1 0
v -11 -1 0
v -11 0 0
v -10 0 0
v -11 -1 0
v -12 -1 0
v -12 0 0
v -11 0 0
v -12 -1 0
v -13 -1 0
v -13 0 0
v -12 0 0
v -13 -1 0
v -14 -1 0
v -14 0 0
v -13 0 0
v -14 -1 0
v -15 -1 0
v -15 0 0
v -14 0 0
v -15 -1 0
v -16 -1 0
v -16 0 0
v -15 0 0
v -16 -1 0
v -17 -1 0
v -17 0 0
v -16 0 0
v -17 -1 0
v -18 -1 0
v -18 0 0
v -17 0 0
v -18 -1 0
v -19 -1 0
v -19 0 0
v -18 0 0
v -19 -1 0
v -20 -1 0
v -20 0 0
v -19 0 0
v -20 -1 0
v -21 -1 0
v -21 0 0
v -20 0 0
v -21 -1 0
v -22 -1 0
v -22 0 0
v -21 0 0
v -22 -1 0
v -23 -1 0
v -23 0 0
v -22 0 0
v -23 -1 0
v -24 -1 0
v -24 0 0
v -23 0 0
v -24 -1 0
v -25 -1 0
v -25 0 0
v -24 0 0
v -25 -1 0
v -26 -1 0
v -26 0 0
v -25 0 0
v -26 -1 0
v -27 -1 0
v -27 0 0
v -26 0 0
v -27 -1 0
v -28 -1 0
v -28 0 0
v -27 0 0
v -28 -1 0
v -29 -1 0
v -29 0 0
v -28 0 0
v -29 -1 0
v -30 -1 0
v -30 0 0
v -29 0 0
v -30 -1 0
v -31 -1 0
v -31 0 0
v -30 0 0
v -31 -1 0
v -32 -1 0
v -32 0 0
v -31 0 0
v 0 -2 0
v -1 -2 0
v -1 -1 0
v 0 -1 0
v -1 -2 0
v -2 -2 0
v -2 -1 0
v -1 -1 0
v -2 -2 0
v -3 -2 0
v -3 -1 0
v -2 -1 0
v -3 -2 0
v -4 -2 0
v -4 -1 0
v -3 -1 0
v -4 -2 0
v -5 -2 0
v -5 -1 0
v -4 -1 0
v -5 -2 0
v -6 -2 0
v -6 -1 0
v -5 -1 0
v -6 -2 0
v -7 -2 0
v -7 -1 0
v -6 -1 0
v -7 -2 0
v -8 -2 0
v -8 -1 0
v -7 -1 0
v -8 -2 0
v -9 -2 0
v -9 -1 0
v -8 -1 0
v -9 -2 0
v -10 -2 0
v -10 -1 0
v -9 -1 0
v -10 -2 0
v -11 -2 0
v -11 -1 0
v -10 -1 0
v -11 -2 0
v -12 -2 0
v -12 -1 0
v -11 -1 0
v -12 -2 0
v -13 -2 0
v -13 -1 0
v -12 -1 0
v -13 -2 0
v -14 -2 0
v -14 -1 0
v -13 -1 0
v -14 -2 0
v -15 -2 0
v -15 -1 0
v -14 -1 0
v -15 -2 0
v -16 -2 0
v -16 -1 0
v -15 -1 0
v -16 -2 0
v -17 -2 0
v -17 -1 0
v -16 -1 0
v -17 -2 0
v -18 -2 0
v -18 -1 0
v -17 -1 0
v -18 -2 0
v -19 -2 0
v -19 -1 0
v -18 -1 0
v -19 -2 0
v -20 -2 0
v -20 -1 0
v -19 -1 0
v -20 -2 0
v -21 -2 0
v -21 -1 0
v -20 -1 0
v -21 -2 0
v -22 -2 0
v -22 -1 0
v -21 -1 0
v -22 -2 0
v -23 -2 0
v -23 -1 0
v -22 -1 0
v -23 -2 0
v -24 -2 0
v -24 -1 0
v -23 -1 0
v -24 -2 0
v -25 -2 0
v -25 -1 0
v -24 -1 0
v -25 -2 0
v -26 -2 0
v -26 -1 0
v -25 -1 0
v -26 -2 0
v -27 -2 0
v -27 -1 0
v -26 -1 0
v -27 -2 0
v -28 -2 0
v -28 -1 0
v -27 -1 0
v -28 -2 0
v -29 -2 0
v -29 -1 0
v -28 -1 0
v -29 -2 0
v -30 -2 0
v -30 -1 0
v -29 -1 0
v -30 -2 0
v -31 -2 0
v -31 -1 0
v -30 -1 0
v -31 -2 0
v -32 -2 0
v -32 -1 0
v -31 -1 0
v 0 -3 0
v -1 -3 0
v -1 -2 0
v 0 -2 0
v -1 -3 0
v -2 -3 0
v -2 -2 0
v -1 -2 0
v -2 -3 0
v -3 -3 0
v -3 -2 0
v -2 -2 0
v -3 -3 0
v -4 -3 0
v -4 -2 0
v -3 -2 0
v -4 -3 0
v -5 -3 0
v -5 -2 0
v -4 -2 0
v -5 -3 0
v -6 -3 0
v -6 -2 0
v -5 -2 0
v -6 -3 0
v -7 -3 0
v -7 -2 0
v -6 -2 0
v -7 -3 0
v -8 -3 0
v -8 -2 0
v -7 -2 0
v -8 -3 0
v -9 -3 0
v -9 -2 0
v -8 -2 0
v -9 -3 0
v -10 -3 0
v -10 -2 0
v -9 -2 0
v -10 -3 0
v -11 -3 0
v -11 -2 0
v -10 -2 0
v -11 -3 0
v -12 -3 0
v -12 -2 0
v -11 -2 0
v -12 -3 0
v -13 -3 0
v -13 -2 0
v -12 -2 0
v -13 -3 0
v -14 -3 0
v -14 -2 0
v -13 -2 0
v -14 -3 0
v -15 -3 0
v -15 -2 0
v -14 -2 0
v -15 -3 0
v -16 -3 0
v -16 -2 0
v -15 -2 0
v -16 -3 0
v -17 -3 0
v -17 -2 0
v -16 -2 0
v -17 -3 0
v -18 -3 0
v -18 -2 0
v -17 -2 0
v -18 -3 0
v -19 -3 0
v -19 -2 0
v -18 -2 0
v -19 -3 0
v -20 -3 0
v -20 -2 0
v -19 -2 0
v -20 -3 0
v -21 -3 0
v -21 -2 0
v -20 -2 0
v -21 -3 0
v -22 -3 0
v -22 -2 0
v -21 -2 0
v -22 -3 0
v -23 -3 0
v -23 -2 0
v -22 -2 0
v -23 -3 0
v -24 -3 0
v -24 -2 0
v -23 -2 0
v -24 -3 0
v -25 -3 0
v -25 -2 0
v -24 -2 0
v -25 -3 0
v -26 -3 0
v -26 -2 0
v -25 -2 0
v -26 -3 0
v -27 -3 0
v -27 -2 0
v -26 -2 0
v -27 -3 0
v -28 -3 0
v -28 -2 0
v -27 -2 0
v -28 -3 0
v -29 -3 0
v -29 -2 0
v -28 -2 0
v -29 -3 0
v -30 -3 0
v -30 -2 0
v -29 -2 0
v -30 -3 0
v -31 -3 0
v -31 -2 0
v -30 -2 0
v -31 -3 0
v -32 -3 0
v -32 -2 0
v -31 -2 0
v 0 -4 0
v -1 -4 0
v -1 -3 0
v 0 -3 0
v -1 -4 0
v -2 -4 0
v -2 -3 0
v -1 -3 0
v -2 -4 0
v -3 -4 0
v -3 -3 0
v -2 -3 0
v -3 -4 0
v -4 -4 0
v -4 -3 0
v -3 -3 0
v -4 -4 0
v -5 -4 0
v -5 -3 0
v -4 -3 0
v -5 -4 0
v -6 -4 0
v -6 -3 0
v -5 -3 0
v -6 -4 0
v -7 -4 0
v -7 -3 0
v -6 -3 0
v -7 -4 0
v -8 -4 0
v -8 -3 0
v -7 -3 0
v -8 -4 0
v -9 -4 0
v -9 -3 0
v -8 -3 0
v -9 -4 0
v -10 -4 0
v -10 -3 0
v -9 -3 0
v -10 -4 0
v -11 -4 0
v -11 -3 0
v -10 -3 0
v -11 -4 0
v -12 -4 0
v -12 -3 0
v -11 -3 0
v -12 -4 0
v -13 -4 0
v -13 -3 0
v -12 -3 0
v -13 -4 0
v -14 -4 0
v -14 -3 0
v -13 -3 0
v -14 -4 0
v -15 -4 0
v -15 -3 0
v -14 -3 0
v -15 -4 0
v -16 -4 0
v -16 -3 0
v -15 -3 0
v -16 -4 0
v -17 -4 0
v -17 -3 0
v -16 -3 0
v -17 -4 0
v -18 -4 0
v -18 -3 0
v -17 -3 0
v -18 -4 0
v -19 -4 0
v -19 -3 0
v -18 -3 0
v -19 -4 0
v -20 -4 0
v -20 -3 0
v -19 -3 0
v -20 -4 0
v -21 -4 0
v -21 -3 0
v -20 -3 0
v -21 -4 0
v -22 -4 0
v -22 -3 0
v -21 -3 0
v -22 -4 0
v -23 -4 0
v -23 -3 0
v -22 -3 0
v -23 -4 0
v -24 -4 0
v -24 -3 0
v -23 -3 0
v -24 -4 0
v -25 -4 0
v -25 -3 0
v -24 -3 0
v -25 -4 0
v -26 -4 0
v -26 -3 0
v -25 -3 0
v -26 -4 0
v -27 -4 0
v -27 -3 0
v -26 -3 0
v -27 -4 0
v -28 -4 0
v -28 -3 0
v -27 -3 0
v -28 -4 0
v -29 -4 0
v -29 -3 0
v -28 -3 0
v -29 -4 0
v -30 -4 0
v -30 -3 0
v -29 -3 0
v -30 -4 0
v -31 -4 0
v -31 -3 0
v -30 -3 0
v -31 -4 0
v -32 -4 0
v -32 -3 0
v -31 -3 0
v 0 -5 0
v -1 -5 0
v -1 -4 0
v 0 -4 0
v -1 -5 0
v -2 -5 0
v -2 -4 0
v -1 -4 0
v -2 -5 0
v -3 -5 0
v -3 -4 0
v -2 -4 0
v -3 -5 0
v -4 -5 0
v -4 -4 0
v -3 -4 0
v -4 -5 0
v -5 -5 0
v -5 -4 0
v -4 -4 0
v -5 -5 0
v -6 -5 0
v -6 -4 0
v -5 -4 0
v -6 -5 0
v -7 -5 0
v -7 -4 0
v -6 -4 0
v -7 -5 0
v -8 -5 0
v -8 -4 0
v -7 -4 0
v -8 -5 0
v -9 -5 0
v -9 -4 0
v -8 -4 0
v -9 -5 0
v -10 -5 0
v -10 -4 0
v -9 -4 0
v -10 -5 0
v -11 -5 0
v -11 -4 0
v -10 -4 0
v -11 -5 0
v -12 -5 0
v -12 -4 0
v -11 -4 0
v -12 -5 0
v -13 -5 0
v -13 -4 0
v -12 -4 0
v -13 -5 0
v -14 -5 0
v -14 -4 0
v -13 -4 0
v -14 -5 0
v -15 -5 0
v -15 -4 0
v -14 -4 0
v -15 -5 0
v -16 -5 0
v -16 -4 0
v -15 -4 0
v -16 -5 0
v -17 -5 0
v -17 -4 0
v -16 -4 0
v -17 -5 0
v -18 -5 0
v -18 -4 0
v -17 -4 0
v -18 -5 0
v -19 -5 0
v -19 -4 0
v -18 -4 0
v -19 -5 0
v -20 -5 0
v -20 -4 0
v -19 -4 0
v -20 -5 0
v -21 -5 0
v -21 -4 0
v -20 -4 0
v -21 -5 0
v -22 -5 0
v -22 -4 0
v -21 -4 0
v -22 -5 0
v -23 -5 0
v -23 -4 0
v -22 -4 0
v -23 -5 0
v -24 -5 0
v -24 -4 0
v -23 -4 0
v -24 -5 0
v -25 -5 0
v -25 -4 0
v -24 -4 0
v -25 -5 0
v -26 -5 0
v -26 -4 0
v -25 -4 0
v -26 -5 0
v -27 -5 0
v -27 -4 0
v -26 -4 0
v -27 -5 0
v -28 -5 0
v -28 -4 0
v -27 -4 0
v -28 -5 0
v -29 -5 0
v -29 -4 0
v -28 -4 0
v -29 -5 0
v -30 -5 0
v -30 -4 0
v -29 -4 0
v -30 -5 0
v -31 -5 0
v -31 -4 0
v -30 -4 0
v -31 -5 0
v -32 -5 0
v -32 -4 0
v -31 -4 0
v 0 -6 0
v -1 -6 0
v -1 -5 0
v 0 -5 0
v -1 -6 0
v -2 -6 0
v -2 -5 0
v -1 -5 0
v -2 -6 0
v -3 -6 0
v -3 -5 0
v -2 -5 0
v -3 -6 0
v -4 -6 0
v -4 -5 0
v -3 -5 0
v -4 -6 0
v -5 -6 0
v -5 -5 0
v -4 -5 0
v -5 -6 0
v -6 -6 0
v -6 -5 0
v -5 -5 0
v -6 -6 0
v -7 -6 0
v -7 -5 0
v -6 -5 0
v -7 -6 0
v -8 -6 0
v -8 -5 0
v -7 -5 0
v -8 -6 0
v -9 -6 0
v -9 -5 0
v -8 -5 0
v -9 -6 0
v -10 -6 0
v -10 -5 0
v -9 -5 0
v -10 -6 0
v -11 -6 0
v -11 -5 0
v -10 -5 0
v -11 -6 0
v -12 -6 0
v -12 -5 0
v -11 -5 0
v -12 -6 0
v -13 -6 0
v -13 -5 0
v -12 -5 0
v -13 -6 0
v -14 -6 0
v -14 -5 0
v -13 -5 0
v -14 -6 0
v -15 -6 0
v -15 -5 0
v -14 -5 0
v -15 -6 0
v -16 -6 0
v -16 -5 0
v -15 -5 0
v -16 -6 0
v -17 -6 0
v -17 -5 0
v -16 -5 0
v -17 -6 0
v -18 -6 0
v -18 -5 0
v -17 -5 0
v -18 -6 0
v -19 -6 0
v -19 -5 0
v -18 -5 0
v -19 -6 0
v -20 -6 0
v -20 -5 0
v -19 -5 0
v -20 -6 0
v -21 -6 0
v -21 -5 0
v -20 -5 0
v -21 -6 0
v -22 -6 0
v -22 -5 0
v -21 -5 0
v -22 -6 0
v -23 -6 0
v -23 -5 0
v -22 -5 0
v -23 -6 0
v -24 -6 0
v -24 -5 0
v -23 -5 0
v -24 -6 0
v -25 -6 0
v -25 -5 0
v -24 -5 0
v -25 -6 0
v -26 -6 0
v -26 -5 0
v -25 -5 0
v -26 -6 0
v -27 -6 0
v -27 -5 0
v -26 -5 0
v -27 -6 0
v -28 -6 0
v -28 -5 0
v -27 -5 0
v -28 -6 0
v -29 -6 0
v -29 -5 0
v -28 -5 0
v -29 -6 0
v -30 -6 0
v -30 -5 0
v -29 -5 0
v -30 -6 0
v -31 -6 0
v -31 -5 0
v -30 -5 0
v -31 -6 0
v -32 -6 0
v -32 -5 0
v -31 -5 0
v 0 -7 0
v -1 -7 0
v -1 -6 0
v 0 -6 0
v -1 -7 0
v -2 -7 0
v -2 -6 0
v -1 -6 0
v -2 -7 0
v -3 -7 0
v -3 -6 0
v -2 -6 0
v -3 -7 0
v -4 -7 0
v -4 -6 0
v -3 -6 0
v -4 -7 0
v -5 -7 0
v -5 -6 0
v -4 -6 0
v -5 -7 0
v -6 -7 0
v -6 -6 0
v -5 -6 0
v -6 -7 0
v -7 -7 0
v -7 -6 0
v -6 -6 0
v -7 -7 0
v -8 -7 0
v -8 -6 0
v -7 -6 0
v -8 -7 0
v -9 -7 0
v -9 -6 0
v -8 -6 0
v -9 -7 0
v -10 -7 0
v -10 -6 0
v -9 -6 0
v -10 -7 0
v -11 -7 0
v -11 -6 0
v -10 -6 0
v 0 -8 0
v -1 -8 0
v -1 -7 0
v 0 -7 0
v -1 -8 0
v -2 -8 0
v -2 -7 0
v -1 -7 0
v -7 -8 0
v -8 -8 0
v -8 -7 0
v -7 -7 0
v -8 -8 0
v -9 -8 0
v -9 -7 0
v -8 -7 0
v -9 -8 0
v -10 -8 0
v -10 -7 0
v -9 -7 0
v -10 -8 0
v -11 -8 0
v -11 -7 0
v -10 -7 0
v -2 -11 0
v -3 -11 0
v -3 -10 0
v -2 -10 0
v -3 -11 0
v -4 -11 0
v -4 -10 0
v -3 -10 0
v -4 -11 0
v -5 -11 0
v -5 -10 0
v -4 -10 0
v -5 -11 0
v -6 -11 0
v -6 -10 0
v -5 -10 0
v -6 -11 0
v -7 -11 0
v -7 -10 0
v -6 -10 0
v -4 -12 0
v -5 -12 0
v -5 -11 0
v -4 -11 0
v -4 -13 0
v -5 -13 0
v -5 -12 0
v -4 -12 0
v -4 -14 0
v -5 -14 0
v -5 -13 0
v -4 -13 0
v -4 -15 0
v -5 -15 0
v -5 -14 0
v -4 -14 0

# Texture cooridinates (Count = 44)
vt 0.05 0.92
vt 0.075 0.92
vt 0.075 0.96
vt 0.05 0.96
vt 0.3 0.76
vt 0.325 0.76
vt 0.325 0.8
vt 0.3 0.8
vt 0.35 0.8
vt 0.375 0.8
vt 0.375 0.84
vt 0.35 0.84
vt 0.3 0.72
vt 0.325 0.72
vt 0.35 0.76
vt 0.05 0.84
vt 0.075 0.84
vt 0.075 0.88
vt 0.05 0.88
vt 0.35 0.72
vt 0.05 0.8
vt 0.075 0.8
vt 0.025 0.84
vt 0.025 0.88
vt 0.1 0.84
vt 0.1 0.88
vt 0.05 0.76
vt 0.075 0.76
vt 0.025 0.8
vt 0.1 0.8
vt 0.125 0.8
vt 0.125 0.84
vt 0.05 0.72
vt 0.075 0.72
vt 0.025 0.76
vt 0.1 0.76
vt 0.125 0.76
vt 0.025 0.72
vt 0.1 0.72
vt 0.125 0.72
vt 0.175 0.84
vt 0.2 0.84
vt 0.2 0.88
vt 0.175 0.88

# Normal
vn 0 0 -1

# Mesh description
g Cave_mesh_0003

# Faces
f 1/1/1 2/2/1 3/3/1 4/4/1
f 5/1/1 6/2/1 7/3/1 8/4/1
f 9/1/1 10/2/1 11/3/1 12/4/1
f 13/1/1 14/2/1 15/3/1 16/4/1
f 17/1/1 18/2/1 19/3/1 20/4/1
f 21/1/1 22/2/1 23/3/1 24/4/1
f 25/1/1 26/2/1 27/3/1 28/4/1
f 29/1/1 30/2/1 31/3/1 32/4/1
f 33/1/1 34/2/1 35/3/1 36/4/1
f 37/1/1 38/2/1 39/3/1 40/4/1
f 41/5/1 42/6/1 43/7/1 44/8/1
f 45/5/1 46/6/1 47/7/1 48/8/1
f 49/5/1 50/6/1 51/7/1 52/8/1
f 53/5/1 54/6/1 55/7/1 56/8/1
f 57/5/1 58/6/1 59/7/1 60/8/1
f 61/5/1 62/6/1 63/7/1 64/8/1
f 65/5/1 66/6/1 67/7/1 68/8/1
f 69/5/1 70/6/1 71/7/1 72/8/1
f 73/5/1 74/6/1 75/7/1 76/8/1
f 77/5/1 78/6/1 79/7/1 80/8/1
f 81/5/1 82/6/1 83/7/1 84/8/1
f 85/5/1 86/6/1 87/7/1 88/8/1
f 89/5/1 90/6/1 91/7/1 92/8/1
f 93/5/1 94/6/1 95/7/1 96/8/1
f 97/5/1 98/6/1 99/7/1 100/8/1
f 101/5/1 102/6/1 103/7/1 104/8/1
f 105/5/1 106/6/1 107/7/1 108/8/1
f 109/5/1 110/6/1 111/7/1 112/8/1
f 113/5/1 114/6/1 115/7/1 116/8/1
f 117/5/1 118/6/1 119/7/1 120/8/1
f 121/5/1 122/6/1 123/7/1 124/8/1
f 125/5/1 126/6/1 127/7/1 128/8/1
f 129/1/1 130/2/1 131/3/1 132/4/1
f 133/1/1 134/2/1 135/3/1 136/4/1
f 137/1/1 138/2/1 139/3/1 140/4/1
f 141/1/1 142/2/1 143/3/1 144/4/1
f 145/1/1 146/2/1 147/3/1 148/4/1
f 149/1/1 150/2/1 151/3/1 152/4/1
f 153/1/1 154/2/1 155/3/1 156/4/1
f 157/1/1 158/2/1 159/3/1 160/4/1
f 161/1/1 162/2/1 163/3/1 164/4/1
f 165/9/1 166/10/1 167/11/1 168/12/1
f 169/13/1 170/14/1 171/6/1 172/5/1
f 173/13/1 174/14/1 175/6/1 176/5/1
f 177/13/1 178/14/1 179/6/1 180/5/1
f 181/13/1 182/14/1 183/6/1 184/5/1
f 185/13/1 186/14/1 187/6/1 188/5/1
f 189/13/1 190/14/1 191/6/1 192/5/1
f 193/13/1 194/14/1 195/6/1 196/5/1
f 197/13/1 198/14/1 199/6/1 200/5/1
f 201/13/1 202/14/1 203/6/1 204/5/1
f 205/13/1 206/14/1 207/6/1 208/5/1
f 209/13/1 210/14/1 211/6/1 212/5/1
f 213/13/1 214/14/1 215/6/1 216/5/1
f 217/13/1 218/14/1 219/6/1 220/5/1
f 221/13/1 222/14/1 223/6/1 224/5/1
f 225/13/1 226/14/1 227/6/1 228/5/1
f 229/13/1 230/14/1 231/6/1 232/5/1
f 233/13/1 234/14/1 235/6/1 236/5/1
f 237/13/1 238/14/1 239/6/1 240/5/1
f 241/13/1 242/14/1 243/6/1 244/5/1
f 245/13/1 246/14/1 247/6/1 248/5/1
f 249/13/1 250/14/1 251/6/1 252/5/1
f 253/13/1 254/14/1 255/6/1 256/5/1
f 257/1/1 258/2/1 259/3/1 260/4/1
f 261/1/1 262/2/1 263/3/1 264/4/1
f 265/1/1 266/2/1 267/3/1 268/4/1
f 269/1/1 270/2/1 271/3/1 272/4/1
f 273/1/1 274/2/1 275/3/1 276/4/1
f 277/1/1 278/2/1 279/3/1 280/4/1
f 281/1/1 282/2/1 283/3/1 284/4/1
f 285/1/1 286/2/1 287/3/1 288/4/1
f 289/1/1 290/2/1 291/3/1 292/4/1
f 293/6/1 294/15/1 295/9/1 296/7/1
f 297/16/1 298/17/1 299/18/1 300/19/1
f 301/16/1 302/17/1 303/18/1 304/19/1
f 305/16/1 306/17/1 307/18/1 308/19/1
f 309/16/1 310/17/1 311/18/1 312/19/1
f 313/16/1 314/17/1 315/18/1 316/19/1
f 317/16/1 318/17/1 319/18/1 320/19/1
f 321/16/1 322/17/1 323/18/1 324/19/1
f 325/16/1 326/17/1 327/18/1 328/19/1
f 329/16/1 330/17/1 331/18/1 332/19/1
f 333/16/1 334/17/1 335/18/1 336/19/1
f 337/16/1 338/17/1 339/18/1 340/19/1
f 341/16/1 342/17/1 343/18/1 344/19/1
f 345/16/1 346/17/1 347/18/1 348/19/1
f 349/16/1 350/17/1 351/18/1 352/19/1
f 353/16/1 354/17/1 355/18/1 356/19/1
f 357/16/1 358/17/1 359/18/1 360/19/1
f 361/16/1 362/17/1 363/18/1 364/19/1
f 365/16/1 366/17/1 367/18/1 368/19/1
f 369/16/1 370/17/1 371/18/1 372/19/1
f 373/16/1 374/17/1 375/18/1 376/19/1
f 377/16/1 378/17/1 379/18/1 380/19/1
f 381/16/1 382/17/1 383/18/1 384/19/1
f 385/13/1 386/14/1 387/6/1 388/5/1
f 389/13/1 390/14/1 391/6/1 392/5/1
f 393/13/1 394/14/1 395/6/1 396/5/1
f 397/13/1 398/14/1 399/6/1 400/5/1
f 401/13/1 402/14/1 403/6/1 404/5/1
f 405/13/1 406/14/1 407/6/1 408/5/1
f 409/13/1 410/14/1 411/6/1 412/5/1
f 413/13/1 414/14/1 415/6/1 416/5/1
f 417/13/1 418/14/1 419/6/1 420/5/1
f 421/14/1 422/20/1 423/15/1 424/6/1
f 425/21/1 426/22/1 427/17/1 428/16/1
f 429/21/1 430/22/1 431/17/1 432/16/1
f 433/21/1 434/22/1 435/17/1 436/16/1
f 437/21/1 438/22/1 439/17/1 440/16/1
f 441/21/1 442/22/1 443/17/1 444/16/1
f 445/21/1 446/22/1 447/17/1 448/16/1
f 449/21/1 450/22/1 451/17/1 452/16/1
f 453/21/1 454/22/1 455/17/1 456/16/1
f 457/21/1 458/22/1 459/17/1 460/16/1
f 461/21/1 462/22/1 463/17/1 464/16/1
f 465/21/1 466/22/1 467/17/1 468/16/1
f 469/21/1 470/22/1 471/17/1 472/16/1
f 473/21/1 474/22/1 475/17/1 476/16/1
f 477/21/1 478/22/1 479/17/1 480/16/1
f 481/21/1 482/22/1 483/17/1 484/16/1
f 485/21/1 486/22/1 487/17/1 488/16/1
f 489/21/1 490/22/1 491/17/1 492/16/1
f 493/21/1 494/22/1 495/17/1 496/16/1
f 497/21/1 498/22/1 499/17/1 500/16/1
f 501/21/1 502/22/1 503/17/1 504/16/1
f 505/21/1 506/22/1 507/17/1 508/16/1
f 509/21/1 510/22/1 511/17/1 512/16/1
f 513/23/1 514/16/1 515/19/1 516/24/1
f 517/16/1 518/17/1 519/18/1 520/19/1
f 521/16/1 522/17/1 523/18/1 524/19/1
f 525/16/1 526/17/1 527/18/1 528/19/1
f 529/16/1 530/17/1 531/18/1 532/19/1
f 533/16/1 534/17/1 535/18/1 536/19/1
f 537/16/1 538/17/1 539/18/1 540/19/1
f 541/16/1 542/17/1 543/18/1 544/19/1
f 545/16/1 546/17/1 547/18/1 548/19/1
f 549/17/1 550/25/1 551/26/1 552/18/1
f 553/27/1 554/28/1 555/22/1 556/21/1
f 557/27/1 558/28/1 559/22/1 560/21/1
f 561/27/1 562/28/1 563/22/1 564/21/1
f 565/27/1 566/28/1 567/22/1 568/21/1
f 569/27/1 570/28/1 571/22/1 572/21/1
f 573/27/1 574/28/1 575/22/1 576/21/1
f 577/27/1 578/28/1 579/22/1 580/21/1
f 581/27/1 582/28/1 583/22/1 584/21/1
f 585/27/1 586/28/1 587/22/1 588/21/1
f 589/27/1 590/28/1 591/22/1 592/21/1
f 593/27/1 594/28/1 595/22/1 596/21/1
f 597/27/1 598/28/1 599/22/1 600/21/1
f 601/27/1 602/28/1 603/22/1 604/21/1
f 605/27/1 606/28/1 607/22/1 608/21/1
f 609/27/1 610/28/1 611/22/1 612/21/1
f 613/27/1 614/28/1 615/22/1 616/21/1
f 617/27/1 618/28/1 619/22/1 620/21/1
f 621/27/1 622/28/1 623/22/1 624/21/1
f 625/27/1 626/28/1 627/22/1 628/21/1
f 629/27/1 630/28/1 631/22/1 632/21/1
f 633/27/1 634/28/1 635/22/1 636/21/1
f 637/27/1 638/28/1 639/22/1 640/21/1
f 641/29/1 642/21/1 643/16/1 644/23/1
f 645/21/1 646/22/1 647/17/1 648/16/1
f 649/21/1 650/22/1 651/17/1 652/16/1
f 653/21/1 654/22/1 655/17/1 656/16/1
f 657/21/1 658/22/1 659/17/1 660/16/1
f 661/21/1 662/22/1 663/17/1 664/16/1
f 665/21/1 666/22/1 667/17/1 668/16/1
f 669/21/1 670/22/1 671/17/1 672/16/1
f 673/21/1 674/22/1 675/17/1 676/16/1
f 677/22/1 678/30/1 679/25/1 680/17/1
f 681/30/1 682/31/1 683/32/1 684/25/1
f 685/33/1 686/34/1 687/28/1 688/27/1
f 689/33/1 690/34/1 691/28/1 692/27/1
f 693/33/1 694/34/1 695/28/1 696/27/1
f 697/33/1 698/34/1 699/28/1 700/27/1
f 701/33/1 702/34/1 703/28/1 704/27/1
f 705/33/1 706/34/1 707/28/1 708/27/1
f 709/33/1 710/34/1 711/28/1 712/27/1
f 713/33/1 714/34/1 715/28/1 716/27/1
f 717/33/1 718/34/1 719/28/1 720/27/1
f 721/33/1 722/34/1 723/28/1 724/27/1
f 725/33/1 726/34/1 727/28/1 728/27/1
f 729/33/1 730/34/1 731/28/1 732/27/1
f 733/33/1 734/34/1 735/28/1 736/27/1
f 737/33/1 738/34/1 739/28/1 740/27/1
f 741/33/1 742/34/1 743/28/1 744/27/1
f 745/33/1 746/34/1 747/28/1 748/27/1
f 749/33/1 750/34/1 751/28/1 752/27/1
f 753/33/1 754/34/1 755/28/1 756/27/1
f 757/33/1 758/34/1 759/28/1 760/27/1
f 761/33/1 762/34/1 763/28/1 764/27/1
f 765/33/1 766/34/1 767/28/1 768/27/1
f 769/35/1 770/27/1 771/21/1 772/29/1
f 773/27/1 774/28/1 775/22/1 776/21/1
f 777/27/1 778/28/1 779/22/1 780/21/1
f 781/27/1 782/28/1 783/22/1 784/21/1
f 785/27/1 786/28/1 787/22/1 788/21/1
f 789/27/1 790/28/1 791/22/1 792/21/1
f 793/27/1 794/28/1 795/22/1 796/21/1
f 797/27/1 798/28/1 799/22/1 800/21/1
f 801/27/1 802/28/1 803/22/1 804/21/1
f 805/28/1 806/36/1 807/30/1 808/22/1
f 809/36/1 810/37/1 811/31/1 812/30/1
f 813/38/1 814/33/1 815/27/1 816/35/1
f 817/33/1 818/34/1 819/28/1 820/27/1
f 821/33/1 822/34/1 823/28/1 824/27/1
f 825/33/1 826/34/1 827/28/1 828/27/1
f 829/34/1 830/39/1 831/36/1 832/28/1
f 833/39/1 834/40/1 835/37/1 836/36/1
f 837/41/1 838/42/1 839/43/1 840/44/1
f 841/41/1 842/42/1 843/43/1 844/44/1
f 845/41/1 846/42/1 847/43/1 848/44/1
f 849/41/1 850/42/1 851/43/1 852/44/1
f 853/41/1 854/42/1 855/43/1 856/44/1
f 857/41/1 858/42/1 859/43/1 860/44/1
f 861/41/1 862/42/1 863/43/1 864/44/1
f 865/41/1 866/42/1 867/43/1 868/44/1
f 869/41/1 870/42/1 871/43/1 872/44/1

