﻿# Tiled2Unity generated file. Do not modify by hand.
# Wavefront file for 'Cave_mesh_0010.obj'

# Vertices (Count = 4)
v -4 -10 0
v -5 -10 0
v -5 -9 0
v -4 -9 0

# Texture cooridinates (Count = 4)
vt 0.325 0.6
vt 0.35 0.6
vt 0.35 0.64
vt 0.325 0.64

# Normal
vn 0 0 -1

# Mesh description
g Cave_mesh_0010

# Faces
f 1/1/1 2/2/1 3/3/1 4/4/1

